"Timestamp","What was the first thing you noticed about amBrOISEa?","I liked how the screen showed the map and the assistant at the same time.","The assistant ""tree"" could have been better represented in some other way.","I knew exactly how to navigate through amBrOISEa as soon as it opened up.","I almost always got the results I intended to look for.","amBrOISEa was easy and intuitive to use. ","I liked that I was asked if it understood me correctly.","I had the impression that amBrOISEa was improving as I used it. ","amBrOISEa always did the right thing after asking me for a clarification.","I always understood what was required for me to do next.","I did not know when to speak and when to pause","I felt amBrOISEa could better predict what I wanted next.","amBrOISEa appeared to easily understand what I said to it.","I felt that the interaction was more natural than the other personal assistants I have used.","I liked that I could fix misunderstandings quickly.","I liked that I could say reset and start all over again.","How many times have you interacted with a speech-based personal assistant? 1 Being once or twice till today and 5 being Many times daily.","Which personal assistant do you mostly interact with?","Which features frustrate you the most about current personal assistants.(Pick at least 2)","Would you use this as an app on a mobile device?","What improvements would you like to suggest for amBrOISEa?","Which new avenues do you see this technology being applied to in the future?"
"2017/05/25 4:41:07 PM CDT","voice recognition","5","5","4","4","4","3","3","4","4","2","4","5","3","4","5","1","Siri","They don't understand me.;I can't correct them mid-sentence.;They talk when I talk and we end up accomplishing nothing.","4","More options","public interactive maps"
"2017/05/26 5:22:18 PM CDT","mic was needed ","5","1","5","5","5","5","3","5","5","3","3","5","4","5","5","2","Siri","There is no way to know if they understand me correctly.;I can't correct them mid-sentence.;They talk when I talk and we end up accomplishing nothing.","5","-let us know that mic is needed beforehand
-should be a way to pause it for sometime
-can be able to get out of the app once im done and not need to wait till the timer ends","Phones maybe. "
"2017/05/26 6:05:44 PM CDT","The app takes in queries as voice and process it accordingly.","3","5","1","3","2","3","2","1","1","4","3","4","2","3","3","3","Google now","They don't understand me.;I can't correct them mid-sentence.","2","I think more intuitive ways of showing result would improve user experience. Itinerary would make more sense if we schedule events with time as well, just selecting places would still leave work to the users on planning out the itinerary.","This application seems to aid travelers in planning out what places to visit. But the suggestions provided here were not different from just pinning the locations in google maps and later track the pinned places for the reference. Temporal information on the selected location is much, in my opinion."
"2017/05/27 7:02:36 PM CDT","It has less tabs and only few features to focus on. ","5","4","1","1","3","5","1","3","2","3","3","5","4","3","5","2","Google now","There is no way to know if they understand me correctly.;I can't correct them mid-sentence.","5","The speech interaction can be used to add to itinerary. After picking Cuisine, price can be another way of narrowing down the choices. Location can be another way of narrowing choices. 
Under one option, say restaurant, other information should appear next to it like reviews, peak hours, available parking space. But all these at the very bottom so only those who want it can see it. 
For first time users, it is unclear whether the speech interaction starts immediately after opening or if it needs a button activation. ","To pick cities for meeting avenues. A team of people can sit in the office and pick these random combination of categories until they narrow it down to one option place. And on plane navigation systems and with any team that needs to make fast decisions under many criterion."
"2017/05/29 12:52:13 PM CDT","Did not respond to clicks or spoken commands in either Chrome or Edge. I checked microphone settings beforehand. Some replies on the questionnaire do not reflect actual use of the app since I could not use it.","5","3","2","5","3","3","2","2","2","2","2","2","2","2","5","1","Alexa","I can't correct them mid-sentence.;They talk when I talk and we end up accomplishing nothing.","5","Have instructions open in another browser in case you forget while you are using it. Microphone check?","I wish it would work, that would be awesome. Especially if you could re-order the items in your itinerary."