[{"geometry":{"location":{"lat":43.62098400000001,"lng":-116.23474799999997},"viewport":{"south":43.6194508197085,"west":-116.23633848029147,"north":43.6221487802915,"east":-116.2336405197085}},"icon":"https://maps.gstatic.com/mapfiles/place_api/icons/lodging-71.png","id":"ebbc24ff97b776e039a8743d7516eabce98036c8","name":"The Riverside Hotel","opening_hours":{"open_now":true,"weekday_text":[]},"photos":[{"height":716,"html_attributions":["<a href=\"https://maps.google.com/maps/contrib/109664440446973543414/photos\">Masahide Hamatani</a>"],"width":960}],"place_id":"ChIJjQVpo774rlQR8J4VPPy5AvM","rating":4.3,"reference":"CmRSAAAAEP-pRuNTmKWRSWu2WSVwx4wMcrX5OHh9wNI7ppN8pzMUsV0JdAFcJ9QtXwW3jHlKPUmvYuZ1jLxrvYgMYE-spaNSGO--wJclTepDAk07TzUbPQ0ypoLVTedT3VfKmYVKEhBkH1b9M3pKxjYI0ohm6KXlGhSlI-3CAOlORg1QelAPtbpS7iIkMA","scope":"GOOGLE","types":["lodging","restaurant","food","point_of_interest","establishment"],"vicinity":"2900 West Chinden Boulevard, Boise","html_attributions":[]},{"geometry":{"location":{"lat":43.5976065,"lng":-116.18360369999999},"viewport":{"south":43.59609836970851,"west":-116.18556593029149,"north":43.5987963302915,"east":-116.18286796970847}},"icon":"https://maps.gstatic.com/mapfiles/place_api/icons/restaurant-71.png","id":"64d88e39d56b69fa116c3a08c1d12fbe5a19193c","name":"Barbacoa Grill","opening_hours":{"open_now":false,"weekday_text":[]},"photos":[{"height":3024,"html_attributions":["<a href=\"https://maps.google.com/maps/contrib/100698815706981160546/photos\">Michael Vlogs</a>"],"width":4032}],"place_id":"ChIJq1FUdk74rlQRGnFPuu8B0dw","price_level":3,"rating":4.3,"reference":"CmRSAAAAEzSizdANfy-OPke6pgmihff16-Ddrbchj1RwCl1YpXoIu4SMvbdtms81GyM7kWfsBA2agQ4jvputo2eRQ6jJNq0guHtiW7GM52xqOqdwnYLzPAPu11vTQh5haCX-yXYEEhD3wHJ6Wi4zr7p6tXv_6sZ_GhTkXN_Zby79XJTcEwxbObBPsivJ6w","scope":"GOOGLE","types":["bar","restaurant","food","point_of_interest","establishment"],"vicinity":"276 Bobwhite Court, Boise","html_attributions":[]},{"geometry":{"location":{"lat":43.6163041,"lng":-116.2030426},"viewport":{"south":43.6149173197085,"west":-116.20431598029148,"north":43.6176152802915,"east":-116.20161801970852}},"icon":"https://maps.gstatic.com/mapfiles/place_api/icons/restaurant-71.png","id":"8526db513f68532e4897359b715286f07da1dbfc","name":"Fork","opening_hours":{"open_now":false,"weekday_text":[]},"photos":[{"height":2988,"html_attributions":["<a href=\"https://maps.google.com/maps/contrib/106521855672128474922/photos\">Tamara Pettinger</a>"],"width":5312}],"place_id":"ChIJhZiKh-T4rlQRwIe2dmc7VAI","price_level":2,"rating":4.3,"reference":"CmRRAAAAACrwaaeacXY6TefatIpQPnofDi6UPvcGQ7GnZmSTvc2QawkzxHCLSI9SgHM4hPltK3d7Cg4B-S5X7teUhG-fDEH2e3rfxtM74RjZMaarQQ4SwWHsdxaibHTJAyrBQDHDEhAlMjeoyJjivJUg61WSf_SsGhSmMnAcFL02iDR5rlQck_qnoTyvPg","scope":"GOOGLE","types":["bar","restaurant","food","point_of_interest","establishment"],"vicinity":"199 North 8th Street, Boise","html_attributions":[]},{"geometry":{"location":{"lat":43.61392499999999,"lng":-116.20228500000002},"viewport":{"south":43.61256866970851,"west":-116.20364083029153,"north":43.61526663029151,"east":-116.20094286970851}},"icon":"https://maps.gstatic.com/mapfiles/place_api/icons/restaurant-71.png","id":"b18c8331e9a9be90c9abe6afd1a2de6f896af68c","name":"Bardenay","opening_hours":{"open_now":false,"weekday_text":[]},"photos":[{"height":1539,"html_attributions":["<a href=\"https://maps.google.com/maps/contrib/104799580007864976275/photos\">Bardenay</a>"],"width":1536}],"place_id":"ChIJN8rsMvv4rlQRk0ZIq_0dQxI","price_level":1,"rating":4.4,"reference":"CmRRAAAAgGNp0aN4Fs-y-TU3vQeeN1yRs-u-VLqU3HFfUDllIo5BgY0oUWgbVvhlzAtAV_1PLfZPgjZH6QJOV6Ado6ouaJ22k_WJ5RTeM813Vq2y5I4tobXvLLjwf9JPULshDn3yEhDRz-6TVFxGVuP1otYUse3JGhQVG1pTuCpndNVU2_5j-M9xR8c1IA","scope":"GOOGLE","types":["bar","restaurant","food","point_of_interest","establishment"],"vicinity":"610 West Grove Street, Boise","html_attributions":[]},{"geometry":{"location":{"lat":43.6155352,"lng":-116.2064158},"viewport":{"south":43.6142512197085,"west":-116.20761293029148,"north":43.6169491802915,"east":-116.20491496970851}},"icon":"https://maps.gstatic.com/mapfiles/place_api/icons/restaurant-71.png","id":"fd33d24784945e9c154086ad273a166e0185a908","name":"Chandlers Steakhouse-Boise","opening_hours":{"open_now":false,"weekday_text":[]},"photos":[{"height":1024,"html_attributions":["<a href=\"https://maps.google.com/maps/contrib/112648581692449918650/photos\">Chandlers Steakhouse-Boise</a>"],"width":1024}],"place_id":"ChIJC5Ayp-X4rlQREgo9eRuWv3I","price_level":2,"rating":4.4,"reference":"CmRRAAAAGbC3w38hZfbo14wYwR9ph_0TY4NEvcV_ESUXz8Cdc97cipUIMDcs6DK0yMSFsGCaxX7t9UFBsKm2PBRSiMUIclzS85OkUZYh5b0Da3I3MFBhWiNolJFn0c9LepXigKWlEhAagJJ7qWC89EsGtkqOQrIwGhTOxwanKFuX3bR1aGRPxsSEC5xaaA","scope":"GOOGLE","types":["night_club","bar","restaurant","food","point_of_interest","establishment"],"vicinity":"981 West Grove Street, Boise","html_attributions":[]},{"geometry":{"location":{"lat":43.61407169999999,"lng":-116.20296719999999},"viewport":{"south":43.6127679197085,"west":-116.20440718029147,"north":43.6154658802915,"east":-116.2017092197085}},"icon":"https://maps.gstatic.com/mapfiles/place_api/icons/bar-71.png","id":"d6063e537ac83d7712cda3a0e08ef41b83c52348","name":"Bar Gernika","opening_hours":{"open_now":false,"weekday_text":[]},"photos":[{"height":3024,"html_attributions":["<a href=\"https://maps.google.com/maps/contrib/114828166505888869374/photos\">Seth Mitchell</a>"],"width":4032}],"place_id":"ChIJ_cdl0-T4rlQRHCNt4yG-lE4","price_level":2,"rating":4.6,"reference":"CmRRAAAA3ZOeW-FXxzCwmvwN2auW8oL317JAcsM2SsYd-8XbV8NI_tRyE0NMdmYkniE1bVoOqzbImpZjZGb7btROLjORj4aK8L3SEeQ6HRptGnGKKesXFae0UZ0W9qeSV14QN1n5EhBFzmOn_wiwVknPM_xw-jG6GhRZ9XcQNyBYJApCjjprk_TDMlrbEA","scope":"GOOGLE","types":["bar","restaurant","food","point_of_interest","establishment"],"vicinity":"202 South Capitol Boulevard, Boise","html_attributions":[]},{"geometry":{"location":{"lat":43.6170801,"lng":-116.20599420000002},"viewport":{"south":43.6156598697085,"west":-116.20741293029153,"north":43.6183578302915,"east":-116.2047149697085}},"icon":"https://maps.gstatic.com/mapfiles/place_api/icons/restaurant-71.png","id":"ff158e3cbf473adf75fb8238b23e6aafb1a596d9","name":"Asiago's","opening_hours":{"open_now":false,"weekday_text":[]},"photos":[{"height":1536,"html_attributions":["<a href=\"https://maps.google.com/maps/contrib/102254770634506442143/photos\">Asiago&#39;s</a>"],"width":2048}],"place_id":"ChIJlVmRNeT4rlQRdkLYMEJD3Xk","price_level":2,"rating":4,"reference":"CmRRAAAAUCY9Yhuclfpt74kKu3wgEP4jVdXVo4aUt3wTRi8pP5g_1r6xdG_f5S0TKPngZcRh_nH1TS6YDLWybGJZWAnI_NgRFU8lXSrbv3fHTgTX9znpcAXyD_OvOTJlMEV7qz6UEhAZbP7BsAvJsAOXlE-hSjniGhS7w3nM2nDkM5-OWPecBcJU2vI31g","scope":"GOOGLE","types":["bar","restaurant","food","point_of_interest","establishment"],"vicinity":"1002 Main Street, Boise","html_attributions":[]},{"geometry":{"location":{"lat":43.61700799999999,"lng":-116.20243700000003},"viewport":{"south":43.6156107197085,"west":-116.20368888029151,"north":43.6183086802915,"east":-116.20099091970849}},"icon":"https://maps.gstatic.com/mapfiles/place_api/icons/restaurant-71.png","id":"a245eb7dec003de9eecc19e1b6614b8d7362c3e5","name":"The Matador","opening_hours":{"open_now":false,"weekday_text":[]},"photos":[{"height":1669,"html_attributions":["<a href=\"https://maps.google.com/maps/contrib/100400820212515965572/photos\">The Matador</a>"],"width":1672}],"place_id":"ChIJqRZ_eOT4rlQRp5XjERbto-o","rating":3.9,"reference":"CmRSAAAAZOHDCZoHTthsheTV-l8UIP5UP6lop7uvBHNy53qo40OPwvZtAezEH7XDP6slS4uG7j2qhkq-FZLxm1z5x4rwuAZ_vVJa-ZLjXc1X9aLsyIDZy3t6b5kUSbnSRUU64oESEhDFay_adc3mSuIO7RcN-ih3GhSz1Q3wKzjOmlb0eGKR5cLgKMSJ2A","scope":"GOOGLE","types":["bar","restaurant","food","point_of_interest","establishment"],"vicinity":"215 North 8th Street, Boise","html_attributions":[]},{"geometry":{"location":{"lat":43.6163752,"lng":-116.20232980000003},"viewport":{"south":43.6149506197085,"west":-116.20375303029152,"north":43.6176485802915,"east":-116.2010550697085}},"icon":"https://maps.gstatic.com/mapfiles/place_api/icons/restaurant-71.png","id":"4e370af04c985874db5b46fd7e11bf85a94067fc","name":"Pho Nouveau","opening_hours":{"open_now":false,"weekday_text":[]},"photos":[{"height":2988,"html_attributions":["<a href=\"https://maps.google.com/maps/contrib/101893191517320679210/photos\">Bobby Foster</a>"],"width":5312}],"place_id":"ChIJzUsGh-T4rlQRp0rF8YWPep8","price_level":2,"rating":4,"reference":"CmRSAAAA_g13fjh-eesD-QMijpe5QcVxtBFe5cg_6Ukk71CVicB8G6mJ8ra5LdWiVZykwf4xNJsdOO40PpJKMz0w7S4Fe7LfCRVytW3KrkYig5AlwdrnhznfUqpcmo-dFedPamedEhB71S8uOcc-LU-OjmIV1rjNGhQBp2ZfGFazG4Zi4VLUi0s6XiaFtw","scope":"GOOGLE","types":["bar","restaurant","food","point_of_interest","establishment"],"vicinity":"780 West Idaho Street, Boise","html_attributions":[]},{"geometry":{"location":{"lat":43.6140607,"lng":-116.20197000000002},"viewport":{"south":43.6125954697085,"west":-116.20342708029148,"north":43.6152934302915,"east":-116.20072911970851}},"icon":"https://maps.gstatic.com/mapfiles/place_api/icons/restaurant-71.png","id":"a9b3a66526b4b7e5b438c197e5712acfd511507b","name":"The Basque Market","opening_hours":{"open_now":false,"weekday_text":[]},"photos":[{"height":512,"html_attributions":["<a href=\"https://maps.google.com/maps/contrib/114125245679631595111/photos\">Tyler Bush</a>"],"width":341}],"place_id":"ChIJZbOuNPv4rlQRuAi6L0BhgzY","price_level":1,"rating":4.4,"reference":"CmRRAAAA1jbTDd9ZV9N5HqTlhUcSXl1fkc_iv1b9BVNuKNZUpHnBvY9w9n4cJcdao6_lC7j21yjDl7a90ZDVDTMF5jkHR2i6BKe9Zp2b--I2q1PjN4E63HuePSuWsTFKHg2zrtmEEhCMS9bsji1U7CYAUfhyLqC_GhSL-h1Q9DcL1yXADQc1ceOgONW1hw","scope":"GOOGLE","types":["restaurant","food","point_of_interest","establishment"],"vicinity":"608 West Grove Street, Boise","html_attributions":[]},{"geometry":{"location":{"lat":43.60454259999999,"lng":-116.19263940000002},"viewport":{"south":43.6034003197085,"west":-116.1935800802915,"north":43.6060982802915,"east":-116.19088211970848}},"icon":"https://maps.gstatic.com/mapfiles/place_api/icons/restaurant-71.png","id":"7065de524247ef901beaeb52dda805faa800e804","name":"Ram Restaurant & Brewery","opening_hours":{"open_now":false,"weekday_text":[]},"photos":[{"height":2992,"html_attributions":["<a href=\"https://maps.google.com/maps/contrib/103973203825542789666/photos\">Ben Studer</a>"],"width":4000}],"place_id":"ChIJwft8X1b4rlQRbtC7COtLCP0","price_level":2,"rating":3.4,"reference":"CmRSAAAAHQUTvL7hj9ypxKui21MRjCTQ8XOMSKQRBC1wH3OMr3UuJbljsr2hLewc5cXDzm_5hTxHJSubiagqbWKRkXxwLTLI9Wrg4rmIWRRJH8exFBRpv8cVDEsmk_IRsQ4lfygPEhDZB_8wZwGgyvK-d7PLpfOWGhQ10I0FI9JwRq7TRBcTEUSjDNAUFg","scope":"GOOGLE","types":["restaurant","bar","food","point_of_interest","establishment"],"vicinity":"709 E Park Blvd, Boise","html_attributions":[]},{"geometry":{"location":{"lat":43.61659909999999,"lng":-116.20222869999998},"viewport":{"south":43.61530251970849,"west":-116.2036831302915,"north":43.61800048029149,"east":-116.20098516970847}},"icon":"https://maps.gstatic.com/mapfiles/place_api/icons/restaurant-71.png","id":"1e74fe10bc4d2101a8d623bb6be432902c3191e8","name":"Bittercreek Alehouse","opening_hours":{"open_now":false,"weekday_text":[]},"photos":[{"height":1367,"html_attributions":["<a href=\"https://maps.google.com/maps/contrib/103233149298166522031/photos\">Bittercreek Alehouse</a>"],"width":1370}],"place_id":"ChIJh5cdf-T4rlQRoLk7ABLyeH8","price_level":2,"rating":4.4,"reference":"CmRRAAAAANEpdFDv4T0OCZKx2DMlHC-1MKYoQtcGLMHdJmQfIG3G9ZI-7XISa2Qq7mjmjbDJZhvAc_55uM55NIrt1CzEM5Y5k6i7Mag9DGcAjLEk3Nr45EIt2EOluCcMFbiTjqZFEhCEl2a2me0GMgFLuHUVNXVuGhT8iqmcHFdmEEcp3PxZpk2-qCOvbA","scope":"GOOGLE","types":["bar","restaurant","food","point_of_interest","establishment"],"vicinity":"246 North 8th Street, Boise","html_attributions":[]},{"geometry":{"location":{"lat":43.6109565,"lng":-116.21035589999997},"viewport":{"south":43.6098393697085,"west":-116.21154613029148,"north":43.6125373302915,"east":-116.20884816970852}},"icon":"https://maps.gstatic.com/mapfiles/place_api/icons/restaurant-71.png","id":"9bab2a13215457020e6e23a123b523d27b91b13a","name":"Cottonwood Grille","opening_hours":{"open_now":false,"weekday_text":[]},"photos":[{"height":386,"html_attributions":["<a href=\"https://maps.google.com/maps/contrib/116442426318666300856/photos\">Cottonwood Grille</a>"],"width":385}],"place_id":"ChIJT08rwPH4rlQRumpBoAGnsMw","price_level":3,"rating":4.1,"reference":"CmRSAAAAOYNnxdQsIhcRmGKduE9vT4dOUS2kuG2GWajhdETRyNVgbGtp3GqLagiCEdsO5LKQ3BEgZmtmsKwWIeobI7acikKUcFA4F-aPyMTIkBDWAdqVJ666slurHAAxT2mGIgxzEhBHzxJQvCUHeU-8igJlfYDLGhRmPjbhkkvenrGkAMPhGMKSVUP6Cg","scope":"GOOGLE","types":["restaurant","food","point_of_interest","establishment"],"vicinity":"913 West River Street, Boise","html_attributions":[]},{"geometry":{"location":{"lat":43.6246163,"lng":-116.21283740000001},"viewport":{"south":43.6233624697085,"west":-116.21409663029146,"north":43.6260604302915,"east":-116.2113986697085}},"icon":"https://maps.gstatic.com/mapfiles/place_api/icons/restaurant-71.png","id":"e693fd59b4fbab441f1e7ad696c1a4bfd6ac75d8","name":"Smoky Mountain Pizzeria Grill","opening_hours":{"open_now":false,"weekday_text":[]},"photos":[{"height":600,"html_attributions":["<a href=\"https://maps.google.com/maps/contrib/101843778625414647569/photos\">Chad Russell</a>"],"width":600}],"place_id":"ChIJy0pFQ9z4rlQRNxW9CYBsSm8","price_level":2,"rating":3.6,"reference":"CmRRAAAAoEpt9X4qxMpce7zgT8zsVrypHqzHQ85XJ9gyiFGubu_35JK9gnZ1BqtqWzzKTNRuGFC_hnX3h25lQihwKeXV0-DWlHEGY38xfnPRmKYanfYHIq9DS7eQcB0Ydsuh06lNEhBNbGZUeanWaMnJQ_HQJx5TGhRH0M7vJQGSfqc0ju9FsqHXLggQIg","scope":"GOOGLE","types":["restaurant","food","point_of_interest","establishment"],"vicinity":"1805 West State Street, Boise","html_attributions":[]},{"geometry":{"location":{"lat":43.613646,"lng":-116.2067528},"viewport":{"south":43.6123816197085,"west":-116.20802113029151,"north":43.6150795802915,"east":-116.20532316970849}},"icon":"https://maps.gstatic.com/mapfiles/place_api/icons/restaurant-71.png","id":"aa33f2fcefaa6115558548da301b47ddb2884856","name":"Bonefish Grill","opening_hours":{"open_now":false,"weekday_text":[]},"photos":[{"height":5312,"html_attributions":["<a href=\"https://maps.google.com/maps/contrib/111912612420893695403/photos\">Shannon Miner</a>"],"width":2988}],"place_id":"ChIJgVqCV-X4rlQRKcB05B_ilsk","price_level":2,"rating":4.2,"reference":"CmRSAAAASKeiZ5yY0OJ6hSnR7fzxT7uurDhvV2r8FOrAPCvNDl2pvCreJX72uzbanUth2A_B1lbD3ASUyFkqNM_70kw8SonX0Zmn755rbunm2HccSv_q-aLOzkT4JY12F9nrej3nEhB3JgnDksMhuvCOv0g7-dZdGhSERiEM86qe_APGVh-AZLMC7kf7Bw","scope":"GOOGLE","types":["bar","restaurant","food","point_of_interest","establishment"],"vicinity":"855 West Broad Street, Boise","html_attributions":[]},{"geometry":{"location":{"lat":43.5977804,"lng":-116.20565529999999},"viewport":{"south":43.59634356970849,"west":-116.20682908029153,"north":43.59904153029149,"east":-116.2041311197085}},"icon":"https://maps.gstatic.com/mapfiles/place_api/icons/restaurant-71.png","id":"a7d47d5166623bc77a546ec80797e24ce0cab7af","name":"Big Jud's","opening_hours":{"open_now":false,"weekday_text":[]},"photos":[{"height":2448,"html_attributions":["<a href=\"https://maps.google.com/maps/contrib/108574650664352090993/photos\">Wayne Wilson</a>"],"width":3264}],"place_id":"ChIJ0cGd6134rlQRH9Gittgzfyo","price_level":2,"rating":4.4,"reference":"CmRRAAAARkgG6cgJxhhQkVJxlh0DGFQyuQBb2ST3J4DEzPA3pABxh_mVchhHNgR2BZPyu8Ip80xb5gSdbzyzQhKXrAmfUO3FP1CbVapWp0BCwmqDRzwM_i6kq-rgPySh9-cg1ZcjEhAeuUQKLR1qBxvk3W2mo4oKGhTvv2GF1g4EjKLhy7XgynmUmincWw","scope":"GOOGLE","types":["restaurant","food","point_of_interest","establishment"],"vicinity":"1289 South Protest Road, Boise","html_attributions":[]},{"geometry":{"location":{"lat":43.621343,"lng":-116.23674399999999},"viewport":{"south":43.6198659697085,"west":-116.23826483029148,"north":43.6225639302915,"east":-116.23556686970852}},"icon":"https://maps.gstatic.com/mapfiles/place_api/icons/restaurant-71.png","id":"274c1054c7d01877112d3c39cedff999b992fc23","name":"The Stagecoach Inn","opening_hours":{"open_now":false,"weekday_text":[]},"photos":[{"height":1536,"html_attributions":["<a href=\"https://maps.google.com/maps/contrib/110893592801738311523/photos\">The Stagecoach Inn</a>"],"width":1539}],"place_id":"ChIJA23hXbn4rlQRRoadBu2IIig","price_level":2,"rating":4.5,"reference":"CmRRAAAA7um8L95gL9V5u-Vei_UQJ7GAZlt4QsGOnat5g6PzAHojfN7_VdMTnkVBVEBD8Icad7t2Jqm_7w8yfEiy54M1o02J69HvUkTkHhjvdE8lPhtAsEL24b2ym9N5MEMxkZb9EhBNt9K2Amt-pc1IZWYnNwsWGhREyMt6RJD7L_R_hBcXHQKmUvKxEQ","scope":"GOOGLE","types":["night_club","bar","restaurant","food","point_of_interest","establishment"],"vicinity":"3132 West Chinden Boulevard, Boise","html_attributions":[]},{"geometry":{"location":{"lat":43.6178706,"lng":-116.20272499999999},"viewport":{"south":43.6164017697085,"west":-116.2041918302915,"north":43.6190997302915,"east":-116.20149386970849}},"icon":"https://maps.gstatic.com/mapfiles/place_api/icons/restaurant-71.png","id":"4579dca4d12204a003603c5316831f34269c4117","name":"10 Barrel Brewing Boise","opening_hours":{"open_now":false,"weekday_text":[]},"photos":[{"height":3024,"html_attributions":["<a href=\"https://maps.google.com/maps/contrib/116730347019413240156/photos\">je aziz</a>"],"width":4032}],"place_id":"ChIJWTpx9OP4rlQRKLnvy5AaroU","rating":4.3,"reference":"CmRSAAAAQPeEKmYaG0yYg4Bp37G61bMW2M9H1N5jWSI0QI8ZzJXJnZhJ1nhwMHJOAFVztSLXifv_YmpdFAVZ9PB0HE9TF7EFyhnMGa1YMbQAr9NUGBsUnoLET1tG0PYSJU0bkiJREhA6F3pvU_FySAZB0ARH2_nUGhTSZwNyzJz9ihUF_kfFp2w1YbFEUQ","scope":"GOOGLE","types":["bar","restaurant","food","point_of_interest","establishment"],"vicinity":"826 West Bannock Street, Boise","html_attributions":[]},{"geometry":{"location":{"lat":43.61659909999999,"lng":-116.20222869999998},"viewport":{"south":43.61530251970849,"west":-116.2036831302915,"north":43.61800048029149,"east":-116.20098516970847}},"icon":"https://maps.gstatic.com/mapfiles/place_api/icons/restaurant-71.png","id":"80d87737ac384651f94d1285d1b8337dba88a4a6","name":"Red Feather Lounge","opening_hours":{"open_now":false,"weekday_text":[]},"photos":[{"height":1365,"html_attributions":["<a href=\"https://maps.google.com/maps/contrib/103684712951592661058/photos\">Red Feather Lounge</a>"],"width":1368}],"place_id":"ChIJh5cdf-T4rlQRiyAF4bY3vkk","price_level":2,"rating":4.5,"reference":"CmRRAAAAjdLy4c6enPcpQSvZ8gds5hArOgQB5eWxxi7_Xb0u4WM12IINrhts6zYQFcTwYA6tGvSHDczBRrVeu1jzSNdkaoyp6qsSbBiOqAlBVR0oXdiUJK13OHIwNdta4VNdtZe9EhAIBTuom65BZTeHdudKoVwEGhQqiZbwaE1pbbHNSgOLfRsJZMhFOQ","scope":"GOOGLE","types":["night_club","bar","restaurant","food","point_of_interest","establishment"],"vicinity":"246 North 8th Street, Boise","html_attributions":[]},{"geometry":{"location":{"lat":43.61702,"lng":-116.20458300000001},"viewport":{"south":43.6155503197085,"west":-116.20570123029148,"north":43.6182482802915,"east":-116.20300326970852}},"icon":"https://maps.gstatic.com/mapfiles/place_api/icons/restaurant-71.png","id":"eeccd3982117d0ff5c77b042aeed52f3a3f02fd2","name":"Berryhill Restaurant & Bar","opening_hours":{"open_now":false,"weekday_text":[]},"photos":[{"height":1027,"html_attributions":["<a href=\"https://maps.google.com/maps/contrib/114065815757051908504/photos\">Berryhill Restaurant &amp; Bar</a>"],"width":1025}],"place_id":"ChIJP8-OaeT4rlQRDy1DBbcKqCU","price_level":2,"rating":3.9,"reference":"CmRRAAAAJnFvrwfCCB9RHsX3MUUax2rghQ9q3JPacbR2NtJFs25oaHeCe_Vdimc3g1f-PUlQIS1g4tcCIEtHSJa_4nTZrSuAUYDCYsIAC46mHcdH-sTB9P1fKN1eZisrjxOuY4faEhC5WIJebetcnTRc7bhsOd7lGhSjSiFpE7RyC6ldLac2hT_7skhR4w","scope":"GOOGLE","types":["bar","restaurant","food","point_of_interest","establishment"],"vicinity":"121 North 9th Street #102, Boise","html_attributions":[]},
{"geometry":{"location":{"lat":43.6184144,"lng":-116.21060069999999},"viewport":{"south":43.61695441970851,"west":-116.21205743029151,"north":43.6196523802915,"east":-116.20935946970849}},"icon":"https://maps.gstatic.com/mapfiles/place_api/icons/lodging-71.png","id":"b76b556c1981e60826e9b1591d3997c34bf92289","name":"The Modern Hotel and Bar","opening_hours":{"open_now":true,"weekday_text":[]},"photos":[{"height":3024,"html_attributions":["<a href=\"https://maps.google.com/maps/contrib/118413568266678590672/photos\">Tanner Berkson</a>"],"width":4032}],"place_id":"ChIJ_fZEO-b4rlQRESiN6JvXLD8","rating":4.5,"reference":"CmRRAAAAbhhr5xJl0GSghj5ysmyHOwO4AiAM8ErRpNUqMZRW9pMRLkZEeRTf6-pi-t8EgMuJJ9n3rSZY0LXA6KvsPgWvc1fDlMiMndz4i64sndRyVgYvE0TC_l6M4PL9rkuDp2OAEhDPtiuJJucLRBB8zdHDWK0fGhSOVN3CAH43iwOlXdlUz98KYsJQ1g","scope":"GOOGLE","types":["bar","lodging","point_of_interest","establishment"],"vicinity":"1314 West Grove Street, Boise","html_attributions":[]},{"geometry":{"location":{"lat":43.5976065,"lng":-116.18360369999999},"viewport":{"south":43.59609836970851,"west":-116.18556593029149,"north":43.5987963302915,"east":-116.18286796970847}},"icon":"https://maps.gstatic.com/mapfiles/place_api/icons/restaurant-71.png","id":"64d88e39d56b69fa116c3a08c1d12fbe5a19193c","name":"Barbacoa Grill","opening_hours":{"open_now":false,"weekday_text":[]},"photos":[{"height":3024,"html_attributions":["<a href=\"https://maps.google.com/maps/contrib/100698815706981160546/photos\">Michael Vlogs</a>"],"width":4032}],"place_id":"ChIJq1FUdk74rlQRGnFPuu8B0dw","price_level":3,"rating":4.3,"reference":"CmRSAAAA15dkW_Ph2addQzJM0NPhVQqqsJED-tlvrIN-ac3tttNjsW1kjzCYL-hIHo1Vwt3C7WHED1Kpjywv74Ickw-ZHRkaQYHb6aRRqhX-vAtMBKJ1hB5zCq6ElgSMuXdqxZ0LEhBeWkRK_16sG9SCjKm1K4LmGhSUvcS_hEeXFGm8xMJB4-M3Rp_f9g","scope":"GOOGLE","types":["bar","restaurant","food","point_of_interest","establishment"],"vicinity":"276 Bobwhite Court, Boise","html_attributions":[]},{"geometry":{"location":{"lat":43.6163041,"lng":-116.2030426},"viewport":{"south":43.6149173197085,"west":-116.20431598029148,"north":43.6176152802915,"east":-116.20161801970852}},"icon":"https://maps.gstatic.com/mapfiles/place_api/icons/restaurant-71.png","id":"8526db513f68532e4897359b715286f07da1dbfc","name":"Fork","opening_hours":{"open_now":false,"weekday_text":[]},"photos":[{"height":2988,"html_attributions":["<a href=\"https://maps.google.com/maps/contrib/106521855672128474922/photos\">Tamara Pettinger</a>"],"width":5312}],"place_id":"ChIJhZiKh-T4rlQRwIe2dmc7VAI","price_level":2,"rating":4.3,"reference":"CmRRAAAAbbZH0QH8pEFbzxeeLgIUni76zGXVRFFIZqCtLDsyO-oU4WdUqy079N8d8n4_rDdc-WMGWPdOa0eQm8_g2hy5_XLWTA7ISeThjX7OFYQqK6nTvoKM6Y2yMDLg0ncNSHQBEhDlQ0KX_VBcdH7L8oDbmzTbGhQ-JWy73fP96TLpXsu2hCyKRSRvPg","scope":"GOOGLE","types":["bar","restaurant","food","point_of_interest","establishment"],"vicinity":"199 North 8th Street, Boise","html_attributions":[]},{"geometry":{"location":{"lat":43.61392499999999,"lng":-116.20228500000002},"viewport":{"south":43.61256866970851,"west":-116.20364083029153,"north":43.61526663029151,"east":-116.20094286970851}},"icon":"https://maps.gstatic.com/mapfiles/place_api/icons/restaurant-71.png","id":"b18c8331e9a9be90c9abe6afd1a2de6f896af68c","name":"Bardenay","opening_hours":{"open_now":false,"weekday_text":[]},"photos":[{"height":1539,"html_attributions":["<a href=\"https://maps.google.com/maps/contrib/104799580007864976275/photos\">Bardenay</a>"],"width":1536}],"place_id":"ChIJN8rsMvv4rlQRk0ZIq_0dQxI","price_level":1,"rating":4.4,"reference":"CmRRAAAA0s8xS8KcCVgXwYkn9Gfn1vTld3X3_7FGDMaFxFnwp4GzNMnEGBPOkOrUJtBKDB-IfC6UALjcHu2e5e0o6Y9VWERIO3Wbdr7e1Xp8skrPoc-n_cy6faDjybSq71GbgZV5EhA2qJ_cvJTB05a6rH5e5f9HGhQq2FqSIugDAkGfiGM3vhKeV9P5Sw","scope":"GOOGLE","types":["bar","restaurant","food","point_of_interest","establishment"],"vicinity":"610 West Grove Street, Boise","html_attributions":[]},{"geometry":{"location":{"lat":43.61940200000001,"lng":-116.21248300000002},"viewport":{"south":43.6179255697085,"west":-116.21394893029151,"north":43.6206235302915,"east":-116.21125096970849}},"icon":"https://maps.gstatic.com/mapfiles/place_api/icons/generic_business-71.png","id":"f086023128c1be56aa230792627519dbc5f0378e","name":"Spearmint Rhino Gentlemen's Club Boise","opening_hours":{"open_now":false,"weekday_text":[]},"photos":[{"height":1836,"html_attributions":["<a href=\"https://maps.google.com/maps/contrib/111528955339048329462/photos\">boisebrad</a>"],"width":3264}],"place_id":"ChIJs3fu1-f4rlQR_nuXCU7gEc8","rating":4.1,"reference":"CmRSAAAAb1JwHgkSWiO_VtdOjiJ6CtmSLWrfpz06rTZhcCbK92s2wcwFK47T0zd3cCI_TEZZpvf5u5lPhqN-98bSzWY00p1cdpdYLxN3Mt7DvBQeD5MxxQ5tHM59KvIl3E70zn-ZEhABzcceaIg7OwVdJP6aSU1CGhRhMjDm6Ma9fJGRG2zDRF7f2T6xpg","scope":"GOOGLE","types":["night_club","bar","point_of_interest","establishment"],"vicinity":"1500 West Grove Street, Boise","html_attributions":[]},{"geometry":{"location":{"lat":43.6155352,"lng":-116.2064158},"viewport":{"south":43.6142512197085,"west":-116.20761293029148,"north":43.6169491802915,"east":-116.20491496970851}},"icon":"https://maps.gstatic.com/mapfiles/place_api/icons/restaurant-71.png","id":"fd33d24784945e9c154086ad273a166e0185a908","name":"Chandlers Steakhouse-Boise","opening_hours":{"open_now":false,"weekday_text":[]},"photos":[{"height":1024,"html_attributions":["<a href=\"https://maps.google.com/maps/contrib/112648581692449918650/photos\">Chandlers Steakhouse-Boise</a>"],"width":1024}],"place_id":"ChIJC5Ayp-X4rlQREgo9eRuWv3I","price_level":2,"rating":4.4,"reference":"CmRRAAAAEhGZBbEEcD5miip2p2LHKgDO1OeU_epd_7KZqwvX_qJU5ZRUT0s9NZGKSvZA7EZx9CXeAvh4JvaLELIM5TaPQLmB7OY5Q2VhEAR-bhFXx19I2Kv3rCuSfFo6hGDIx4afEhCjFLpzxahyHvwLXw6dBOdcGhRi-CSXQFoxxArZcsxjyyVA9fYF5Q","scope":"GOOGLE","types":["night_club","bar","restaurant","food","point_of_interest","establishment"],"vicinity":"981 West Grove Street, Boise","html_attributions":[]},{"geometry":{"location":{"lat":43.61407169999999,"lng":-116.20296719999999},"viewport":{"south":43.6127679197085,"west":-116.20440718029147,"north":43.6154658802915,"east":-116.2017092197085}},"icon":"https://maps.gstatic.com/mapfiles/place_api/icons/bar-71.png","id":"d6063e537ac83d7712cda3a0e08ef41b83c52348","name":"Bar Gernika","opening_hours":{"open_now":false,"weekday_text":[]},"photos":[{"height":3024,"html_attributions":["<a href=\"https://maps.google.com/maps/contrib/114828166505888869374/photos\">Seth Mitchell</a>"],"width":4032}],"place_id":"ChIJ_cdl0-T4rlQRHCNt4yG-lE4","price_level":2,"rating":4.6,"reference":"CmRRAAAAF4l8WIieHV6qQhzDdvPtGR8jSVhZYTWwiC5Tlz4e95m_KKDwJXSHZO84gsg3q1k8VKmGL4rvwZ3yNI29QLXD_uV3SkiwiPKXu6sSnI4l9HQJHYuQZo84haxeaVS3klJFEhDgYfzkY3WPj7sxuRrUTDkMGhT-o_xSMm5QLrEtSoq2TFfLb3oqwA","scope":"GOOGLE","types":["bar","restaurant","food","point_of_interest","establishment"],"vicinity":"202 South Capitol Boulevard, Boise","html_attributions":[]},{"geometry":{"location":{"lat":43.6170801,"lng":-116.20599420000002},"viewport":{"south":43.6156598697085,"west":-116.20741293029153,"north":43.6183578302915,"east":-116.2047149697085}},"icon":"https://maps.gstatic.com/mapfiles/place_api/icons/restaurant-71.png","id":"ff158e3cbf473adf75fb8238b23e6aafb1a596d9","name":"Asiago's","opening_hours":{"open_now":false,"weekday_text":[]},"photos":[{"height":1536,"html_attributions":["<a href=\"https://maps.google.com/maps/contrib/102254770634506442143/photos\">Asiago&#39;s</a>"],"width":2048}],"place_id":"ChIJlVmRNeT4rlQRdkLYMEJD3Xk","price_level":2,"rating":4,"reference":"CmRRAAAA7xuSopgIIGgVUV2dlenO6rkESefmrLVKnHY566pgNpepM4ktNZxCK_cscMOGpiEl_bq5XaF5dDAzZfXj6V3EEURfxmIkpK5z1_6sHF8TQ2jNbZAUScVD-7-bd09e3C-_EhB7_RmwIuz7NkOmdVbxcIV0GhS3m-PrYJkOOAa6uk4Cf9TLHRbh-A","scope":"GOOGLE","types":["bar","restaurant","food","point_of_interest","establishment"],"vicinity":"1002 Main Street, Boise","html_attributions":[]},{"geometry":{"location":{"lat":43.61700799999999,"lng":-116.20243700000003},"viewport":{"south":43.6156107197085,"west":-116.20368888029151,"north":43.6183086802915,"east":-116.20099091970849}},"icon":"https://maps.gstatic.com/mapfiles/place_api/icons/restaurant-71.png","id":"a245eb7dec003de9eecc19e1b6614b8d7362c3e5","name":"The Matador","opening_hours":{"open_now":false,"weekday_text":[]},"photos":[{"height":1669,"html_attributions":["<a href=\"https://maps.google.com/maps/contrib/100400820212515965572/photos\">The Matador</a>"],"width":1672}],"place_id":"ChIJqRZ_eOT4rlQRp5XjERbto-o","rating":3.9,"reference":"CmRSAAAAYQ2CjK7kLloYjLj48JurMpGBXTMU9gf9OHPnl7aEQMBoM2X56kZiLCwSPbCTw2DtHT1zsdzqsSs5RZ5PSnySIMG-7Wyez2ZvCOzFqiNt1F6wXeFomk5YWcSmPs_THjT3EhA05QeWbR2gHijK9rAMsM6RGhTPb1o3lfkkqyhVH9H-hjSZCYEeTg","scope":"GOOGLE","types":["bar","restaurant","food","point_of_interest","establishment"],"vicinity":"215 North 8th Street, Boise","html_attributions":[]},{"geometry":{"location":{"lat":43.6163752,"lng":-116.20232980000003},"viewport":{"south":43.6149506197085,"west":-116.20375303029152,"north":43.6176485802915,"east":-116.2010550697085}},"icon":"https://maps.gstatic.com/mapfiles/place_api/icons/restaurant-71.png","id":"4e370af04c985874db5b46fd7e11bf85a94067fc","name":"Pho Nouveau","opening_hours":{"open_now":false,"weekday_text":[]},"photos":[{"height":2988,"html_attributions":["<a href=\"https://maps.google.com/maps/contrib/101893191517320679210/photos\">Bobby Foster</a>"],"width":5312}],"place_id":"ChIJzUsGh-T4rlQRp0rF8YWPep8","price_level":2,"rating":4,"reference":"CmRSAAAAcRvmc5wxFLgug-hNgW4u1YnkM5rLUVK2l2k2PII44E7A41DasVqYjhl6gg9bAhYWvJkx-WYotGPB1i-ifna24dGS6GobkhPtnRnA3UACG8rsxB0PAOFeelKOkNjQsg4QEhCM9l0AndVdI2Io46wN454GGhR0sxOozbRcs7p_PI6ATMQ2uXFXLQ","scope":"GOOGLE","types":["bar","restaurant","food","point_of_interest","establishment"],"vicinity":"780 West Idaho Street, Boise","html_attributions":[]},{"geometry":{"location":{"lat":43.60454259999999,"lng":-116.19263940000002},"viewport":{"south":43.6034003197085,"west":-116.1935800802915,"north":43.6060982802915,"east":-116.19088211970848}},"icon":"https://maps.gstatic.com/mapfiles/place_api/icons/restaurant-71.png","id":"7065de524247ef901beaeb52dda805faa800e804","name":"Ram Restaurant & Brewery","opening_hours":{"open_now":false,"weekday_text":[]},"photos":[{"height":2992,"html_attributions":["<a href=\"https://maps.google.com/maps/contrib/103973203825542789666/photos\">Ben Studer</a>"],"width":4000}],"place_id":"ChIJwft8X1b4rlQRbtC7COtLCP0","price_level":2,"rating":3.4,"reference":"CmRSAAAAiNQ1ujwXoIqxQTZCmLWJ-s6G6pbaoo2L0iw2aHjaPPZf71MqTuvvbIQY7_MIC_fyVWNpbJiKYeDLFVwh_jXTBydtXgfVy4CBbWiDJZQIMiBoBv44aGLTUTiJWcGUxUP9EhDFvHsOWi8Yi7ZgNKmt15JnGhSXNNK4hgmH2yqVV2i5TksYhb6o8g","scope":"GOOGLE","types":["restaurant","bar","food","point_of_interest","establishment"],"vicinity":"709 E Park Blvd, Boise","html_attributions":[]},{"geometry":{"location":{"lat":43.61659909999999,"lng":-116.20222869999998},"viewport":{"south":43.61530251970849,"west":-116.2036831302915,"north":43.61800048029149,"east":-116.20098516970847}},"icon":"https://maps.gstatic.com/mapfiles/place_api/icons/restaurant-71.png","id":"1e74fe10bc4d2101a8d623bb6be432902c3191e8","name":"Bittercreek Alehouse","opening_hours":{"open_now":false,"weekday_text":[]},"photos":[{"height":1367,"html_attributions":["<a href=\"https://maps.google.com/maps/contrib/103233149298166522031/photos\">Bittercreek Alehouse</a>"],"width":1370}],"place_id":"ChIJh5cdf-T4rlQRoLk7ABLyeH8","price_level":2,"rating":4.4,"reference":"CmRRAAAAQeDmo2PRUawSNvvxWxzZ1VrZP6OOOypDGpG3f3LWo8CYdwuhyf2nNY3U5a0F30rdyt0mKDkssuOUir5RG48tY4aihFe4i4BiV5bikF6uzu7tGEcU4Nqtxj-XDaR0ekryEhAAf3DltascbR4VxECcIKzqGhRHiEWZ-vCbYMDuKp17JtkBtVxhBQ","scope":"GOOGLE","types":["bar","restaurant","food","point_of_interest","establishment"],"vicinity":"246 North 8th Street, Boise","html_attributions":[]},{"geometry":{"location":{"lat":43.613646,"lng":-116.2067528},"viewport":{"south":43.6123816197085,"west":-116.20802113029151,"north":43.6150795802915,"east":-116.20532316970849}},"icon":"https://maps.gstatic.com/mapfiles/place_api/icons/restaurant-71.png","id":"aa33f2fcefaa6115558548da301b47ddb2884856","name":"Bonefish Grill","opening_hours":{"open_now":false,"weekday_text":[]},"photos":[{"height":5312,"html_attributions":["<a href=\"https://maps.google.com/maps/contrib/111912612420893695403/photos\">Shannon Miner</a>"],"width":2988}],"place_id":"ChIJgVqCV-X4rlQRKcB05B_ilsk","price_level":2,"rating":4.2,"reference":"CmRSAAAAsZzTc3SCkAt9MuUB57ci-lDvsIeb1E7Pp8b8n0AttLqqurl4Rgyycj9eOHX9nNgSArkf2_sdGxxQ0RFy5wx2REVMK01r3VKU9u4oVKE4AO4bHHE5KUSvDjiSVLyJng2PEhCT5eZzkiKLIjJTTvzO1eqbGhRkbggzZyZnJbW6DhLnSTxb2kNDXQ","scope":"GOOGLE","types":["bar","restaurant","food","point_of_interest","establishment"],"vicinity":"855 West Broad Street, Boise","html_attributions":[]},{"geometry":{"location":{"lat":43.621343,"lng":-116.23674399999999},"viewport":{"south":43.6198659697085,"west":-116.23826483029148,"north":43.6225639302915,"east":-116.23556686970852}},"icon":"https://maps.gstatic.com/mapfiles/place_api/icons/restaurant-71.png","id":"274c1054c7d01877112d3c39cedff999b992fc23","name":"The Stagecoach Inn","opening_hours":{"open_now":false,"weekday_text":[]},"photos":[{"height":1536,"html_attributions":["<a href=\"https://maps.google.com/maps/contrib/110893592801738311523/photos\">The Stagecoach Inn</a>"],"width":1539}],"place_id":"ChIJA23hXbn4rlQRRoadBu2IIig","price_level":2,"rating":4.5,"reference":"CmRRAAAAcmgTqm2bETfMZ904yfrQauxtja271BBAEbkdzlV7wsUWS2m-3D31IN8jURMOx5Il5-ZyHZVOz7keYKcb3w7fwg6Ib_5HwdzGg0bTAQ-OGuy4vOJMiIVRJt5nzQdTTBYSEhBWS1h0lqsPq0cS0mnAcfVsGhS4Ur0aim0gn1YHtbM4miQlsdIT8g","scope":"GOOGLE","types":["night_club","bar","restaurant","food","point_of_interest","establishment"],"vicinity":"3132 West Chinden Boulevard, Boise","html_attributions":[]},{"geometry":{"location":{"lat":43.6178706,"lng":-116.20272499999999},"viewport":{"south":43.6164017697085,"west":-116.2041918302915,"north":43.6190997302915,"east":-116.20149386970849}},"icon":"https://maps.gstatic.com/mapfiles/place_api/icons/restaurant-71.png","id":"4579dca4d12204a003603c5316831f34269c4117","name":"10 Barrel Brewing Boise","opening_hours":{"open_now":false,"weekday_text":[]},"photos":[{"height":2992,"html_attributions":["<a href=\"https://maps.google.com/maps/contrib/113605617608057339922/photos\">Shawn Fisher</a>"],"width":4000}],"place_id":"ChIJWTpx9OP4rlQRKLnvy5AaroU","rating":4.3,"reference":"CmRSAAAAdhRtC1zDOgy8RJxKZdTLnOvoocxW7BWXztc6jvAerdlrJitrK9EZkAg-UUkFIxjWjT6MvKQiJugQ3HgMeJcqvwLbCSNAk_amOmQCGqsjeuWFbS4cEGsUb-Vt7ui8QY7SEhBSiSSfFRv07N0fzMa71aSSGhRUye1LAGyo0rdPnBM_fw1WewQPGw","scope":"GOOGLE","types":["bar","restaurant","food","point_of_interest","establishment"],"vicinity":"826 West Bannock Street, Boise","html_attributions":[]},{"geometry":{"location":{"lat":43.61659909999999,"lng":-116.20222869999998},"viewport":{"south":43.61530251970849,"west":-116.2036831302915,"north":43.61800048029149,"east":-116.20098516970847}},"icon":"https://maps.gstatic.com/mapfiles/place_api/icons/restaurant-71.png","id":"80d87737ac384651f94d1285d1b8337dba88a4a6","name":"Red Feather Lounge","opening_hours":{"open_now":false,"weekday_text":[]},"photos":[{"height":1365,"html_attributions":["<a href=\"https://maps.google.com/maps/contrib/103684712951592661058/photos\">Red Feather Lounge</a>"],"width":1368}],"place_id":"ChIJh5cdf-T4rlQRiyAF4bY3vkk","price_level":2,"rating":4.5,"reference":"CmRRAAAAbji2nv6RyVJPParNN8W0YGHlThp2zaAgrGljBfB5iR4RTVlFiCtVQv8rCtZjqekS_6CrMZNfPnYmCIIiLCGAbhkh6z_q9nnOEBexcRv36bypxmrmztdBRE1NFQdFWrhlEhD-T7zYIyr6j4Ug_kCzW_tqGhSRqEJQ0qcRh4i45_itSQjcAUsPZw","scope":"GOOGLE","types":["night_club","bar","restaurant","food","point_of_interest","establishment"],"vicinity":"246 North 8th Street, Boise","html_attributions":[]},{"geometry":{"location":{"lat":43.61702,"lng":-116.20458300000001},"viewport":{"south":43.6155503197085,"west":-116.20570123029148,"north":43.6182482802915,"east":-116.20300326970852}},"icon":"https://maps.gstatic.com/mapfiles/place_api/icons/restaurant-71.png","id":"eeccd3982117d0ff5c77b042aeed52f3a3f02fd2","name":"Berryhill Restaurant & Bar","opening_hours":{"open_now":false,"weekday_text":[]},"photos":[{"height":1027,"html_attributions":["<a href=\"https://maps.google.com/maps/contrib/114065815757051908504/photos\">Berryhill Restaurant &amp; Bar</a>"],"width":1025}],"place_id":"ChIJP8-OaeT4rlQRDy1DBbcKqCU","price_level":2,"rating":3.9,"reference":"CmRRAAAAFsrYMH6ON43HngmX_DzRbr1VFenuy0gZfeBLUyyMa_KF4VdevR0kDyC_ltjn3urFZzRy_W_a7Xew30MU2hDw2mBEKDDwwoP_qLspc_hrUyjM1yhUsyWHpt8DeuMuOu4tEhAoTUt8fh0yC8QthmGGbDeNGhS-9pP0ldxsWDTCiWGzF-ntns1v2w","scope":"GOOGLE","types":["bar","restaurant","food","point_of_interest","establishment"],"vicinity":"121 North 9th Street #102, Boise","html_attributions":[]},{"geometry":{"location":{"lat":43.6180841,"lng":-116.20316270000001},"viewport":{"south":43.6166875197085,"west":-116.20441773029148,"north":43.6193854802915,"east":-116.20171976970852}},"icon":"https://maps.gstatic.com/mapfiles/place_api/icons/restaurant-71.png","id":"e525d78c947c5527fadf72ee54777d3a3517c3a1","name":"Yen Ching Restaurant","opening_hours":{"open_now":false,"weekday_text":[]},"photos":[{"height":2268,"html_attributions":["<a href=\"https://maps.google.com/maps/contrib/101655408557899402066/photos\">Niles Sutton</a>"],"width":4032}],"place_id":"ChIJD1s29-P4rlQR0QVGxC9AWY0","price_level":1,"rating":4,"reference":"CmRSAAAAcwT5dtOxdnvHmxUSU3tkoiVNzE_NhVXuNjHgVeEtiwPQ-4w8vEBYMcCi31NNzKQLPuil-MqjrpVhxiiY-QJz3j7b5dzoD8i6fYp5vgRKNHy3H-ALDD5GGlwhNfJNQXSHEhAM3oHFMDykidVTTSnRz-etGhRnfge8SmWVr8B5WoqTW4r9n5pdHQ","scope":"GOOGLE","types":["bar","restaurant","food","point_of_interest","establishment"],"vicinity":"305 North 9th Street, Boise","html_attributions":[]},{"geometry":{"location":{"lat":43.6164411,"lng":-116.20215480000002},"viewport":{"south":43.6149647197085,"west":-116.20362888029149,"north":43.6176626802915,"east":-116.20093091970853}},"icon":"https://maps.gstatic.com/mapfiles/place_api/icons/restaurant-71.png","id":"0a70b1a09256544affc8433b6251114a55eb2423","name":"Mai Thai Restaurant","opening_hours":{"open_now":false,"weekday_text":[]},"photos":[{"height":2048,"html_attributions":["<a href=\"https://maps.google.com/maps/contrib/116845731518832489717/photos\">Mai Thai Restaurant</a>"],"width":2047}],"place_id":"ChIJTzcehOT4rlQRwo-YqazP4KU","price_level":2,"rating":3.9,"reference":"CmRSAAAADFMpUkL293ScTyCg4ETwzw7oqpDALcyjefTwU5kV5zz8iD7uKYnLVIZUBN7K1fYifW1ZReWN-Ibd_RvHG2K5Wv6QUCfObN1dRH0Kto5x61znGMaH7dR4QWSmYnmDVpDoEhD5_Ja2flYX91HIcmUkMXrwGhQ6h5DuJcC5OqDIM7LXHTIBuOzfmw","scope":"GOOGLE","types":["bar","restaurant","food","point_of_interest","establishment"],"vicinity":"750 West Idaho Street, Boise","html_attributions":[]},{"geometry":{"location":{"lat":43.6144211,"lng":-116.2014835},"viewport":{"south":43.6131296697085,"west":-116.20277628029152,"north":43.6158276302915,"east":-116.2000783197085}},"icon":"https://maps.gstatic.com/mapfiles/place_api/icons/restaurant-71.png","id":"2686ef43c7ad3b3ac9b3ea701ca576db02472b28","name":"Brickyard","opening_hours":{"open_now":false,"weekday_text":[]},"photos":[{"height":768,"html_attributions":["<a href=\"https://maps.google.com/maps/contrib/114309632529607291446/photos\">Steve Nielsen</a>"],"width":1024}],"place_id":"ChIJnzDatOT4rlQR1Reb4QgLoc8","price_level":3,"rating":4.3,"reference":"CmRSAAAAQV1tceB45VJetPs_TKP3yxbBDmBHMoyVt8um_NXMMEYgzFWsmnlEW0LW3w3kzq8M-kN0zm2iPOKx2l5nb-5jbb9t59XHe5G3AIxuTM93bF9kjAqelgu7CWEt89T_G5HwEhBikwlxxA7mDdxyUmjPaEkMGhSO7GDfBQnyeRMCKjZyt7V0wE8L3A","scope":"GOOGLE","types":["bar","restaurant","food","point_of_interest","establishment"],"vicinity":"601 West Main Street, Boise","html_attributions":[]},
{"geometry":{"location":{"lat":43.6163736,"lng":-116.20321519999999},"viewport":{"south":43.6151009697085,"west":-116.20448903029148,"north":43.6177989302915,"east":-116.20179106970852}},"icon":"https://maps.gstatic.com/mapfiles/place_api/icons/restaurant-71.png","id":"76b2dcc4d5185bfbeb86e636239c330f96000c28","name":"ALAVITA","opening_hours":{"open_now":false,"weekday_text":[]},"photos":[{"height":5312,"html_attributions":["<a href=\"https://maps.google.com/maps/contrib/106521855672128474922/photos\">Tamara Pettinger</a>"],"width":2988}],"place_id":"ChIJ5zxHY-T4rlQRspgA1-zFIKg","price_level":2,"rating":4.4,"reference":"CmRSAAAA0oJ_7YvMAy5UTABMbR-dtkTihTs9mODQuENlqhW-boa8FUkbIkFtnyj_FuhXX-DmOOZvqscxvPQ2qMdU7zPupf8Hd2CogZZFL5slUiRJoP0a1X0tNsktBp-aGpLQsCJ-EhD7yHyF-RnL3A2m1QJlhjBAGhQTIai_dRBa09zVQYHynEHF5bWNww","scope":"GOOGLE","types":["bar","restaurant","food","point_of_interest","establishment"],"vicinity":"807 West Idaho Street, Boise","html_attributions":[]},{"geometry":{"location":{"lat":43.6140005,"lng":-116.20186000000001},"viewport":{"south":43.61259606970849,"west":-116.2030972802915,"north":43.61529403029149,"east":-116.20039931970848}},"icon":"https://maps.gstatic.com/mapfiles/place_api/icons/restaurant-71.png","id":"35fe8a64a9ca63d3790a80231aec2f243ad621fb","name":"Leku Ona","opening_hours":{"open_now":false,"weekday_text":[]},"photos":[{"height":5344,"html_attributions":["<a href=\"https://maps.google.com/maps/contrib/101003308954048351234/photos\">Patricia Fierling</a>"],"width":4008}],"place_id":"ChIJJ5tGNPv4rlQRCdk58044G8U","price_level":2,"rating":3.9,"reference":"CmRSAAAAoNg5_B3GTEfpuBTYWqTg2E9lsP7ZI4eufZojeBiGF7j2-gxACnHZIrluTFW7HGXbyJVnxQcQMxK5Z6Yqmg7rqiBAezVv2pOQCyYP8FTaP4x-CjEmzscfaPl6k-xTbU4JEhBohNe27q9gwy8Ldoe2jPVYGhQ5egmkWXumgMi4Is3eZuyqpvbKXA","scope":"GOOGLE","types":["bar","lodging","restaurant","food","point_of_interest","establishment"],"vicinity":"117 South 6th Street, Boise","html_attributions":[]},{"geometry":{"location":{"lat":43.61444599999999,"lng":-116.20159000000001},"viewport":{"south":43.6130159197085,"west":-116.20277563029151,"north":43.61571388029149,"east":-116.20007766970849}},"icon":"https://maps.gstatic.com/mapfiles/place_api/icons/restaurant-71.png","id":"9bd217015c7da6671028717e25fa55b811202d11","name":"Reef","opening_hours":{"open_now":false,"weekday_text":[]},"photos":[{"height":640,"html_attributions":["<a href=\"https://maps.google.com/maps/contrib/115870790828882650543/photos\">Reef</a>"],"width":640}],"place_id":"ChIJTTukTPv4rlQRrxwaLoYCuqw","price_level":2,"rating":3.9,"reference":"CmRSAAAArJVc8HzVQTa_4N4oBadXSjBGCB4nlB3S7RRNKqwZ1PTQwI_b1T_xayy_iaaIba8S_6uN9S5mV6Zd992VLHxJWxWcHYBZJnZN6__NrnZ7OaRMGF7xsBBdEXdcwG4YCzGtEhAOYMNmq77nCjuM6Z1Kv2OnGhQp_qHkTn-d6-l1ekr1v0Fxc1-b9A","scope":"GOOGLE","types":["bar","restaurant","food","point_of_interest","establishment"],"vicinity":"105 South 6th Street, Boise","html_attributions":[]},{"geometry":{"location":{"lat":43.616353,"lng":-116.20556199999999},"viewport":{"south":43.6151064197085,"west":-116.2068154302915,"north":43.6178043802915,"east":-116.20411746970854}},"icon":"https://maps.gstatic.com/mapfiles/place_api/icons/restaurant-71.png","id":"b014b67a844910d3543c7328a5bb1a06421b9be3","name":"Angell's Bar & Grill","opening_hours":{"open_now":false,"weekday_text":[]},"photos":[{"height":1536,"html_attributions":["<a href=\"https://maps.google.com/maps/contrib/109303427975170487405/photos\">Angell&#39;s Bar &amp; Grill</a>"],"width":2048}],"place_id":"ChIJZTrMTOT4rlQR8PovxcMYuOI","price_level":2,"rating":3.3,"reference":"CmRSAAAAQ82xB4-YsUuPTFM1EF8oRQweDXaHj4g84tvms6WWgYqxX0YZF90h1oW7UCCBfyW7JwHAbuQd7A2-D-2CxsYMPNZ3-7jwEje6BNlIV7jea-F8-98RFHIja5VpRBMX6WsFEhA-m5L_cBfdqOIh6zjRV3rrGhQKDOa7vUZiwv7WZGEUnqFn4ZEiLA","scope":"GOOGLE","types":["bar","restaurant","food","point_of_interest","establishment"],"vicinity":"999 West Main Street, Boise","html_attributions":[]},{"geometry":{"location":{"lat":43.6300217,"lng":-116.20313060000001},"viewport":{"south":43.6286727197085,"west":-116.20447958029149,"north":43.6313706802915,"east":-116.20178161970853}},"icon":"https://maps.gstatic.com/mapfiles/place_api/icons/restaurant-71.png","id":"37e942b5cc7934113822fcb8385cc070aed478c0","name":"13th Street Pub and Grill","opening_hours":{"open_now":false,"weekday_text":[]},"photos":[{"height":2136,"html_attributions":["<a href=\"https://maps.google.com/maps/contrib/100718036630363433605/photos\">13th Street Pub and Grill</a>"],"width":2740}],"place_id":"ChIJ5d-S5Sb5rlQRfnG6jmU1yDA","price_level":2,"rating":4.1,"reference":"CmRRAAAAn2dr23rcmOqRtuTmH5lPBkaGB96sXBgSR7FkMAGL5ZVBCuXes2tlQCFibs0eJ6hAzqCgjzwAPBqM2TBhOMnzPRQj1j_b0ukbIxIPJL-xKFRbdyKY6f8IeW2XiYxXJC8DEhA4AlzUps9wrcCd2UPDotfQGhRnxXpww0tXk_EmetmER6Ol6-ZT8Q","scope":"GOOGLE","types":["bar","restaurant","food","point_of_interest","establishment"],"vicinity":"1520 N 13th St, Boise","html_attributions":[]},{"geometry":{"location":{"lat":43.6207998,"lng":-116.2327793},"viewport":{"south":43.6191604697085,"west":-116.2340991302915,"north":43.6218584302915,"east":-116.23140116970853}},"icon":"https://maps.gstatic.com/mapfiles/place_api/icons/restaurant-71.png","id":"3637e35d4a35443cab6a0ecef168642d9c5a3097","name":"Joe's Crab Shack","opening_hours":{"open_now":false,"weekday_text":[]},"photos":[{"height":1836,"html_attributions":["<a href=\"https://maps.google.com/maps/contrib/103534937475095590970/photos\">Matthew H</a>"],"width":3264}],"place_id":"ChIJf9IdIb_4rlQRx3gMJoA87vY","rating":3.8,"reference":"CmRSAAAA_RH7GxUDGBHaqtUnzmYY7Eo529njwByopEyWCWVSqk1yfq5s--_iGMeB0SAdtXNWm-sGB6EjpUWL4xzAzWEh8FW8o59Z8yLrzjwmEtPulJ5JTxP761-dBHkWRnJBbTeAEhB3KWVzeiPrWsZhpt0dkMEaGhTq3X9GFXiDdS883HWiv8tQ01JOjA","scope":"GOOGLE","types":["bar","restaurant","food","point_of_interest","establishment"],"vicinity":"2288 North Garden Street, Boise","html_attributions":[]},{"geometry":{"location":{"lat":43.6146929,"lng":-116.20216649999998},"viewport":{"south":43.6134274197085,"west":-116.20343398029149,"north":43.6161253802915,"east":-116.20073601970853}},"icon":"https://maps.gstatic.com/mapfiles/place_api/icons/bar-71.png","id":"ca409c3e840ac90090a5edde59ff320e5dc78c53","name":"Humpin' Hannah's","opening_hours":{"open_now":false,"weekday_text":[]},"photos":[{"height":1536,"html_attributions":["<a href=\"https://maps.google.com/maps/contrib/108522115173907763425/photos\">Humpin&#39; Hannah&#39;s</a>"],"width":1540}],"place_id":"ChIJG7ojyOT4rlQRM_IwfgvRRmo","rating":3.9,"reference":"CmRRAAAA1pFuCdF5FhnslHUhKG2kRYlpI_MVdTETi7YPobK4tpaMDrcyjYEAeOvLRui90H8_M2tbIDX8pefnzlTtyXZ6tmH3RSXJ-5PGEciLrlzDoDFPrcxt1_RJSmJYJ82hXbdkEhCsG3Lkle9N0if7-LiOYAjVGhTUfcAUxmnbpFuymki2mSo42XPkhQ","scope":"GOOGLE","types":["night_club","bar","point_of_interest","establishment"],"vicinity":"621 West Main Street, Boise","html_attributions":[]},{"geometry":{"location":{"lat":43.641853,"lng":-116.20874200000003},"viewport":{"south":43.6404721697085,"west":-116.20982553029148,"north":43.6431701302915,"east":-116.20712756970852}},"icon":"https://maps.gstatic.com/mapfiles/place_api/icons/restaurant-71.png","id":"8ba4d4329bb38b8edf928015456f42e484822fb5","name":"O'Michael's Pub & Grill","opening_hours":{"open_now":false,"weekday_text":[]},"photos":[{"height":536,"html_attributions":["<a href=\"https://maps.google.com/maps/contrib/112819494579926548299/photos\">O&#39;Michael&#39;s Pub &amp; Grill</a>"],"width":531}],"place_id":"ChIJ13Z0K9P-rlQRZ8uf1TNcC2Q","price_level":2,"rating":4.1,"reference":"CmRRAAAAOM1gXgtIKwBmnXsSmVg6Q0qqNE-dxXeye7r0S1WL7d9exaCIc7FGIozrVNXnwIeWlt3_CJH0BGgz_sh1iteSYTBsYvPT3yJk_5p-thBsjpuwlmeBm-xDU6GaSZWl-BH4EhASpHRgciL8LmWm-xpy7KHRGhStgwxQbQ67YSB2o2s13hu3MME8yw","scope":"GOOGLE","types":["bar","restaurant","food","point_of_interest","establishment"],"vicinity":"2433 North Bogus Basin Road, Boise","html_attributions":[]},{"geometry":{"location":{"lat":43.6133283,"lng":-116.21554530000003},"viewport":{"south":43.6117460697085,"west":-116.21656118029148,"north":43.6144440302915,"east":-116.21386321970851}},"icon":"https://maps.gstatic.com/mapfiles/place_api/icons/generic_business-71.png","id":"2492c9c2676e4fd5c088147669ec47cf9b42ede1","name":"Payette Brewing Company","opening_hours":{"open_now":false,"weekday_text":[]},"photos":[{"height":3984,"html_attributions":["<a href=\"https://maps.google.com/maps/contrib/115136570327510756262/photos\">Chris Canfield</a>"],"width":2988}],"place_id":"ChIJb3FOx7v4rlQREgx651GiBgU","rating":4,"reference":"CmRRAAAAAlVcUxnUbVdJln_elu5YJaSbQkI6R660xdK92i_aSKNr9NrTZ9PqHBqNZHgqsJnz5j5coArgVwgASuZfXXf15XbFb_CMq5SiJpWVDautVcGfDZMDjad6s35LlZAOlPZZEhAYNCkK16sFC8NwPaGqAtMKGhREK1GQDN9bejYG67pYudYKbGXFUg","scope":"GOOGLE","types":["bar","food","point_of_interest","establishment"],"vicinity":"733 South Pioneer Street, Boise","html_attributions":[]},{"geometry":{"location":{"lat":43.61225750000001,"lng":-116.24201170000003},"viewport":{"south":43.6105881697085,"west":-116.24336148029147,"north":43.6132861302915,"east":-116.2406635197085}},"icon":"https://maps.gstatic.com/mapfiles/place_api/icons/generic_business-71.png","id":"359d66fb71d9f71f1edeab842d92c40dd8b4d0b1","name":"Emerald Lanes","opening_hours":{"open_now":false,"weekday_text":[]},"photos":[{"height":4032,"html_attributions":["<a href=\"https://maps.google.com/maps/contrib/115606230525993280217/photos\">Matt Jones</a>"],"width":3024}],"place_id":"ChIJe9STjx9WrlQR9uW9n0wilb8","rating":3.8,"reference":"CmRSAAAAvx4Kh1xbTWeAiQVnuspe1YvCNpx5uaSS2U7RcfEFDJnGWM01CbKVZrIqEGY1YiVaYABl9Rlo8qqIAdn8vDRxTYs5KcdCxNTNozIyboIB9L3gjqsQMsUDap37JXlzdJlsEhCRjf8kc1VnSsc--pDWkRGQGhQghCMWvPZ58rCjOjzIAAbKGu1Xzw","scope":"GOOGLE","types":["bowling_alley","cafe","night_club","bar","food","point_of_interest","establishment"],"vicinity":"4860 Emerald Street, Boise","html_attributions":[]},{"geometry":{"location":{"lat":43.617913,"lng":-116.2067566},"viewport":{"south":43.6165248197085,"west":-116.20803008029151,"north":43.61922278029149,"east":-116.20533211970849}},"icon":"https://maps.gstatic.com/mapfiles/place_api/icons/bar-71.png","id":"f5e2499ad6184c9e5aa3e857b0fdeabeb50cd978","name":"Neurolux","opening_hours":{"open_now":false,"weekday_text":[]},"photos":[{"height":3120,"html_attributions":["<a href=\"https://maps.google.com/maps/contrib/112481891305100262738/photos\">Shane Blair</a>"],"width":4160}],"place_id":"ChIJC806gub4rlQR6PcOJqoTY5Q","rating":4.3,"reference":"CmRSAAAAZqycfrz7c1zyCvyAabRcgHMtt2gi__Z4EwARZIhA1sAzoaghVI3h0YEs0XBcKQew21ks3mYFCspl5hakZqWO4-VLZzM_xhDfaYRQexm4JxDnEHUKX8lMY-qt9RR4gtElEhAcEqpt7VD3xZCin5s9DCvFGhRn-AAgwXQKEOBjH2pskaHIku4M-A","scope":"GOOGLE","types":["bar","point_of_interest","establishment"],"vicinity":"111 North 11th Street, Boise","html_attributions":[]},{"geometry":{"location":{"lat":43.6200249,"lng":-116.20481239999998},"viewport":{"south":43.6185611697085,"west":-116.20627318029153,"north":43.6212591302915,"east":-116.20357521970851}},"icon":"https://maps.gstatic.com/mapfiles/place_api/icons/restaurant-71.png","id":"05946cb44fbe0ca2fc37405e2b4af9b98ff6e76d","name":"Lock Stock & Barrel","opening_hours":{"open_now":false,"weekday_text":[]},"photos":[{"height":2988,"html_attributions":["<a href=\"https://maps.google.com/maps/contrib/115479805401443379915/photos\">Richard Folden</a>"],"width":5312}],"place_id":"ChIJKT79M-H4rlQRQVVD_eM1i7E","price_level":2,"rating":4.1,"reference":"CmRSAAAAsDDadLKOHsMzhvOkCHxiRGffXAVeFBZAwU878wDZckFIj8QyS7kK9f7veLo8pSOMWe3asW5kZZs5zNkWDTWDbx3PhX2Vhfgsa7DMXBA0tBGXMaeoAaoyei3RIyjlyyvXEhDraew8jJyFYf1feJc9FMGgGhSLT8iJXzuYERaGZKT-rlZW0_1MdA","scope":"GOOGLE","types":["bar","restaurant","food","point_of_interest","establishment"],"vicinity":"1100 West Jefferson Street, Boise","html_attributions":[]},{"geometry":{"location":{"lat":43.6163781,"lng":-116.20203930000002},"viewport":{"south":43.61490286970849,"west":-116.2035122302915,"north":43.61760083029149,"east":-116.20081426970853}},"icon":"https://maps.gstatic.com/mapfiles/place_api/icons/restaurant-71.png","id":"082f5f01ec469c5cefbb27f718c76c09808cd827","name":"Old Chicago Pizza and Taproom","opening_hours":{"open_now":false,"weekday_text":[]},"photos":[{"height":3096,"html_attributions":["<a href=\"https://maps.google.com/maps/contrib/103706583470429055893/photos\">Luke Anorak</a>"],"width":4128}],"place_id":"ChIJD2vlgeT4rlQRboe9STprjoA","price_level":2,"rating":4.2,"reference":"CmRSAAAAqrcTrOijc2uAv24VPbYyQsWKVc5saxzG3vruccQMPSLWLIE32Zs0dQIC1HlUh29NGH9sNJlCxmm9qdj8sTCqHk383XMi7-O5oh4VQGcr-heGwj5ISmKVtnd98OxdEgsVEhCnK1FPC4XY_fJu8NzLTMb4GhTq9scR4OseRNP_-88OqOfOIlKfyA","scope":"GOOGLE","types":["bar","restaurant","food","point_of_interest","establishment"],"vicinity":"730 West Idaho Street, Boise","html_attributions":[]},{"geometry":{"location":{"lat":43.6157951,"lng":-116.2030327},"viewport":{"south":43.6144922197085,"west":-116.20447383029148,"north":43.6171901802915,"east":-116.20177586970851}},"icon":"https://maps.gstatic.com/mapfiles/place_api/icons/bar-71.png","id":"eac88e64ee5371257d724442364b6ecd05cbabe4","name":"The Balcony Club","opening_hours":{"open_now":false,"weekday_text":[]},"photos":[{"height":576,"html_attributions":["<a href=\"https://maps.google.com/maps/contrib/105253878509981705643/photos\">The Balcony Club</a>"],"width":576}],"place_id":"ChIJ_17Ih-T4rlQRSU5XIJNGsJs","rating":4.1,"reference":"CmRSAAAA-HPJwwxNriPCMW-JYLoxrRf1iKuZGzfP_0TZwBieNboDYBgJjroWsMocs4vTCGUbMSooWj-6st8VKQWc2zE1ApIupT48k1meIyNRwMsVG6aEcm11ayrNpo-r17YE4sAsEhBJERLsEaaPVO1D-Rl6TNi0GhSQfHHQQmmb9QP42ciKbgl2d4TuYg","scope":"GOOGLE","types":["night_club","bar","point_of_interest","establishment"],"vicinity":"150 North 8th Street #226, Boise","html_attributions":[]},{"geometry":{"location":{"lat":43.6294955,"lng":-116.20354739999999},"viewport":{"south":43.6281462197085,"west":-116.20480203029149,"north":43.6308441802915,"east":-116.20210406970853}},"icon":"https://maps.gstatic.com/mapfiles/place_api/icons/bar-71.png","id":"c712aaa99db1f91f69327161d72dae4a1cfc8c01","name":"Hyde Park Pub & Grill","opening_hours":{"open_now":false,"weekday_text":[]},"photos":[{"height":2160,"html_attributions":["<a href=\"https://maps.google.com/maps/contrib/105412850025959739999/photos\">Adam Smith</a>"],"width":3840}],"place_id":"ChIJ4_xhHyf5rlQRfxgEQFYXqys","price_level":2,"rating":4.2,"reference":"CmRRAAAAW_uRlrAMw26Kd7ejCvAy8EDy5pTCty0JJ52wLHB2VUo600WUw--LRFMlGmZh1449qYl-cK_r4sfJa3ca__40V2CstPwbPHIfwcotcMr9Tp0jDapROHsUGhL64NGAtMQrEhCTefqSuUn3-95KMOJD9zo8GhR5YvY3xJ90zzpjqmGVroL1BLaMsw","scope":"GOOGLE","types":["bar","point_of_interest","establishment"],"vicinity":"1501 North 13th Street, Boise","html_attributions":[]},{"geometry":{"location":{"lat":43.6152649,"lng":-116.19994329999997},"viewport":{"south":43.6139805197085,"west":-116.20142138029149,"north":43.6166784802915,"east":-116.19872341970847}},"icon":"https://maps.gstatic.com/mapfiles/place_api/icons/restaurant-71.png","id":"6a1eb1b0877f33c89792dfde1d1701d8d1a9c801","name":"The Melting Pot","opening_hours":{"open_now":false,"weekday_text":[]},"photos":[{"height":2322,"html_attributions":["<a href=\"https://maps.google.com/maps/contrib/111693972685572561624/photos\">John Heckelsmiller</a>"],"width":4128}],"place_id":"ChIJb16KT-P4rlQRdLrCERRwCE8","price_level":2,"rating":4.2,"reference":"CmRRAAAAjif98BE9_pwHDV_P9bGiV07vqPx53Bz9_qesdXfanR7dz9WAcv5ZDN0PtSFmu_G74ffMKFdYrLSb2HJxDaWZS6bE4nR9s7tpf7mUW72wK7BDw47qoYZlZ7wGGovWSX_lEhD0q_mFbjhpHEd7r7KR76vUGhR2kPvzK0_0Ksj25ezHeUjLYCH13Q","scope":"GOOGLE","types":["restaurant","bar","food","point_of_interest","establishment"],"vicinity":"200 North 6th Street, Boise","html_attributions":[]},{"geometry":{"location":{"lat":43.60143979999999,"lng":-116.1929447},"viewport":{"south":43.6000958197085,"west":-116.19458138029148,"north":43.6027937802915,"east":-116.19188341970852}},"icon":"https://maps.gstatic.com/mapfiles/place_api/icons/restaurant-71.png","id":"41dd154bcccd9a11ff45c30ea02452d417ec73e9","name":"Chili's Grill & Bar","opening_hours":{"open_now":false,"weekday_text":[]},"photos":[{"height":2952,"html_attributions":["<a href=\"https://maps.google.com/maps/contrib/116543593025072768816/photos\">Ken Brown</a>"],"width":5248}],"place_id":"ChIJP-oGtVD4rlQRck03ldyxs6w","price_level":2,"rating":3.8,"reference":"CmRSAAAAYQn8hAepzj1R4WBC1k700VB4T8tUpA1c-XiwCdPc-jkJXaRHO_FuK5FU8UyMngp_XJh7CggWUXy-hBfzUuv8MQSIEkyDCUBy2r7kzen2B_1fOx-kNKoFsfFnB26azmFlEhCPhAqr4S1BNq3qvzfKSIFuGhTZZQZ0WIxTAAbypRgb8X6mnBCUPw","scope":"GOOGLE","types":["restaurant","meal_delivery","meal_takeaway","bar","food","point_of_interest","establishment"],"vicinity":"916 South Broadway Avenue, Boise","html_attributions":[]},{"geometry":{"location":{"lat":43.63037730000001,"lng":-116.20305589999998},"viewport":{"south":43.62902786970849,"west":-116.20455453029149,"north":43.63172583029149,"east":-116.20185656970853}},"icon":"https://maps.gstatic.com/mapfiles/place_api/icons/restaurant-71.png","id":"cdc4ad9430e7613a52923ff8b5d151cd838aa6df","name":"Sun Ray Cafe","opening_hours":{"open_now":false,"weekday_text":[]},"photos":[{"height":3024,"html_attributions":["<a href=\"https://maps.google.com/maps/contrib/114590228620421571774/photos\">Wendy Berkson</a>"],"width":4032}],"place_id":"ChIJc5iu8Sb5rlQRfppBiWpbQFg","price_level":2,"rating":3.7,"reference":"CmRRAAAAXm9Ek99nzm1apK1Aih91Oe6huLQIBajkYqznWyj_lkvDXLj310SIKhXBCc9vD0VqqYaMDmTxJGfECHTSSyRqeSqh-XXniOCCC4zwYcCGr3kAKZvVFM6IbIrCyDcQkv-NEhCr8uVvbNR16CHTEHOcY6SvGhSbL87Q756PuT62urNXtzVhHCdKQQ","scope":"GOOGLE","types":["bar","restaurant","food","point_of_interest","establishment"],"vicinity":"1602 North 13th Street, Boise","html_attributions":[]},{"geometry":{"location":{"lat":43.60555839999999,"lng":-116.21214450000002},"viewport":{"south":43.6041219197085,"west":-116.21329973029151,"north":43.6068198802915,"east":-116.21060176970849}},"icon":"https://maps.gstatic.com/mapfiles/place_api/icons/restaurant-71.png","id":"398084d17ed6aef4223fd8fb5a37f5cd126539a0","name":"Papa Joe's","opening_hours":{"open_now":false,"weekday_text":[]},"photos":[{"height":250,"html_attributions":["<a href=\"https://maps.google.com/maps/contrib/110911993831775877273/photos\">Papa Joe&#39;s</a>"],"width":250}],"place_id":"ChIJf5Rg6vT4rlQRLWSWW2rMRz4","price_level":2,"rating":3.9,"reference":"CmRRAAAAKrJ6UWUg8O_L56UaC9a0x2RgwphFgP-TGOrPbytvpq70LwhjlyOZhyuaY21Z4PBBczhMar0J9iKi195-Au8QEW4ue8vNNGeG75EGLWmBHsZ0mdoD3gSEylX7JstOEclZEhCLGPwJglZmCgR5aezY6gNkGhTzwOVGUdUJ-utv68qV6uve_yNHRw","scope":"GOOGLE","types":["bar","restaurant","food","point_of_interest","establishment"],"vicinity":"1301 South Capitol Boulevard, Boise","html_attributions":[]},{"geometry":{"location":{"lat":43.5962311,"lng":-116.17710390000002},"viewport":{"south":43.5948603697085,"west":-116.17874658029149,"north":43.5975583302915,"east":-116.17604861970847}},"icon":"https://maps.gstatic.com/mapfiles/place_api/icons/restaurant-71.png","id":"f279fabf7713f4a62a607eb85b35f5eac61b7b29","name":"The Refuge Restaurant & Lounge","opening_hours":{"open_now":false,"weekday_text":[]},"photos":[{"height":3006,"html_attributions":["<a href=\"https://maps.google.com/maps/contrib/100626985539904354512/photos\">Rich T</a>"],"width":5344}],"place_id":"ChIJNw1RhEz4rlQRJss6Nw1LIec","rating":4.2,"reference":"CmRSAAAAr3oAzQsXXslJUUWiyaz3cCOFTZ23G6Mrwq4RuNQkomVTRjHm2NkqQjATEr6fkJkFBtXpYb3SXFbDawN4P3M9X99o4j7ayBDNvqb3blYB_2abiQb2Wb03a7o4gPi9ih7vEhCjtULFZbL7f8biRStw08pmGhTP2qWSCnT1fqy6xsWdhoN1WO7RvQ","scope":"GOOGLE","types":["restaurant","bar","food","point_of_interest","establishment"],"vicinity":"404 East Parkcenter Boulevard, Boise","html_attributions":[]},
{"geometry":{"location":{"lat":43.6180841,"lng":-116.20316270000001},"viewport":{"south":43.6166875197085,"west":-116.20441773029148,"north":43.6193854802915,"east":-116.20171976970852}},"icon":"https://maps.gstatic.com/mapfiles/place_api/icons/restaurant-71.png","id":"e525d78c947c5527fadf72ee54777d3a3517c3a1","name":"Yen Ching Restaurant","opening_hours":{"open_now":false,"weekday_text":[]},"photos":[{"height":2268,"html_attributions":["<a href=\"https://maps.google.com/maps/contrib/101655408557899402066/photos\">Niles Sutton</a>"],"width":4032}],"place_id":"ChIJD1s29-P4rlQR0QVGxC9AWY0","price_level":1,"rating":4,"reference":"CmRSAAAAgPSJAmxPVuEi1c4ydh4GF-uVgHpa9wEVokiWQjNWta-uMUrSObaWWE6mEM0hShQS-QnmfQxRLHbOJCwry_F8FNz8M4lqjgOa3wiq1-8XSeUuMXwwuweiAwZh-cfAdWUzEhCBvzQmwFBsgn95PE-8_At5GhRe5qZb8Hr1G-0b2ul8tYcewAdNdA","scope":"GOOGLE","types":["bar","restaurant","food","point_of_interest","establishment"],"vicinity":"305 North 9th Street, Boise","html_attributions":[]},{"geometry":{"location":{"lat":43.6164411,"lng":-116.20215480000002},"viewport":{"south":43.6149647197085,"west":-116.20362888029149,"north":43.6176626802915,"east":-116.20093091970853}},"icon":"https://maps.gstatic.com/mapfiles/place_api/icons/restaurant-71.png","id":"0a70b1a09256544affc8433b6251114a55eb2423","name":"Mai Thai Restaurant","opening_hours":{"open_now":false,"weekday_text":[]},"photos":[{"height":2048,"html_attributions":["<a href=\"https://maps.google.com/maps/contrib/116845731518832489717/photos\">Mai Thai Restaurant</a>"],"width":2047}],"place_id":"ChIJTzcehOT4rlQRwo-YqazP4KU","price_level":2,"rating":3.9,"reference":"CmRSAAAAhnpmVby4kLKJmHiz_7qa5oT5sG-CgY3Ey_CjqEwpa98keoNBzzkBF8mUPXy2m8Cic1g97YhBWhyI4SHic-h5qEwffImEQM8ND7HezbdFyWFUQOYMcfaecW6jyIECvQxjEhACb6mrGGGc8JVTaG7wKj-JGhT6t1pcoR9f0L8aarCphwRm52h0HA","scope":"GOOGLE","types":["bar","restaurant","food","point_of_interest","establishment"],"vicinity":"750 West Idaho Street, Boise","html_attributions":[]},{"geometry":{"location":{"lat":43.5991091,"lng":-116.1932132},"viewport":{"south":43.59775926970851,"west":-116.19472118029148,"north":43.60045723029151,"east":-116.19202321970852}},"icon":"https://maps.gstatic.com/mapfiles/place_api/icons/restaurant-71.png","id":"c34d80dc472f243a01da1abd24e96e94d400f398","name":"SUBWAY®Restaurants","opening_hours":{"open_now":false,"weekday_text":[]},"photos":[{"height":2448,"html_attributions":["<a href=\"https://maps.google.com/maps/contrib/100554150347315978719/photos\">Moldytoaster</a>"],"width":3264}],"place_id":"ChIJs4Fmhlr4rlQRkvxabBeCxyY","price_level":1,"rating":3.4,"reference":"CmRRAAAAvDO1sI5znoCxqy5zwDLo_IPdYVQHh4JWXN6lMBZx2wZWA9VWjSV5pcWqIJOw7RIyLKmEv0ggPqb40j4wDS9vrkO6KkjDlWSy0jqDdDKPL86lmCG-aWl6Qxfe92PmbqgiEhDPNC8Mta61DefeX2SzHW1NGhSpF5hiBDK56tmrtxn_y-lBr3Ec6g","scope":"GOOGLE","types":["restaurant","food","point_of_interest","establishment"],"vicinity":"1120 South Broadway Avenue, Boise","html_attributions":[]},{"geometry":{"location":{"lat":43.5951,"lng":-116.21299999999997},"viewport":{"south":43.5937511697085,"west":-116.21467998029152,"north":43.5964491302915,"east":-116.2119820197085}},"icon":"https://maps.gstatic.com/mapfiles/place_api/icons/restaurant-71.png","id":"dd0fb11d6dfca3af4fe8ea90225d138cfebb10da","name":"Papa Murphy's Take 'N' Bake Pizza","opening_hours":{"open_now":false,"weekday_text":[]},"photos":[{"height":1920,"html_attributions":["<a href=\"https://maps.google.com/maps/contrib/104785222222344398375/photos\">Robin McCown</a>"],"width":2560}],"place_id":"ChIJEYKDSGT4rlQRlfImMpbcqj4","price_level":1,"rating":4.2,"reference":"CmRRAAAA80GSxJZxdKUCYItiMZrgxogMdjRdzqG00zHBCpo3g9G3BvjjJDt2cvpdyHEFgMGUZwqlecf0ke1PAmoJGSj9Lt15asUMVq_QOAyC6j-AXLI8HQOYIrzr4IB3YHrHy1nPEhBQ-KcUPyo4-TJYpp1zWsCpGhSIkY8geCE1Lkt26C2CHkObcsYU8Q","scope":"GOOGLE","types":["meal_takeaway","restaurant","food","point_of_interest","establishment"],"vicinity":"1022 South Vista Avenue, Boise","html_attributions":[]},{"geometry":{"location":{"lat":43.6144211,"lng":-116.2014835},"viewport":{"south":43.6131296697085,"west":-116.20277628029152,"north":43.6158276302915,"east":-116.2000783197085}},"icon":"https://maps.gstatic.com/mapfiles/place_api/icons/restaurant-71.png","id":"2686ef43c7ad3b3ac9b3ea701ca576db02472b28","name":"Brickyard","opening_hours":{"open_now":false,"weekday_text":[]},"photos":[{"height":768,"html_attributions":["<a href=\"https://maps.google.com/maps/contrib/114309632529607291446/photos\">Steve Nielsen</a>"],"width":1024}],"place_id":"ChIJnzDatOT4rlQR1Reb4QgLoc8","price_level":3,"rating":4.3,"reference":"CmRSAAAAmzGWeM_94khojbjChPdq4HaP0-bgwRlZThgGgMvJA94utk96H2Jf1M_NHtWZ80-CKPZZ2pJ3SRyAlZT3s5-tT6qJ9oLscdSiKiZu1HS7dZd9P7fRu8OrDtK_nHkX6XRIEhCHy_BzObn8WsOM_5U0cPT0GhTmUAXFRvhaQ1jgWCyOduwjic0Zqw","scope":"GOOGLE","types":["bar","restaurant","food","point_of_interest","establishment"],"vicinity":"601 West Main Street, Boise","html_attributions":[]},{"geometry":{"location":{"lat":43.614891,"lng":-116.19689160000001},"viewport":{"south":43.6135917197085,"west":-116.19834163029151,"north":43.6162896802915,"east":-116.19564366970849}},"icon":"https://maps.gstatic.com/mapfiles/place_api/icons/restaurant-71.png","id":"df6c2665df54aae3e6f462705062e26ffa24d978","name":"Chicago Connection - Downtown","opening_hours":{"open_now":false,"weekday_text":[]},"photos":[{"height":2448,"html_attributions":["<a href=\"https://maps.google.com/maps/contrib/101947110837450659080/photos\">Chicago Connection - Downtown</a>"],"width":3264}],"place_id":"ChIJdS2f1_z4rlQRkIw6ooz69U0","price_level":2,"rating":3.8,"reference":"CmRRAAAAGJ9Na9cX-ngicwIjJSBOQ1dfI9qpKizHry5osLswzLIU7m13tHJACmN9ySAL9lS4Bd_BA9FqthvKGn4s-MYYpgr5tGEmMB3wEH9w9YWUk1RexUJPYLwgQlszRBuWDqBLEhADHHbjQLyGQOcHRYJt_t0vGhSh150udSC2lJmUA1Ngl_eU63yCOw","scope":"GOOGLE","types":["restaurant","food","point_of_interest","establishment"],"vicinity":"310 North 4th Street, Boise","html_attributions":[]},{"geometry":{"location":{"lat":43.6163736,"lng":-116.20321519999999},"viewport":{"south":43.6151009697085,"west":-116.20448903029148,"north":43.6177989302915,"east":-116.20179106970852}},"icon":"https://maps.gstatic.com/mapfiles/place_api/icons/restaurant-71.png","id":"76b2dcc4d5185bfbeb86e636239c330f96000c28","name":"ALAVITA","opening_hours":{"open_now":false,"weekday_text":[]},"photos":[{"height":5312,"html_attributions":["<a href=\"https://maps.google.com/maps/contrib/106521855672128474922/photos\">Tamara Pettinger</a>"],"width":2988}],"place_id":"ChIJ5zxHY-T4rlQRspgA1-zFIKg","price_level":2,"rating":4.4,"reference":"CmRSAAAAWmuPfqGtkd8HxoLuRvcQ4jFCRv9DQ1peXWKxsM9Gb90jkCRUx4pHmVOSUVSxb8xR4v_41sQRpiAJjYtIEvGfU7-vQl8HO0JrMlAa50Kd8THjfGCrgIRMqt60lE9sXmIhEhCz7fivh18mHoZWPVe0CSMRGhS9JCStUL1U3JdlJk2p-QwY_E_AoQ","scope":"GOOGLE","types":["bar","restaurant","food","point_of_interest","establishment"],"vicinity":"807 West Idaho Street, Boise","html_attributions":[]},{"geometry":{"location":{"lat":43.590355,"lng":-116.19266099999999},"viewport":{"south":43.5890064697085,"west":-116.19442693029151,"north":43.5917044302915,"east":-116.19172896970849}},"icon":"https://maps.gstatic.com/mapfiles/place_api/icons/restaurant-71.png","id":"db2dfc7919bbc6bda68fcd9501b50319aafde509","name":"Mongolian BBQ","opening_hours":{"open_now":false,"weekday_text":[]},"photos":[{"height":3024,"html_attributions":["<a href=\"https://maps.google.com/maps/contrib/111515095912343300410/photos\">Junsuke Arai</a>"],"width":4032}],"place_id":"ChIJGT77F0H4rlQR7MbPuPXPLXY","price_level":2,"rating":4.4,"reference":"CmRRAAAAkBu53-sk8aiMTtXKZH_EknskkOStAhc-kq3VD7DpMJsY3QTxaqsJN8fmK1_kyELvJ8s0vrzX8yp-lUPBar8eBy7AjV5fj_A7VZqjk5TQteV4WstNdwADLLY1ukV79invEhAWdkXDyH4eWdUIA-x4riqvGhQPNfQy3gDHbG5UHSO0XZKxRkz5kQ","scope":"GOOGLE","types":["restaurant","food","point_of_interest","establishment"],"vicinity":"1808 South Broadway Avenue, Boise","html_attributions":[]},{"geometry":{"location":{"lat":43.6146931,"lng":-116.20238619999998},"viewport":{"south":43.6133872197085,"west":-116.20381788029147,"north":43.6160851802915,"east":-116.2011199197085}},"icon":"https://maps.gstatic.com/mapfiles/place_api/icons/restaurant-71.png","id":"fa7501cf27a20072fbbb4a9eec4978c8c288644d","name":"Goldy's Breakfast Bistro","opening_hours":{"open_now":true,"weekday_text":[]},"photos":[{"height":1440,"html_attributions":["<a href=\"https://maps.google.com/maps/contrib/115800495950243138822/photos\">Topher Judd</a>"],"width":2560}],"place_id":"ChIJ4zssv-T4rlQRc_9dfj6zxTo","price_level":2,"rating":4.5,"reference":"CmRRAAAA2WV1uHgTcvmMoryl2i2HOFAPQtfuxqm6DuWwh8EJnecO96WVjb5T62hdoqkMeK8UukZdOA9_zA18vuEhxShz-29UIJLypNNb_cqUftzPe_sahM90G-xyuLsWXKvv0bgREhCbWLEp5G14zREkz0b2MnZ2GhQanONOHsJq5MgLaGf0rc3IecvnAg","scope":"GOOGLE","types":["restaurant","food","point_of_interest","establishment"],"vicinity":"108 South Capitol Boulevard, Boise","html_attributions":[]},{"geometry":{"location":{"lat":43.6155319,"lng":-116.20290090000003},"viewport":{"south":43.61411216970851,"west":-116.20431903029151,"north":43.6168101302915,"east":-116.2016210697085}},"icon":"https://maps.gstatic.com/mapfiles/place_api/icons/restaurant-71.png","id":"cd68a8d5190248d75c81e43d12a59f1ec1d76b33","name":"Pita Pit","opening_hours":{"open_now":false,"weekday_text":[]},"photos":[{"height":265,"html_attributions":["<a href=\"https://maps.google.com/maps/contrib/100878680030282908064/photos\">Pita Pit</a>"],"width":510}],"place_id":"ChIJ6fko6-T4rlQRC7FU5xBIvak","price_level":1,"rating":3.7,"reference":"CmRSAAAAN2Ha-_z_meBdHSxGLFoyI6WAUvgMJq804LcO8UBWIc27C8yH0kS6r_FnjlBnswVo_bGSsxWqmnJtF3VuXYUKJzXqKxnf6sqb7Jn4MgOS-IIcuj3w-HyA95t9S75IbPN0EhCgq67DKZQwMUfGs0ed6nOWGhTZfVc-8wxCpw2d-qTJaQzio-y_kw","scope":"GOOGLE","types":["restaurant","food","store","point_of_interest","establishment"],"vicinity":"746 Main Street, Boise","html_attributions":[]},{"geometry":{"location":{"lat":43.6140005,"lng":-116.20186000000001},"viewport":{"south":43.61259606970849,"west":-116.2030972802915,"north":43.61529403029149,"east":-116.20039931970848}},"icon":"https://maps.gstatic.com/mapfiles/place_api/icons/restaurant-71.png","id":"35fe8a64a9ca63d3790a80231aec2f243ad621fb","name":"Leku Ona","opening_hours":{"open_now":false,"weekday_text":[]},"photos":[{"height":5344,"html_attributions":["<a href=\"https://maps.google.com/maps/contrib/101003308954048351234/photos\">Patricia Fierling</a>"],"width":4008}],"place_id":"ChIJJ5tGNPv4rlQRCdk58044G8U","price_level":2,"rating":3.9,"reference":"CmRSAAAAJOcrGLkT-a7OSP9Ks7Z9094krn3sN0psq6C-5_iFi-Lmoh9jSuDvCTN20q_prmcZmRg71n1mg3vrvv9R18q1O_XYfSpkQGNzs85s7YFDdwhdtFKJ3_zFa8XIFXKtEVDPEhAF66q2OkNLCkIgcigz1BqpGhS5zDryGhSXikp02fYOE226iPlf0w","scope":"GOOGLE","types":["bar","lodging","restaurant","food","point_of_interest","establishment"],"vicinity":"117 South 6th Street, Boise","html_attributions":[]},{"geometry":{"location":{"lat":43.61444599999999,"lng":-116.20159000000001},"viewport":{"south":43.6130159197085,"west":-116.20277563029151,"north":43.61571388029149,"east":-116.20007766970849}},"icon":"https://maps.gstatic.com/mapfiles/place_api/icons/restaurant-71.png","id":"9bd217015c7da6671028717e25fa55b811202d11","name":"Reef","opening_hours":{"open_now":false,"weekday_text":[]},"photos":[{"height":640,"html_attributions":["<a href=\"https://maps.google.com/maps/contrib/115870790828882650543/photos\">Reef</a>"],"width":640}],"place_id":"ChIJTTukTPv4rlQRrxwaLoYCuqw","price_level":2,"rating":3.9,"reference":"CmRSAAAAOVJGhMSsJ5ZQuynIzmsdOeIyJCah9YmduQ_wzDv1smGmQjlhcBX8r8Q1vY69gairpHDL_pxOa7Wbx9PHbzhBOl93xv-V-VtUzULDSC1ZcOfrvoVDKvIvemszb_LcBM_cEhClZ1G-Di8Niv_yuXMi-_RaGhQPRBgfXpV5gYEW6YhqvuQCf2vMKw","scope":"GOOGLE","types":["bar","restaurant","food","point_of_interest","establishment"],"vicinity":"105 South 6th Street, Boise","html_attributions":[]},{"geometry":{"location":{"lat":43.6255319,"lng":-116.2102458},"viewport":{"south":43.6241122697085,"west":-116.21166193029148,"north":43.6268102302915,"east":-116.20896396970852}},"icon":"https://maps.gstatic.com/mapfiles/place_api/icons/restaurant-71.png","id":"b75981baa19b6654d6300624c87f56aa525a20b0","name":"Papa Murphy's Take 'N' Bake Pizza","opening_hours":{"open_now":false,"weekday_text":[]},"photos":[{"height":3024,"html_attributions":["<a href=\"https://maps.google.com/maps/contrib/100407953522631852866/photos\">Wally Hartje</a>"],"width":4032}],"place_id":"ChIJY_MESNz4rlQRu7wq6ojOCds","price_level":1,"rating":3.6,"reference":"CmRSAAAA0QtKqKSkqhngRzVraHRSzOEI8oTccnqJw-bZqQZseiUcqTeLejssGJDA3sAeTO6GS_90X3TeoUMmXMbOKzAjtXHvbwyeCPD1kwl2cHFOkKd-bwX9jP3vfl4aEnJGa5uWEhBdIbMKTNDRylo6dPIM-eaSGhTHyyeLVUl5zI9RIh0B9qbaZAPHiw","scope":"GOOGLE","types":["meal_takeaway","restaurant","food","point_of_interest","establishment"],"vicinity":"1738 West State Street, Boise","html_attributions":[]},{"geometry":{"location":{"lat":43.6060095,"lng":-116.2115124},"viewport":{"south":43.60459656970851,"west":-116.21274363029147,"north":43.6072945302915,"east":-116.2100456697085}},"icon":"https://maps.gstatic.com/mapfiles/place_api/icons/restaurant-71.png","id":"fbbbeb4ebc54b13305b9c2bc3be37a75ae3847f2","name":"SUBWAY®Restaurants","opening_hours":{"open_now":false,"weekday_text":[]},"photos":[{"height":1152,"html_attributions":["<a href=\"https://maps.google.com/maps/contrib/115071396473517871075/photos\">Jim Allen</a>"],"width":2048}],"place_id":"ChIJQbA3jPT4rlQRPbNzF0vu0Cc","price_level":1,"rating":3.7,"reference":"CmRRAAAA0TPCxOYOAvMC1Dyue_F4mNkC7oAwmtkA34vIchofPPxXOP-1-e44qA7jqK_rn-gdcxUb0Sw1ySS_Q0MuAxrSlRd3Kcezwl7Rk27J_iy4tqUrW_b2m9AyyaCoDMLg7U-rEhDXQorCWhjexkGAQQlyN9dkGhS-f-dKQvWC4tgTyWziG0J5emEaQw","scope":"GOOGLE","types":["restaurant","food","point_of_interest","establishment"],"vicinity":"1265 South Capitol Boulevard Suite 103, Boise","html_attributions":[]},{"geometry":{"location":{"lat":43.5967039,"lng":-116.1933138},"viewport":{"south":43.59535491970851,"west":-116.19466278029148,"north":43.5980528802915,"east":-116.19196481970852}},"icon":"https://maps.gstatic.com/mapfiles/place_api/icons/restaurant-71.png","id":"e304bf04fc18ea5795fa026f4b1febf6bea39771","name":"Del Taco","opening_hours":{"open_now":true,"weekday_text":[]},"photos":[{"height":4032,"html_attributions":["<a href=\"https://maps.google.com/maps/contrib/109570802990724207917/photos\">Roxie Suchicital</a>"],"width":3024}],"place_id":"ChIJ4bO1LUX4rlQRAhDStns68uE","price_level":1,"rating":3.8,"reference":"CmRSAAAAIJEGmZqVzuplWEarqHDOYszzRKbpCqvLCLU7P71zK28xI5mYtCP2QkDrKimINz9mPSSmY34ZEoyIb1UhMD6t9k_qm2FaARTw7TumVQ-gMt2wUVFQBVAy_o5x0cbclSBnEhB_sRhS81YzpjgsP0YE8ztqGhSdBAVBCAD3A7etp3X_MFr4E5o_Jw","scope":"GOOGLE","types":["meal_takeaway","restaurant","food","point_of_interest","establishment"],"vicinity":"1306 Broadway AVE., Boise","html_attributions":[]},{"geometry":{"location":{"lat":43.6171004,"lng":-116.20249439999998},"viewport":{"south":43.6156786197085,"west":-116.20369698029151,"north":43.6183765802915,"east":-116.20099901970849}},"icon":"https://maps.gstatic.com/mapfiles/place_api/icons/restaurant-71.png","id":"f257397af890e0def2da1de4df6fc063f572fb4b","name":"Zeppole Baking Co","opening_hours":{"open_now":true,"weekday_text":[]},"photos":[{"height":1840,"html_attributions":["<a href=\"https://maps.google.com/maps/contrib/107865170787642898674/photos\">Ronald Yankey</a>"],"width":3264}],"place_id":"ChIJEwIwiOP4rlQRLpQsFMy_qhg","price_level":1,"rating":4.9,"reference":"CmRRAAAAh14zGQyw9Ip8LcQfvV_SY0sv-9QEBCd4sIY6D5eSydh--6RAKoLL9K0-A-9Go1IdgUF8063J2ytEDcYtIwVhA585u7HhjGqSijFPH03e0VDjJZLsA1Ibrcz9ix-zCWr3EhAHEgXdh59uR8co-jD2HhW_GhTFxRU4hmNklZHWNHZRJJtVS2XICg","scope":"GOOGLE","types":["bakery","meal_delivery","meal_takeaway","restaurant","food","store","point_of_interest","establishment"],"vicinity":"215 North 8th Street, Boise","html_attributions":[]},{"geometry":{"location":{"lat":43.6171994,"lng":-116.2024338},"viewport":{"south":43.6159035197085,"west":-116.2037305802915,"north":43.6186014802915,"east":-116.20103261970849}},"icon":"https://maps.gstatic.com/mapfiles/place_api/icons/restaurant-71.png","id":"7a8db638a2b0c1b979fef1121615107ba891a775","name":"Mongolian Grill & Bar","opening_hours":{"open_now":false,"weekday_text":[]},"photos":[{"height":1347,"html_attributions":["<a href=\"https://maps.google.com/maps/contrib/105439244701679103735/photos\">Gabi Bolboaca</a>"],"width":3694}],"place_id":"ChIJDUmEheP4rlQRXUjepVrcjn8","rating":4.2,"reference":"CmRRAAAAfyuSmvcu4FTcJQHFeP8VTE-n4Ztd8UWySQUtl06-v9e8UEmH9dnilwpeMYHl72UHLJCY9xGl0NoLoVnPnLTRRspBlLMnPeQ0EtW2trmDI65aAM2c6CQuzKnja8FY4jGWEhA8PFGtD9w6QV0upQzOKz4zGhSA3H5yPTYcJKQECK-2O8nF07rJxg","scope":"GOOGLE","types":["restaurant","food","point_of_interest","establishment"],"vicinity":"801 West Bannock Street, Boise","html_attributions":[]},{"geometry":{"location":{"lat":43.60583219999999,"lng":-116.205939},"viewport":{"south":43.6044832197085,"west":-116.20728798029148,"north":43.60718118029149,"east":-116.20459001970852}},"icon":"https://maps.gstatic.com/mapfiles/place_api/icons/restaurant-71.png","id":"742300fc370ac127fcd1d03805ef1bf3f6d16c13","name":"Subway","opening_hours":{"open_now":true,"weekday_text":[]},"photos":[{"height":2988,"html_attributions":["<a href=\"https://maps.google.com/maps/contrib/117146177744915225664/photos\">Robert Whitaker</a>"],"width":5312}],"place_id":"ChIJySB7fPb4rlQRjULLhlSwqaU","price_level":1,"rating":2.1,"reference":"CmRSAAAA5Ujuu0a2QwDqrh_RZO_qbpo8I8fs4LD-QYztr8nIXpj29ca0Z_bctiiynMpq45391sOzHBscjkH3fz1FlxjVDvBMBqNnat-Nr0OcY0JYD-5Ck3k_kJ4XgDzFYFESVbZPEhA9oDXCU9fd04p4k6ObZI7MGhTfvjQgKXESWF54sNat0rTGTOnXIw","scope":"GOOGLE","types":["restaurant","food","point_of_interest","establishment"],"vicinity":"1910 West University Drive, Boise","html_attributions":[]},{"geometry":{"location":{"lat":43.645611,"lng":-116.242547},"viewport":{"south":43.6440899197085,"west":-116.24412678029148,"north":43.6467878802915,"east":-116.24142881970852}},"icon":"https://maps.gstatic.com/mapfiles/place_api/icons/restaurant-71.png","id":"c88206adc7bc1b550ce03d4e69be229694e338f9","name":"Flying Pie Pizzaria","opening_hours":{"open_now":false,"weekday_text":[]},"photos":[{"height":1365,"html_attributions":["<a href=\"https://maps.google.com/maps/contrib/117236752128656334128/photos\">Flying Pie Pizzaria</a>"],"width":2048}],"place_id":"ChIJ31JzqTv_rlQRMY3zIE-s54U","price_level":2,"rating":4.4,"reference":"CmRSAAAA2CU4U4-YWrDBJlrGLCM1uaWzWWQ6dgUGjXNiReOAlmOPzqU8cuDVeF6NLW9nk2UqcJdaRGWyxB5DmfEDNHB7LIFcpHXCo1HyswGqVnfg65VDufXg5xhxAJ-pZRKE1jlSEhAM4swTafzriVoD23N3utPjGhQwiaX32nLe6-pBO_Kt48mSkMLaHg","scope":"GOOGLE","types":["meal_delivery","meal_takeaway","restaurant","food","point_of_interest","establishment"],"vicinity":"4320 West State Street, Boise","html_attributions":[]},{"geometry":{"location":{"lat":43.616353,"lng":-116.20556199999999},"viewport":{"south":43.6151064197085,"west":-116.2068154302915,"north":43.6178043802915,"east":-116.20411746970854}},"icon":"https://maps.gstatic.com/mapfiles/place_api/icons/restaurant-71.png","id":"b014b67a844910d3543c7328a5bb1a06421b9be3","name":"Angell's Bar & Grill","opening_hours":{"open_now":false,"weekday_text":[]},"photos":[{"height":1536,"html_attributions":["<a href=\"https://maps.google.com/maps/contrib/109303427975170487405/photos\">Angell&#39;s Bar &amp; Grill</a>"],"width":2048}],"place_id":"ChIJZTrMTOT4rlQR8PovxcMYuOI","price_level":2,"rating":3.3,"reference":"CmRSAAAAyRionQWMVEIS7MM9cHyisHxrxj9dsfT8u0poVXGrXhaCM17VWe8px2N4dNULJ_9G0lFb9uwUMzKd3zEyiQ937q2IPOYA9z8D46gUwNF1AqF_mzT7LvCbk1w25jCK9PPyEhDZNG6jD9BxXlHce_jmQiMGGhSnMnUN6Yj1_I40tfqIS6StzQvPjg","scope":"GOOGLE","types":["bar","restaurant","food","point_of_interest","establishment"],"vicinity":"999 West Main Street, Boise","html_attributions":[]}]