"Timestamp","What was the first thing you noticed about amBrOISEa?","I liked how the screen showed the map and the assistant at the same time.","The assistant ""tree"" could have been better represented in some other way.","I knew exactly how to navigate through amBrOISEa as soon as it opened up.","I almost always got the results I intended to look for.","amBrOISEa was easy and intuitive to use. ","I liked that I was asked if it understood me correctly.","I had the impression that amBrOISEa was improving as I used it. ","amBrOISEa always did the right thing after asking me for a clarification.","I always understood what was required for me to do next.","I did not know when to speak and when to pause","I felt amBrOISEa could better predict what I wanted next.","amBrOISEa appeared to easily understand what I said to it.","I felt that the interaction was more natural than the other personal assistants I have used.","I liked that I could fix misunderstandings quickly.","I liked that I could say reset and start all over again.","How many times have you interacted with a speech-based personal assistant? 1 Being once or twice till today and 5 being Many times daily.","Which personal assistant do you mostly interact with?","Which features frustrate you the most about current personal assistants.(Pick at least 2)","Would you use this as an app on a mobile device?","What improvements would you like to suggest for amBrOISEa?","Which new avenues do you see this technology being applied to in the future?"
"2017/05/25 5:14:47 PM CDT","Very good idea ","5","2","4","4","4","4","4","4","4","3","3","3","3","4","4","3","Cortana","There is no way to know if they understand me correctly.;I can't correct them mid-sentence.","4","While going further, suggestions should be shown accordingly. I do not think I can see this.  ","I really do not have an idea. "
"2017/05/29 1:28:22 PM CDT","The nice separation of the individual categories","4","4","2","4","4","3","4","2","2","5","3","3","4","4","5","2","Google now","They don't understand me.;I can't correct them mid-sentence.","4","For some reason, it almost never correctly responded when I said ""High"" for price.","Web browsing"
"2017/05/29 5:57:11 PM CDT","the map","5","1","3","2","3","1","3","3","2","4","3","2","3","1","4","3","Google now","They don't understand me.","2","By the questionnaire questions I am implying that it was supposed to ask me for clarification which never happened. I like the idea, though!","I don't know"
"2017/05/30 2:04:33 PM CDT","It responded quickly, the microphone was always on rather than having to say a keyword to launch it.","5","5","4","3","4","5","4","3","2","1","3","4","4","3","5","5","Google now","I can't correct them mid-sentence.;They talk when I talk and we end up accomplishing nothing.","4","Better visuals. The restaurants and things need more information like reviews. I felt like I was picking blindly, but I like doing my research before picking somewhere. Obviously more content needs to be added.","planning trips, finding somewhere to eat. "
"2017/05/31 11:24:37 AM CDT","Name is hard to pronounce. But having a map to interact with is great.","5","1","5","5","5","1","3","1","4","1","4","5","3","5","5","5","Siri","They don't understand me.;I can't correct them mid-sentence.","4","Just a name change ;) ","Finding my way around a city."
"2017/05/31 8:28:11 PM CDT","The tree menu","3","5","4","2","2","4","1","3","2","4","1","5","2","3","5","5","Alexa","There is no way to know if they understand me correctly.;I can't correct them mid-sentence.","4","I actually didn't hear any responses except to visually confirm by watching the menu options change.","biometric monitoring (implantables)"
"2017/06/01 12:11:50 AM CDT","There were no instructions on the screen so I had no clue what to do.  Tried clicking on everything and nothing would happen.","3","3","1","1","1","1","1","1","1","5","1","1","1","1","4","3","Siri","They don't understand me.","2","Instructions/prompts on screen","?"