2017-05-27T01:15:05.820944+00:00 app[web.1]: INFO  InteractionLogger: 858835031 messageToClient={"words":"once","intent":"museum"}
2017-05-27T01:15:05.820672+00:00 app[web.1]: INFO  InteractionLogger: 858835031 messageToClient={"depth":4,"iden":"","children":[{"iden":"museum","level":"red","children":[{"iden":"price","level":"steelblue","name":"price","type":"steelblue"}],"name":"museum","type":"red"}],"name":""}
2017-05-27T01:15:05.825805+00:00 app[web.1]: INFO  TreeModule: offerConfirmation(price,low)
2017-05-27T01:15:05.825852+00:00 app[web.1]: INFO  TreeModule: offerExpansion(price,)
2017-05-27T01:15:05.826549+00:00 app[web.1]: INFO  InteractionLogger: 858835031 messageToClient={"words":"once","intent":"low?"}
2017-05-27T01:15:05.826263+00:00 app[web.1]: INFO  TreeModule: offerExpansion(price,)
2017-05-27T01:15:05.826345+00:00 app[web.1]: INFO  InteractionLogger: 858835031 messageToClient={"depth":4,"iden":"","children":[{"iden":"museum","children":[{"iden":"price","level":"red","children":[{"iden":"low?","level":"red","name":"low?","type":"red"},{"iden":"high","level":"steelblue","name":"high","type":"steelblue"},{"iden":"medium","level":"steelblue","name":"medium","type":"steelblue"}],"name":"price","type":"red"}],"name":"museum"}],"name":""}
2017-05-27T01:15:05.827688+00:00 app[web.1]: INFO  TreeModule: expandIntent(intent,price)
2017-05-27T01:15:05.827712+00:00 app[web.1]: INFO  TreeModule: offerExpansion(price,)
2017-05-27T01:15:05.827764+00:00 app[web.1]: INFO  InteractionLogger: 858835031 messageToClient={"depth":4,"iden":"","children":[{"iden":"museum","children":[{"iden":"price","level":"red","children":[{"iden":"low?","level":"red","name":"low?","type":"red"},{"iden":"high","level":"steelblue","name":"high","type":"steelblue"},{"iden":"medium","level":"steelblue","name":"medium","type":"steelblue"}],"name":"price","type":"red"}],"name":"museum"}],"name":""}
2017-05-27T01:15:05.827917+00:00 app[web.1]: INFO  InteractionLogger: 858835031 messageToClient={"words":"once","intent":"low?"}
2017-05-27T01:15:05.828069+00:00 app[web.1]: INFO  InteractionLogger: 858835031 messageToClient={"depth":4,"iden":"","children":[{"iden":"museum","children":[{"iden":"price","level":"red","children":[{"iden":"low?","level":"red","name":"low?","type":"red"},{"iden":"high","level":"steelblue","name":"high","type":"steelblue"},{"iden":"medium","level":"steelblue","name":"medium","type":"steelblue"}],"name":"price","type":"red"}],"name":"museum"}],"name":""}
2017-05-27T01:15:05.828201+00:00 app[web.1]: INFO  InteractionLogger: 858835031 messageToClient={"words":"show","intent":"low?"}
2017-05-27T01:15:05.902649+00:00 app[web.1]: MESSAGE:   {"id":858835031,"msg":{"transc":"once shown"}}
2017-05-27T01:15:05.902737+00:00 app[web.1]: INFO  InteractionLogger: 858835031 messageFromClient={"transc":"once shown"}
2017-05-27T01:15:05.902958+00:00 app[web.1]: [REVOKE(1533, NaN	NaN	show progress: null), ADD(1547, NaN	NaN	once progress: null), ADD(1548, NaN	NaN	shown progress: null)]
2017-05-27T01:15:05.903703+00:00 app[web.1]: CURRENT WORD ADD: once
2017-05-27T01:15:05.905787+00:00 app[web.1]: CURRENT WORD ADD: shown
2017-05-27T01:15:05.909945+00:00 app[web.1]: INFO  TreeModule: abortConfirmation(price,low)
2017-05-27T01:15:05.910010+00:00 app[web.1]: INFO  TreeModule: offerExpansion(price,)
2017-05-27T01:15:05.910098+00:00 app[web.1]: INFO  InteractionLogger: 858835031 messageToClient={"depth":4,"iden":"","children":[{"iden":"museum","children":[{"iden":"price","level":"red","children":[{"iden":"low","level":"steelblue","name":"low","type":"steelblue"},{"iden":"high","level":"steelblue","name":"high","type":"steelblue"},{"iden":"medium","level":"steelblue","name":"medium","type":"steelblue"}],"name":"price","type":"red"}],"name":"museum"}],"name":""}
2017-05-27T01:15:05.910394+00:00 app[web.1]: INFO  InteractionLogger: 858835031 messageToClient={"words":"show","intent":"low"}
2017-05-27T01:15:05.911645+00:00 app[web.1]: INFO  InteractionLogger: 858835031 messageToClient={"depth":4,"iden":"","children":[{"iden":"museum","children":[{"iden":"price","children":[{"iden":"low","level":"steelblue","name":"low","type":"steelblue"},{"iden":"high","level":"steelblue","name":"high","type":"steelblue"},{"iden":"medium","level":"steelblue","name":"medium","type":"steelblue"}],"name":"price"}],"name":"museum"}],"name":""}
2017-05-27T01:15:05.912803+00:00 app[web.1]: INFO  InteractionLogger: 858835031 messageToClient={"words":"show","intent":"low"}
2017-05-27T01:15:05.913015+00:00 app[web.1]: INFO  InteractionLogger: 858835031 messageToClient={"depth":4,"iden":"","children":[{"iden":"museum","children":[{"iden":"price","level":"red","children":[{"iden":"low","level":"steelblue","name":"low","type":"steelblue"},{"iden":"high","level":"steelblue","name":"high","type":"steelblue"},{"iden":"medium","level":"steelblue","name":"medium","type":"steelblue"}],"name":"price","type":"red"}],"name":"museum"}],"name":""}
2017-05-27T01:15:05.913198+00:00 app[web.1]: INFO  InteractionLogger: 858835031 messageToClient={"words":"show","intent":"low"}
2017-05-27T01:15:05.914449+00:00 app[web.1]: INFO  TreeModule: expandIntent(intent,price)
2017-05-27T01:15:05.914842+00:00 app[web.1]: INFO  TreeModule: offerExpansion(price,)
2017-05-27T01:15:05.914883+00:00 app[web.1]: INFO  TreeModule: offerExpansion(price,)
2017-05-27T01:15:05.914955+00:00 app[web.1]: INFO  InteractionLogger: 858835031 messageToClient={"depth":4,"iden":"","children":[{"iden":"museum","children":[{"iden":"price","level":"red","children":[{"iden":"low","level":"steelblue","name":"low","type":"steelblue"},{"iden":"high","level":"steelblue","name":"high","type":"steelblue"},{"iden":"medium","level":"steelblue","name":"medium","type":"steelblue"}],"name":"price","type":"red"}],"name":"museum"}],"name":""}
2017-05-27T01:15:05.915152+00:00 app[web.1]: INFO  InteractionLogger: 858835031 messageToClient={"words":"show","intent":"low"}
2017-05-27T01:15:05.915363+00:00 app[web.1]: INFO  InteractionLogger: 858835031 messageToClient={"depth":4,"iden":"","children":[{"iden":"museum","children":[{"iden":"price","level":"red","children":[{"iden":"low","level":"steelblue","name":"low","type":"steelblue"},{"iden":"high","level":"steelblue","name":"high","type":"steelblue"},{"iden":"medium","level":"steelblue","name":"medium","type":"steelblue"}],"name":"price","type":"red"}],"name":"museum"}],"name":""}
2017-05-27T01:15:05.915551+00:00 app[web.1]: INFO  InteractionLogger: 858835031 messageToClient={"words":"once shown","intent":"low"}
2017-05-27T01:15:05.950080+00:00 app[web.1]: MESSAGE:   {"id":858835031,"msg":{"transc":"once shown on"}}
2017-05-27T01:15:05.950149+00:00 app[web.1]: INFO  InteractionLogger: 858835031 messageFromClient={"transc":"once shown on"}
2017-05-27T01:15:05.950296+00:00 app[web.1]: [ADD(1571, NaN	NaN	on progress: null)]
2017-05-27T01:15:05.950499+00:00 app[web.1]: CURRENT WORD ADD: on
2017-05-27T01:15:05.954406+00:00 app[web.1]: INFO  TreeModule: abort()(,)
2017-05-27T01:15:05.954511+00:00 app[web.1]: INFO  InteractionLogger: 858835031 messageToClient={"depth":4,"iden":"","children":[{"iden":"museum","level":"red","children":[{"iden":"price","level":"steelblue","name":"price","type":"steelblue"}],"name":"museum","type":"red"}],"name":""}
2017-05-27T01:15:05.954806+00:00 app[web.1]: INFO  InteractionLogger: 858835031 messageToClient={"words":"once shown","intent":"museum"}
2017-05-27T01:15:05.955886+00:00 app[web.1]: INFO  InteractionLogger: 858835031 messageToClient={"depth":4,"iden":"","children":[{"iden":"museum","children":[{"iden":"price","level":"steelblue","name":"price","type":"steelblue"}],"name":"museum"}],"name":""}
2017-05-27T01:15:05.956081+00:00 app[web.1]: INFO  InteractionLogger: 858835031 messageToClient={"words":"once shown","intent":"museum"}
2017-05-27T01:15:05.956290+00:00 app[web.1]: INFO  InteractionLogger: 858835031 messageToClient={"depth":4,"iden":"","children":[{"iden":"museum","level":"red","children":[{"iden":"price","level":"steelblue","name":"price","type":"steelblue"}],"name":"museum","type":"red"}],"name":""}
2017-05-27T01:15:05.956471+00:00 app[web.1]: INFO  InteractionLogger: 858835031 messageToClient={"words":"once shown","intent":"museum"}
2017-05-27T01:15:05.957425+00:00 app[web.1]: INFO  TreeModule: expandIntent(intent,price)
2017-05-27T01:15:05.958220+00:00 app[web.1]: INFO  TreeModule: offerExpansion(price,)
2017-05-27T01:15:05.958326+00:00 app[web.1]: INFO  InteractionLogger: 858835031 messageToClient={"depth":4,"iden":"","children":[{"iden":"museum","children":[{"iden":"price","level":"red","children":[{"iden":"high","level":"steelblue","name":"high","type":"steelblue"},{"iden":"low","level":"steelblue","name":"low","type":"steelblue"},{"iden":"medium","level":"steelblue","name":"medium","type":"steelblue"}],"name":"price","type":"red"}],"name":"museum"}],"name":""}
2017-05-27T01:15:05.957837+00:00 app[web.1]: INFO  TreeModule: offerExpansion(price,)
2017-05-27T01:15:05.958735+00:00 app[web.1]: INFO  InteractionLogger: 858835031 messageToClient={"depth":4,"iden":"","children":[{"iden":"museum","children":[{"iden":"price","level":"red","children":[{"iden":"high","level":"steelblue","name":"high","type":"steelblue"},{"iden":"low","level":"steelblue","name":"low","type":"steelblue"},{"iden":"medium","level":"steelblue","name":"medium","type":"steelblue"}],"name":"price","type":"red"}],"name":"museum"}],"name":""}
2017-05-27T01:15:05.958928+00:00 app[web.1]: INFO  InteractionLogger: 858835031 messageToClient={"words":"once shown on","intent":"museum"}
2017-05-27T01:15:05.958529+00:00 app[web.1]: INFO  InteractionLogger: 858835031 messageToClient={"words":"once shown","intent":"museum"}
2017-05-27T01:15:06.080552+00:00 app[web.1]: MESSAGE:   {"id":858835031,"msg":{"transc":"once shown under"}}
2017-05-27T01:15:06.080630+00:00 app[web.1]: INFO  InteractionLogger: 858835031 messageFromClient={"transc":"once shown under"}
2017-05-27T01:15:06.080856+00:00 app[web.1]: [REVOKE(1571, NaN	NaN	on progress: null), ADD(1588, NaN	NaN	under progress: null)]
2017-05-27T01:15:06.085403+00:00 app[web.1]: INFO  TreeModule: offerExpansion(confirm,)
2017-05-27T01:15:06.081207+00:00 app[web.1]: CURRENT WORD ADD: under
2017-05-27T01:15:06.085528+00:00 app[web.1]: INFO  InteractionLogger: 858835031 messageToClient={"depth":4,"iden":"","children":[{"iden":"museum","children":[{"iden":"price","level":"red","children":[{"iden":"high","level":"steelblue","name":"high","type":"steelblue"},{"iden":"low","level":"steelblue","name":"low","type":"steelblue"},{"iden":"medium","level":"steelblue","name":"medium","type":"steelblue"}],"name":"price","type":"red"}],"name":"museum"}],"name":""}
2017-05-27T01:15:06.085399+00:00 app[web.1]: INFO  TreeModule: offerConfirmation(confirm,no)
2017-05-27T01:15:06.085448+00:00 app[web.1]: INFO  TreeModule: offerExpansion(price,)
2017-05-27T01:15:06.085785+00:00 app[web.1]: INFO  InteractionLogger: 858835031 messageToClient={"words":"once shown on","intent":"museum"}
2017-05-27T01:15:06.089842+00:00 app[web.1]: INFO  InteractionLogger: 858835031 messageToClient={"depth":4,"iden":"","children":[{"iden":"museum","children":[{"iden":"price","children":[{"iden":"high","level":"steelblue","name":"high","type":"steelblue"},{"iden":"low","level":"steelblue","name":"low","type":"steelblue"},{"iden":"medium","level":"steelblue","name":"medium","type":"steelblue"}],"name":"price"}],"name":"museum"}],"name":""}
2017-05-27T01:15:06.090063+00:00 app[web.1]: INFO  InteractionLogger: 858835031 messageToClient={"words":"once shown on","intent":"museum"}
2017-05-27T01:15:06.090233+00:00 app[web.1]: INFO  InteractionLogger: 858835031 messageToClient={"depth":4,"iden":"","children":[{"iden":"museum","children":[{"iden":"price","level":"red","children":[{"iden":"high","level":"steelblue","name":"high","type":"steelblue"},{"iden":"low","level":"steelblue","name":"low","type":"steelblue"},{"iden":"medium","level":"steelblue","name":"medium","type":"steelblue"}],"name":"price","type":"red"}],"name":"museum"}],"name":""}
2017-05-27T01:15:06.091237+00:00 app[web.1]: INFO  InteractionLogger: 858835031 messageToClient={"depth":4,"iden":"","children":[{"iden":"museum","children":[{"iden":"price","level":"red","children":[{"iden":"high","level":"steelblue","name":"high","type":"steelblue"},{"iden":"low","level":"steelblue","name":"low","type":"steelblue"},{"iden":"medium","level":"steelblue","name":"medium","type":"steelblue"}],"name":"price","type":"red"}],"name":"museum"}],"name":""}
2017-05-27T01:15:06.090376+00:00 app[web.1]: INFO  InteractionLogger: 858835031 messageToClient={"words":"once shown on","intent":"museum"}
2017-05-27T01:15:06.091159+00:00 app[web.1]: INFO  TreeModule: expandIntent(intent,price)
2017-05-27T01:15:06.091546+00:00 app[web.1]: INFO  InteractionLogger: 858835031 messageToClient={"depth":4,"iden":"","children":[{"iden":"museum","children":[{"iden":"price","level":"red","children":[{"iden":"high","level":"steelblue","name":"high","type":"steelblue"},{"iden":"low","level":"steelblue","name":"low","type":"steelblue"},{"iden":"medium","level":"steelblue","name":"medium","type":"steelblue"}],"name":"price","type":"red"}],"name":"museum"}],"name":""}
2017-05-27T01:15:06.091177+00:00 app[web.1]: INFO  TreeModule: offerExpansion(price,)
2017-05-27T01:15:06.091388+00:00 app[web.1]: INFO  InteractionLogger: 858835031 messageToClient={"words":"once shown on","intent":"museum"}
2017-05-27T01:15:06.091691+00:00 app[web.1]: INFO  InteractionLogger: 858835031 messageToClient={"words":"once shown under","intent":"museum"}
2017-05-27T01:15:11.476076+00:00 app[web.1]: MESSAGE:   {"id":858835031,"msg":{"transc":"when's the"}}
2017-05-27T01:15:11.476450+00:00 app[web.1]: [REVOKE(1588, NaN	NaN	under progress: null), REVOKE(1587, NaN	NaN	shown progress: null), REVOKE(1586, NaN	NaN	once progress: null), ADD(1603, NaN	NaN	when's progress: null), ADD(1604, NaN	NaN	the progress: null)]
2017-05-27T01:15:11.476206+00:00 app[web.1]: INFO  InteractionLogger: 858835031 messageFromClient={"transc":"when's the"}
2017-05-27T01:15:11.477340+00:00 app[web.1]: CURRENT WORD ADD: when's
2017-05-27T01:15:11.480017+00:00 app[web.1]: CURRENT WORD ADD: the
2017-05-27T01:15:11.484074+00:00 app[web.1]: INFO  TreeModule: offerConfirmation(confirm,no)
2017-05-27T01:15:11.484119+00:00 app[web.1]: INFO  TreeModule: offerExpansion(confirm,)
2017-05-27T01:15:11.484175+00:00 app[web.1]: INFO  TreeModule: offerExpansion(price,)
2017-05-27T01:15:11.484245+00:00 app[web.1]: INFO  InteractionLogger: 858835031 messageToClient={"depth":4,"iden":"","children":[{"iden":"museum","children":[{"iden":"price","level":"red","children":[{"iden":"high","level":"steelblue","name":"high","type":"steelblue"},{"iden":"low","level":"steelblue","name":"low","type":"steelblue"},{"iden":"medium","level":"steelblue","name":"medium","type":"steelblue"}],"name":"price","type":"red"}],"name":"museum"}],"name":""}
2017-05-27T01:15:11.484538+00:00 app[web.1]: INFO  InteractionLogger: 858835031 messageToClient={"words":"once shown under","intent":"museum"}
2017-05-27T01:15:11.485704+00:00 app[web.1]: INFO  TreeModule: offerConfirmation(price,low)
2017-05-27T01:15:11.485708+00:00 app[web.1]: INFO  TreeModule: offerExpansion(price,)
2017-05-27T01:15:11.485749+00:00 app[web.1]: INFO  TreeModule: offerExpansion(price,)
2017-05-27T01:15:11.485800+00:00 app[web.1]: INFO  InteractionLogger: 858835031 messageToClient={"depth":4,"iden":"","children":[{"iden":"museum","children":[{"iden":"price","level":"red","children":[{"iden":"low?","level":"red","name":"low?","type":"red"},{"iden":"high","level":"steelblue","name":"high","type":"steelblue"},{"iden":"medium","level":"steelblue","name":"medium","type":"steelblue"}],"name":"price","type":"red"}],"name":"museum"}],"name":""}
2017-05-27T01:15:11.485962+00:00 app[web.1]: INFO  InteractionLogger: 858835031 messageToClient={"words":"once shown under","intent":"museum"}
2017-05-27T01:15:11.486746+00:00 app[web.1]: INFO  TreeModule: expandIntent(intent,price)
2017-05-27T01:15:11.487214+00:00 app[web.1]: INFO  TreeModule: offerExpansion(price,)
2017-05-27T01:15:11.487257+00:00 app[web.1]: INFO  TreeModule: offerExpansion(price,)
2017-05-27T01:15:11.487343+00:00 app[web.1]: INFO  InteractionLogger: 858835031 messageToClient={"depth":4,"iden":"","children":[{"iden":"museum","children":[{"iden":"price","level":"red","children":[{"iden":"low?","level":"red","name":"low?","type":"red"},{"iden":"high","level":"steelblue","name":"high","type":"steelblue"},{"iden":"medium","level":"steelblue","name":"medium","type":"steelblue"}],"name":"price","type":"red"}],"name":"museum"}],"name":""}
2017-05-27T01:15:11.487757+00:00 app[web.1]: INFO  InteractionLogger: 858835031 messageToClient={"depth":4,"iden":"","children":[{"iden":"museum","children":[{"iden":"price","level":"red","children":[{"iden":"low?","level":"red","name":"low?","type":"red"},{"iden":"high","level":"steelblue","name":"high","type":"steelblue"},{"iden":"medium","level":"steelblue","name":"medium","type":"steelblue"}],"name":"price","type":"red"}],"name":"museum"}],"name":""}
2017-05-27T01:15:11.487508+00:00 app[web.1]: INFO  InteractionLogger: 858835031 messageToClient={"words":"once shown under","intent":"museum"}
2017-05-27T01:15:11.487952+00:00 app[web.1]: INFO  InteractionLogger: 858835031 messageToClient={"words":"when's the","intent":"museum"}
2017-05-27T01:15:11.937729+00:00 app[web.1]: MESSAGE:   {"id":858835031,"msg":{"transc":"when's the"}}
2017-05-27T01:15:11.937807+00:00 app[web.1]: INFO  InteractionLogger: 858835031 messageFromClient={"transc":"when's the"}
2017-05-27T01:15:11.937903+00:00 app[web.1]: []
2017-05-27T01:16:06.936173+00:00 heroku[router]: at=error code=H15 desc="Idle connection" method=GET path="/" host=ambroisea1.herokuapp.com request_id=3f77eab6-9a07-4e0a-b7c6-6518849844c5 fwd="132.178.54.2" dyno=web.1 connect=0ms service=90797ms status=503 bytes= protocol=https
2017-05-27T01:16:06.939973+00:00 app[web.1]: Close: statusCode=1006, reason=WebSocket Read EOF
2017-05-27T01:50:18.752071+00:00 heroku[web.1]: Idling
2017-05-27T01:50:18.752697+00:00 heroku[web.1]: State changed from up to down
2017-05-27T01:50:19.760346+00:00 heroku[web.1]: Stopping all processes with SIGTERM
2017-05-27T01:50:20.289625+00:00 heroku[web.1]: Process exited with status 143
