2017-05-26T02:29:17.548447+00:00 heroku[web.1]: Idling
2017-05-26T02:29:17.548982+00:00 heroku[web.1]: State changed from up to down
2017-05-26T02:29:18.184809+00:00 heroku[web.1]: Stopping all processes with SIGTERM
2017-05-26T02:29:18.646449+00:00 heroku[web.1]: Process exited with status 143
2017-05-26T02:29:51.143466+00:00 heroku[web.1]: Unidling
2017-05-26T02:29:51.143759+00:00 heroku[web.1]: State changed from down to starting
2017-05-26T02:30:02.231329+00:00 heroku[web.1]: Starting process with command `java -Dserver.port=46832 $JAVA_OPTS -jar build/libs/*.jar`
2017-05-26T02:30:04.076408+00:00 app[web.1]: Setting JAVA_TOOL_OPTIONS defaults based on dyno size. Custom settings will override them.
2017-05-26T02:30:04.079738+00:00 app[web.1]: Picked up JAVA_TOOL_OPTIONS: -Xmx350m -Xss512k -Dfile.encoding=UTF-8
2017-05-26T02:30:04.253057+00:00 app[web.1]: INFO  log: Logging initialized @167ms
2017-05-26T02:30:04.320899+00:00 app[web.1]: INFO  Server: jetty-9.3.z-SNAPSHOT
2017-05-26T02:30:04.378379+00:00 app[web.1]: INFO  ServerConnector: Started ServerConnector@70e68a58{HTTP/1.1,[http/1.1]}{0.0.0.0:46832}
2017-05-26T02:30:04.378577+00:00 app[web.1]: INFO  Server: Started @299ms
2017-05-26T02:30:05.992702+00:00 heroku[web.1]: State changed from starting to up
2017-05-26T02:30:07.216396+00:00 heroku[router]: at=info method=GET path="/" host=ambroisea1.herokuapp.com request_id=44a687f3-bd95-4bc0-9600-3b9aae900ca5 fwd="96.18.214.247" dyno=web.1 connect=0ms service=19ms status=200 bytes=17581 protocol=http
2017-05-26T02:30:07.419881+00:00 heroku[router]: at=info method=GET path="/static/js/recorder.js" host=ambroisea1.herokuapp.com request_id=f635dd2f-34a6-47a1-8942-c392ea2e6d5a fwd="96.18.214.247" dyno=web.1 connect=0ms service=2ms status=200 bytes=2536 protocol=http
2017-05-26T02:30:07.419462+00:00 heroku[router]: at=info method=GET path="/static/js/tree.js" host=ambroisea1.herokuapp.com request_id=cb9e7cd5-cfab-49ef-93bc-6a272f743170 fwd="96.18.214.247" dyno=web.1 connect=0ms service=2ms status=200 bytes=4376 protocol=http
2017-05-26T02:30:08.195367+00:00 app[web.1]: INFO  TedAdapter: Cannot connect to TEDview. I will not retry.
2017-05-26T02:30:08.012572+00:00 app[web.1]: INFO  InteractionLogger: 217425929 NEW CONNECTION
2017-05-26T02:30:08.012622+00:00 app[web.1]: INFO  InteractionLogger: 217425929 vid=1
2017-05-26T02:30:08.351479+00:00 app[web.1]: INFO  TedAdapter: Cannot connect to TEDview. I will not retry.
2017-05-26T02:30:08.351784+00:00 app[web.1]: INFO  TedAdapter: Cannot connect to TEDview. I will not retry.
2017-05-26T02:30:08.372231+00:00 app[web.1]: INFO  TedAdapter: Cannot connect to TEDview. I will not retry.
2017-05-26T02:30:08.419070+00:00 app[web.1]: CURRENT INTENT root
2017-05-26T02:30:08.438659+00:00 app[web.1]: INFO  InteractionLogger: 217425929 messageToClient={"depth":3,"iden":"","level":"red","children":[{"iden":"art_gallery","level":"steelblue","name":"art_gallery","type":"steelblue"},{"iden":"bar","level":"steelblue","name":"bar","type":"steelblue"},{"iden":"bus_station","level":"steelblue","name":"bus_station","type":"steelblue"},{"iden":"museum","level":"steelblue","name":"museum","type":"steelblue"},{"iden":"parking","level":"steelblue","name":"parking","type":"steelblue"},{"iden":"restaurant","level":"steelblue","name":"restaurant","type":"steelblue"}],"name":"","type":"red"}
2017-05-26T02:30:08.446121+00:00 app[web.1]: INFO  InteractionLogger: 217425929 messageToClient={"words":""}
2017-05-26T02:30:08.972609+00:00 heroku[router]: at=info method=GET path="/favicon.ico" host=ambroisea1.herokuapp.com request_id=94b77784-932d-4969-ab18-25902857f9ea fwd="96.18.214.247" dyno=web.1 connect=0ms service=5ms status=404 bytes=554 protocol=http
2017-05-26T02:30:08.899859+00:00 app[web.1]: SAAAAQQTTrnWHPt803IdseMA2pp1NrAFoU8fEu4xoncLCJizUy1dCaCXFGkY7cnyKyRJH8hgRrUUBi8iTWLxhmZVeWhYrTwmYp_F1Ao5JBD19QhzfWhVUifKFydGGfvbglyrxEhCxjes87QGmlx5fEVogb279GhT8yyZvACuaBTfcLI33TqbdexEU_g","scope":"GOOGLE","types":["bus_station","transit_station","point_of_interest","establishment"],"vicinity":"United States","html_attributions":[]},{"geometry":{"location":{"lat":43.6146068,"lng":-116.19901920000001},"viewport":{"south":43.6132578197085,"west":-116.20036818029149,"north":43.6159557802915,"east":-116.19767021970847}},"icon":"https://maps.gstatic.com/mapfiles/place_api/icons/bus-71.png","id":"3cc63dc61b1d9144145686b1850d67e4ae2d6fc5","name":"Idaho & 5th","place_id":"ChIJRW0psvz4rlQRcR64SIFgHKI","reference":"CmRSAAAAQu6A1wCNVTs9Ilv4xDqdE_cWUyscU34ujUaNNyGpKVkrvXIIYiEsskBBd1Bcla3EzRAcBeabd4vLjYGu1niQ25TE50qXJhqV-g0S1fnBH7cUk8tkVObAXGJe87vIXF0FEhAQ4hoE1tqM_Rbn_-fTWVJpGhQBRKMUJaCVWkHQHTwa-johVkNnZg","scope":"GOOGLE","types":["bus_station","transit_station","point_of_interest","establishment"],"vicinity":"United States","html_attributions":[]},{"geometry":{"location":{"lat":43.6173825,"lng":-116.20718469999997},"viewport":{"south":43.61603351970849,"west":-116.20853368029151,"north":43.61873148029149,"east":-116.20583571970849}},"icon":"https://maps.gstatic.com/mapfiles/place_api/icons/bus-71.png","id":"d0458a39dc47dd13e5386d08f44bb25063dd564b","name":"Main & 11th","place_id":"ChIJTbzk0-X4rlQRDKRQ49Oc9ys","reference":"CmRRAAAAiImabqfDoFnHB9o1SnsEgE-mdQyomiA90CfdY4oEaZF7kYSaulfHH6v6IRFXmnERe2EQ0uTMTYVirex4wT0lPcNKOfNBdNV3PZ-c_m7iMakIT42SmcAXaKi_4WfYaigLEhDYtHPFSoJAuA2AD5vZMJfcGhTFUCZZxF_ZB8aQRbEGOxe5oLlbPQ","scope":"GOOGLE","types":["bus_station","transit_station","point_of_interest","establishment"],"vicinity":"United States","html_attributions":[]},{"geometry":{"location":{"lat":43.6178789,"lng":-116.2011488},"viewport":{"south":43.6165299197085,"west":-116.20249778029148,"north":43.6192278802915,"east":-116.19979981970852}},"icon":"https://maps.gstatic.com/mapfiles/place_api/icons/bus-71.png","id":"9e98929efa343aa594618d43fe1fba8281a0e185","name":"Jefferson & 8th","place_id":"ChIJuxM4v-P4rlQRBlpLxu-pdes","reference":"CmRSAAAAQp1A2qSRRKJLWdBsSYPzDxTtBuH1v2d5c6NyJI5OxD4yicS-3YWebnddhP5sQegyf5zrvCScJDKlfnjL4jlvbkeFaY0VtncVSjwFowgKV6VEPvXtbE1aViRLVYyyLaGbEhDjNBrRNUvjRBXbKQUNQ1esGhTaC7kVDI3cDydhc7RyoI-KIYZ0Lg","scope":"GOOGLE","types":["bus_station","transit_station","point_of_interest","establishment"],"vicinity":"United States","html_attributions":[]},{"geometry":{"location":{"lat":43.6105434,"lng":-116.20645309999998},"viewport":{"south":43.60919441970851,"west":-116.20780208029151,"north":43.6118923802915,"east":-116.2051041197085}},"icon":"https://maps.gstatic.com/mapfiles/place_api/icons/bus-71.png","id":"9e679f3069195b4c3921ba15d02aafb63c0e7b38","name":"Capitol & River","place_id":"ChIJZ9J_-fD4rlQRkm2h_oUOmvw","reference":"CmRSAAAA-92FzxcFtw3ogPOjaWh1YRduWWXfRlcV4EhNnPCBrkDj8ft2RtYS_yYOseImMbRGLDbu9_Vqo0TgMNkDeoxpOG6K581egB-UNqYGEMMS4S7iexrSHw0UEdKZE051z66sEhD6zvKog6m36QzjiXI0Jn30GhQcrl1R5wvJrbnmBXvvHVPgwgkRfg","scope":"GOOGLE","types":["bus_station","transit_station","point_of_interest","establishment"],"vicinity":"United States","html_attributions":[]},{"geometry":{"location":{"lat":43.618412,"lng":-116.2065518},"viewport":{"south":43.6170630197085,"west":-116.20790078029148,"north":43.6197609802915,"east":-116.20520281970852}},"icon":"https://maps.gstatic.com/mapfiles/place_api/icons/bus-71.png","id":"534329da0e3ade9cdf1f13ce3f2eb1e76e2daf99","name":"Idaho & 11th","place_id":"ChIJa0HIm-b4rlQRsqMfwyKKe9s","reference":"CmRSAAAAlf1jBYOj78RrH__TPXEBMScVQeSOeZnRfsClwWk2lKQMSNcKPFrClzhOnawFoD1h-M-tRdnqZLsqwZZzb83qNALMXUWL9vXnSoYSBYpiq9n3hLgr1tHL7mRxn8_0NXpjEhDMqfaw5HbiH_gXpIiMAl4SGhTL2qZmJ_olwPlU0Wpve901L9LSQQ","scope":"GOOGLE","types":["bus_station","transit_station","point_of_interest","establishment"],"vicinity":"United States","html_attributions":[]}]}}
2017-05-26T02:30:08.914313+00:00 app[web.1]: -71.png","name":"9th & Bannock","html_attributions":[],"geometry":{"viewport":{"east":-116.2018902197085,"south":43.6164680197085,"north":43.6191659802915,"west":-116.20458818029147},"location":{"lng":-116.20323919999998,"lat":43.617817}},"vicinity":"United States","id":"392329dc3d449d0d63c77eeeed7398ea81226172","place_id":"ChIJx1MM9uP4rlQRoKidHnJyp-w"},{"reference":"CmRSAAAAQu6A1wCNVTs9Ilv4xDqdE_cWUyscU34ujUaNNyGpKVkrvXIIYiEsskBBd1Bcla3EzRAcBeabd4vLjYGu1niQ25TE50qXJhqV-g0S1fnBH7cUk8tkVObAXGJe87vIXF0FEhAQ4hoE1tqM_Rbn_-fTWVJpGhQBRKMUJaCVWkHQHTwa-johVkNnZg","types":["bus_station","transit_station","point_of_interest","establishment"],"scope":"GOOGLE","icon":"https://maps.gstatic.com/mapfiles/place_api/icons/bus-71.png","name":"Idaho & 5th","html_attributions":[],"geometry":{"viewport":{"east":-116.19767021970847,"south":43.6132578197085,"north":43.6159557802915,"west":-116.20036818029149},"location":{"lng":-116.19901920000001,"lat":43.6146068}},"vicinity":"United States","id":"3cc63dc61b1d9144145686b1850d67e4ae2d6fc5","place_id":"ChIJRW0psvz4rlQRcR64SIFgHKI"},{"reference":"CmRRAAAAiImabqfDoFnHB9o1SnsEgE-mdQyomiA90CfdY4oEaZF7kYSaulfHH6v6IRFXmnERe2EQ0uTMTYVirex4wT0lPcNKOfNBdNV3PZ-c_m7iMakIT42SmcAXaKi_4WfYaigLEhDYtHPFSoJAuA2AD5vZMJfcGhTFUCZZxF_ZB8aQRbEGOxe5oLlbPQ","types":["bus_station","transit_station","point_of_interest","establishment"],"scope":"GOOGLE","icon":"https://maps.gstatic.com/mapfiles/place_api/icons/bus-71.png","name":"Main & 11th","html_attributions":[],"geometry":{"viewport":{"east":-116.20583571970849,"south":43.61603351970849,"north":43.61873148029149,"west":-116.20853368029151},"location":{"lng":-116.20718469999997,"lat":43.6173825}},"vicinity":"United States","id":"d0458a39dc47dd13e5386d08f44bb25063dd564b","place_id":"ChIJTbzk0-X4rlQRDKRQ49Oc9ys"},{"reference":"CmRSAAAAQp1A2qSRRKJLWdBsSYPzDxTtBuH1v2d5c6NyJI5OxD4yicS-3YWebnddhP5sQegyf5zrvCScJDKlfnjL4jlvbkeFaY0VtncVSjwFowgKV6VEPvXtbE1aViRLVYyyLaGbEhDjNBrRNUvjRBXbKQUNQ1esGhTaC7kVDI3cDydhc7RyoI-KIYZ0Lg","types":["bus_station","transit_station","point_of_interest","establishment"],"scope":"GOOGLE","icon":"https://maps.gstatic.com/mapfiles/place_api/icons/bus-71.png","name":"Jefferson & 8th","html_attributions":[],"geometry":{"viewport":{"east":-116.19979981970852,"south":43.6165299197085,"north":43.6192278802915,"west":-116.20249778029148},"location":{"lng":-116.2011488,"lat":43.6178789}},"vicinity":"United States","id":"9e98929efa343aa594618d43fe1fba8281a0e185","place_id":"ChIJuxM4v-P4rlQRBlpLxu-pdes"},{"reference":"CmRSAAAA-92FzxcFtw3ogPOjaWh1YRduWWXfRlcV4EhNnPCBrkDj8ft2RtYS_yYOseImMbRGLDbu9_Vqo0TgMNkDeoxpOG6K581egB-UNqYGEMMS4S7iexrSHw0UEdKZE051z66sEhD6zvKog6m36QzjiXI0Jn30GhQcrl1R5wvJrbnmBXvvHVPgwgkRfg","types":["bus_station","transit_station","point_of_interest","establishment"],"scope":"GOOGLE","icon":"https://maps.gstatic.com/mapfiles/place_api/icons/bus-71.png","name":"Capitol & River","html_attributions":[],"geometry":{"viewport":{"east":-116.2051041197085,"south":43.60919441970851,"north":43.6118923802915,"west":-116.20780208029151},"location":{"lng":-116.20645309999998,"lat":43.6105434}},"vicinity":"United States","id":"9e679f3069195b4c3921ba15d02aafb63c0e7b38","place_id":"ChIJZ9J_-fD4rlQRkm2h_oUOmvw"},{"reference":"CmRSAAAAlf1jBYOj78RrH__TPXEBMScVQeSOeZnRfsClwWk2lKQMSNcKPFrClzhOnawFoD1h-M-tRdnqZLsqwZZzb83qNALMXUWL9vXnSoYSBYpiq9n3hLgr1tHL7mRxn8_0NXpjEhDMqfaw5HbiH_gXpIiMAl4SGhTL2qZmJ_olwPlU0Wpve901L9LSQQ","types":["bus_station","transit_station","point_of_interest","establishment"],"scope":"GOOGLE","icon":"https://maps.gstatic.com/mapfiles/place_api/icons/bus-71.png","name":"Idaho & 11th","html_attributions":[],"geometry":{"viewport":{"east":-116.20520281970852,"south":43.6170630197085,"north":43.6197609802915,"west":-116.20790078029148},"location":{"lng":-116.2065518,"lat":43.618412}},"vicinity":"United States","id":"534329da0e3ade9cdf1f13ce3f2eb1e76e2daf99","place_id":"ChIJa0HIm-b4rlQRsqMfwyKKe9s"}]}
2017-05-26T02:30:08.914313+00:00 app[web.1]: INFO  InteractionLogger: 217425929 messageFromClient={"initConcepts":[{"reference":"CmRRAAAA474EOQGsy1ZzutuM3BF0Xh3IvKwl-lWAK3O5uSoffqdS6lCmdJRtC5sIDGLZntMGPTXaCOkjAnWfXS97ykKyHvtyZ_GpRyFJcPMtiG-unEyTEE9CGvIPpB0gAe2WSnU0EhAncxgJr8h6kdHrqATCDIyBGhQagRxHUyypzATbCAto9JZ1uJQ4yg","types":["bus_station","transit_station","point_of_interest","establishment"],"scope":"GOOGLE","icon":"https://maps.gstatic.com/mapfiles/place_api/icons/bus-71.png","name":"Capitol & Front","html_attributions":[],"geometry":{"viewport":{"east":-116.2023892197085,"south":43.61200991970851,"north":43.6147078802915,"west":-116.20508718029151},"location":{"lng":-116.20373819999998,"lat":43.61335890000001}},"vicinity":"United States","id":"a909ebb7570ffd6aa6adc0f48358f40e968436b7","place_id":"ChIJLxwgzvr4rlQRpqDI2HCrPxU"},{"reference":"CmRSAAAAXOneEn_8Jigch-pQ18ONUApnBgMMUeqYlWIrJgc154ettEMKO9HGLmZOduF1AMgQ9qQbO8sFMjE2A7UfIZKUNA7NTInIbGeoydvt7hzG7hcdXh9xAjBNhW74quYUrPvyEhAMsELm-MsIXC05Q0DZsgz1GhQiSNunXqsnb_XRex-jQgKBp65Nyg","types":["bus_station","transit_station","point_of_interest","establishment"],"scope":"GOOGLE","icon":"https://maps.gstatic.com/mapfiles/place_api/icons/bus-71.png","name":"Zone 3 Main & 8th","html_attributions":[],"geometry":{"viewport":{"east":-116.20172161970851,"south":43.61395691970849,"north":43.61665488029149,"west":-116.20441958029153},"location":{"lng":-116.20307059999999,"lat":43.6153059}},"vicinity":"United States","id":"0587e83f0aee4a9dc98aea6635c342c6019bc32a","place_id":"ChIJKRel6-T4rlQRldwcUF1-KvU"},{"reference":"CmRSAAAAV4M67m7s2BQQD2sN6Dy33tg013R11yUfCARZLCbK065QtwPT1BqnDzkXx3LjSEe1qXvPFDW-gOWBGnQsJdCUH03kM491SDx5JbNhdFmFr8b9l_98ZnOU2MQdFL9GCOdTEhBDfk4btqozwrTQWLHmOM-tGhQdRhWW2RWlehvuHRPP1rqzTuzsyg","types":["bus_station","transit_station","point_of_interest","establishment"],"scope":"GOOGLE","icon":"https://maps.gstatic.com/mapfiles/place_api/icons/bus-71.png","name":"Main Street Station","rating":3.3,"html_attributions":[],"geometry":{"viewport":{"east":-116.20149021970849,"south":43.6138624197085,"north":43.6165603802915,"west":-116.20418818029151},"location":{"lng":-116.20283919999997,"lat":43.6152114}},"vicinity":"United States","id":"67db16eba229eecf669a657cbb50ef82f8176ac5","photos":[{"width":2554,"html_attributions":["<a href=\"https://maps.google.com/maps/contrib/112554802017139705501/photos\">Jose Perez<\/a>"],"height":1198}],"place_id":"ChIJ8caI6OT4rlQR8sIM2qkvhpY"},{"reference":"CmRRAAAAqFFJuxdPcBvAJcWCPEJKmvlsyHlPD2mgjsmJza-UrfIlHHlukgO0GtmHKCEz4HZY0TUX7OxeFQbAbQHKPiL4eME1SpCPvRVvFB1cYjAmK6k005uDksMKUdyNVaueid6rEhCd2fFplKa6S20d8AF2LbfLGhTwVr6mQo0-jR9RQhm_bX40oMEFTQ","types":["bus_station","transit_station","point_of_interest","establishment"],"scope":"GOOGLE","icon":"https://maps.gstatic.com/mapfiles/place_api/icons/bus-71.png","name":"Main & 8th","html_attributions":[],"geometry":{"viewport":{"east":-116.20268641970847,"south":43.6144387197085,"north":43.61713668029149,"west":-116.20538438029149},"location":{"lng":-116.20403540000001,"lat":43.6157877}},"vicinity":"United States","id":"e1819ed120c39c0664632ecdcdf65fbcb3522557","place_id":"ChIJ84Qy9-T4rlQRoeyaW6vfdHs"},{"reference":"CmRSAAAAQM3qmGOC5hpJQgChs1jmR99VBYKmH8znJr6Pr9G9qQHmvl3qJzK9pxJJyRdu3Yvd9ZM_FxszO8GcYt7oSo1TqW0M0mSXk6XM5i3sigxw6MwUYKByMqPK8fYuY0S9IZU-EhDvFKlEC3yt4ZinQyO81YPZGhTn4k-7va0un1m3RaqiRmK2Z_zFhQ","types":["bus_station","transit_station","point_of_interest","establishment"],"scope":"GOOGLE","icon":"https://maps.gstatic.com/mapfiles/place_api/icons/bus-71.png","name":"Front & 9th","html_attributions":[],"geometry":{"viewport":{"east":-116.20451041970853,"south":43.6133451197085,"north":43.6160430802915,"west":-116.20720838029149},"location":{"lng":-116.20585940000001,"lat":43.6146941}},"vicinity":"United States","id":"ef5151da1806f4384cdb5d88d9c269a873563eb1","place_id":"ChIJufKZFOX4rlQRY4rp-CZfuNE"},{"reference":"CmRSAAAA0L4h1mc_DCYEdh7MdAnqxRKjvVZWo3NeeCs1qzBF4JQzq7yYJCxx-N8K6C1xTB27T4cc4dBzvmKI-fX-tGddbe1Ipw1z5ekvnGZ1q_C7kB0Nc-mYQLju9p3ICzWf-cEQEhCEVfmV2gW4pd6kWILzDBa_GhQn5nmP9JQyA3kEyZil0Nth9sOwLg","types":["bus_station","transit_station","point_of_interest","establishment"],"scope":"GOOGLE","icon":"https://maps.gstatic.com/mapfiles/place_api/icons/bus-71.png","name":"9th & Grove","html_attributions":[],"geometry":{"viewport":{"east":-116.20424751970847,"south":43.6140713197085,"north":43.61676928029149,"west":-116.2069454802915},"location":{"lng":-116.20559650000001,"lat":43.6154203}},"vicinity":"United States","id":"3785b675451fb4c34b7971c1090932ef819d49b7","place_id":"ChIJ6-dwBuX4rlQRyb5APgaNAaw"},{"reference":"CmRSAAAARHbOvPBTO2vZM-YeedaxvmiM89Ou1Z8BPDP2bIO1xNMmoafhEQroK9F-ZTPZJggKECt3bpZ7_Ypj1neEd4TNU157h3HWd-I3x0-_O7pgU3W0edw7oH1i37znJwBIO6m0EhBDP6kcVwVRT4fgczNpyPnVGhRyjh0wWvokNr-2Dlp-XPGAfrKIBQ","types":["bus_station","transit_station","point_of_interest","establishment"],"scope":"GOOGLE","icon":"https://maps.gstatic.com/mapfiles/place_api/icons/bus-71.png","name":"Intercounty Zone, Main & 9th","html_attributions":[],"geometry":{"viewport":{"east":-116.2035309197085,"south":43.61485491970849,"north":43.61755288029149,"west":-116.20622888029152},"location":{"lng":-116.20487989999998,"lat":43.61620389999999}},"vicinity":"United States","id":"540f909a2a20c59fb48aef2baf68647be95c552b","place_id":"ChIJ7wQpUeT4rlQRMAQwLxmFlsI"},{"reference":"CmRSAAAABsHSN5oOV5BL-MKAG6983yXfIx2kcTv-cAkaMhpKyohNOp92lO75ejPamX-yfF5ETaYS3OMKrdovS0CDXPmMwkvUx5FvVBCFQbFcC2OZdMFFHLpMLQA0pNfAzrrBhLodEhB6CdY4tQUkwBIHkq0sCPOqGhQWrxyhtWjlrR_FzrSrcUvacjxpEg","types":["bus_station","transit_station","point_of_interest","establishment"],"scope":"GOOGLE","icon":"https://maps.gstatic.com/mapfiles/place_api/icons/bus-71.png","name":"Intercounty Zone Idaho & 8th","html_attributions":[],"geometry":{"viewport":{"east":-116.20156751970853,"south":43.61523971970851,"north":43.6179376802915,"west":-116.2042654802915},"location":{"lng":-116.20291650000001,"lat":43.6165887}},"vicinity":"United States","id":"e9aeb7da3880076df1d2778c950e35edcbac82a2","place_id":"ChIJQfbqfOT4rlQRkwvGpuszW5Y"},{"reference":"CmRSAAAAHQon5aVq10hzkP6dpWh2cv4MpEcFJsTyKFHSUkWWWG6kZ2OcvrJR6wdwtjnIjoNy3oRMy5OGpttWtH-TCISkWrm-nYKFJ_pJS2D6Or6KNQG8t7scm5furdqI_CorqzY2EhD9hpdjmh5DqPdun7nbcG2xGhTMorIduP-9tXyTuZ9g9gJW3xqF6Q","types":["bus_station","transit_station","point_of_interest","establishment"],"scope":"GOOGLE","icon":"https://maps.gstatic.com/mapfiles/place_api/icons/bus-71.png","name":"Idaho & Capitol","html_attributions":[],"geometry":{"viewport":{"east":-116.19999381970848,"south":43.6144348197085,"north":43.6171327802915,"west":-116.2026917802915},"location":{"lng":-116.20134280000002,"lat":43.6157838}},"vicinity":"United States","id":"961b798e1a0f5e0d07975b10914003c3d1e95f40","place_id":"ChIJmRIKneT4rlQRCKdgwJySpso"},{"reference":"CmRSAAAA62O8go0aGIEyi8k77gZBZEooOqVoZSnRfarGLb-VS2yMazB64srKDjlrhB5y3okApIKs0y55mjU5svw4UQ4w-jiMgEu19CN73bZLgnTh9OryNabE0aclG5Wq0n0YmZJfEhArjLPtsT-DhbkLpIdZBOgvGhR8PyZeJM_XHE7p9oK0f2mkuIs4iQ","types":["bus_station","transit_station","point_of_interest","establishment"],"scope":"GOOGLE","icon":"https://maps.gstatic.com/mapfiles/place_api/icons/bus-71.png","name":"Idaho & 9th","html_attributions":[],"geometry":{"viewport":{"east":-116.20273541970852,"south":43.6158095197085,"north":43.61850748029149,"west":-116.20543338029148},"location":{"lng":-116.2040844,"lat":43.6171585}},"vicinity":"United States","id":"7223e3d1285721f958a6df354f8de2ee4b8b5488","place_id":"ChIJX_yEbOT4rlQRbrKsQ3rxp_8"},{"reference":"CmRSAAAATKpLYi6HdFLHt4nOr2nO_Pumq_y6eG5Ax682wzthH9YoSd5leUGP9cJJRzSCTtcyhL7XrGtnM-HZxbHghiuy-OAdFVYgi8BoNjoHOa_V5J6epfmyZ4HlSxK2ykkVeut2EhAgSwqWPQ262G-7Z25mmujWGhSkhCPrfVLFcqsOyWz7CYenzwZcbg","types":["bus_station","transit_station","point_of_interest","establishment"],"scope":"GOOGLE","icon":"https://maps.gstatic.com/mapfiles/place_api/icons/bus-71.png","name":"Main & 5th","html_attributions":[],"geometry":{"viewport":{"east":-116.19884981970847,"south":43.6124960197085,"north":43.61519398029149,"west":-116.20154778029149},"location":{"lng":-116.20019880000001,"lat":43.613845}},"vicinity":"United States","id":"823c2ffb1dc31f4dfb417a5b3b91911ef8249ca0","place_id":"ChIJfeCcW_v4rlQRI6s4aE4Ke-g"},{"reference":"CmRRAAAAjLoY_9ZF898w7lZFBVwFEFm1ZN6QTEYd1zV_yU85wfrV2z4ooVwUV3JrcISv56ddmbUKEhMyBc2HJK0KBdKd-j14WYsoFWWmhns1tH8Bu0Q-Lm_hHzqPFRr7qNC48_w7EhAS2IKzIAKzGmPnjTbux0ccGhR4A-AP2dmsz1OH_rm6riV0lgGGQw","types":["bus_station","transit_station","point_of_interest","establishment"],"scope":"GOOGLE","icon":"https://maps.gstatic.com/mapfiles/place_api/icons/bus-71.png","name":"Capitol & Myrtle","html_attributions":[],"geometry":{"viewport":{"east":-116.20389021970851,"south":43.6104597197085,"north":43.6131576802915,"west":-116.20658818029153},"location":{"lng":-116.2052392,"lat":43.6118087}},"vicinity":"United States","id":"b00ce0b880fc50c8399141df70fdc9016f26ec30","place_id":"ChIJK_xudvD4rlQRPuARuLRMWEU"},{"reference":"CmRRAAAAC4Yb9z6zHP-WGLgvFr1yms6JlV8FAZIbCRK_jxOYwfZ__YTl9Usl4EuFk-zSvQNKyGvRbB2_DGqGgbkjhKIaO-CkimJlssEOdTXMPpSKfOhtK5eLgdLs-40CPzdZiebxEhABWCRlYn9QPUs7V7WpTN0AGhSyZhL-D7910-nQqAwxlsD1ip4ChQ","types":["bus_station","transit_station","point_of_interest","establishment"],"scope":"GOOGLE","icon":"https://maps.gstatic.com/mapfiles/place_api/icons/bus-71.png","name":"9th & Myrtle","html_attributions":[],"geometry":{"viewport":{"east":-116.20615901970848,"south":43.6120499197085,"north":43.6147478802915,"west":-116.2088569802915},"location":{"lng":-116.20750800000002,"lat":43.6133989}},"vicinity":"United States","id":"e0ff2c15d822bc8fc039cfe6075d41748ae00551","place_id":"ChIJEwg95O_4rlQR7whHYk3kCSc"},{"reference":"CmRSAAAAQQTTrnWHPt803IdseMA2pp1NrAFoU8fEu4xoncLCJizUy1dCaCXFGkY7cnyKyRJH8hgRrUUBi8iTWLxhmZVeWhYrTwmYp_F1Ao5JBD19QhzfWhVUifKFydGGfvbglyrxEhCxjes87QGmlx5fEVogb279GhT8yyZvACuaBTfcLI33TqbdexEU_g","types":["bus_station","transit_station","point_of_interest","establishment"],"scope":"GOOGLE","icon":"https://maps.gstatic.com/mapfiles/place_api/icons/bus
2017-05-26T02:30:08.899859+00:00 app[web.1]: MESSAGE:   {"id":217425929,"msg":{"initConcepts":[{"geometry":{"location":{"lat":43.61335890000001,"lng":-116.20373819999998},"viewport":{"south":43.61200991970851,"west":-116.20508718029151,"north":43.6147078802915,"east":-116.2023892197085}},"icon":"https://maps.gstatic.com/mapfiles/place_api/icons/bus-71.png","id":"a909ebb7570ffd6aa6adc0f48358f40e968436b7","name":"Capitol & Front","place_id":"ChIJLxwgzvr4rlQRpqDI2HCrPxU","reference":"CmRRAAAA474EOQGsy1ZzutuM3BF0Xh3IvKwl-lWAK3O5uSoffqdS6lCmdJRtC5sIDGLZntMGPTXaCOkjAnWfXS97ykKyHvtyZ_GpRyFJcPMtiG-unEyTEE9CGvIPpB0gAe2WSnU0EhAncxgJr8h6kdHrqATCDIyBGhQagRxHUyypzATbCAto9JZ1uJQ4yg","scope":"GOOGLE","types":["bus_station","transit_station","point_of_interest","establishment"],"vicinity":"United States","html_attributions":[]},{"geometry":{"location":{"lat":43.6153059,"lng":-116.20307059999999},"viewport":{"south":43.61395691970849,"west":-116.20441958029153,"north":43.61665488029149,"east":-116.20172161970851}},"icon":"https://maps.gstatic.com/mapfiles/place_api/icons/bus-71.png","id":"0587e83f0aee4a9dc98aea6635c342c6019bc32a","name":"Zone 3 Main & 8th","place_id":"ChIJKRel6-T4rlQRldwcUF1-KvU","reference":"CmRSAAAAXOneEn_8Jigch-pQ18ONUApnBgMMUeqYlWIrJgc154ettEMKO9HGLmZOduF1AMgQ9qQbO8sFMjE2A7UfIZKUNA7NTInIbGeoydvt7hzG7hcdXh9xAjBNhW74quYUrPvyEhAMsELm-MsIXC05Q0DZsgz1GhQiSNunXqsnb_XRex-jQgKBp65Nyg","scope":"GOOGLE","types":["bus_station","transit_station","point_of_interest","establishment"],"vicinity":"United States","html_attributions":[]},{"geometry":{"location":{"lat":43.6152114,"lng":-116.20283919999997},"viewport":{"south":43.6138624197085,"west":-116.20418818029151,"north":43.6165603802915,"east":-116.20149021970849}},"icon":"https://maps.gstatic.com/mapfiles/place_api/icons/bus-71.png","id":"67db16eba229eecf669a657cbb50ef82f8176ac5","name":"Main Street Station","photos":[{"height":1198,"html_attributions":["<a href=\"https://maps.google.com/maps/contrib/112554802017139705501/photos\">Jose Perez</a>"],"width":2554}],"place_id":"ChIJ8caI6OT4rlQR8sIM2qkvhpY","rating":3.3,"reference":"CmRSAAAAV4M67m7s2BQQD2sN6Dy33tg013R11yUfCARZLCbK065QtwPT1BqnDzkXx3LjSEe1qXvPFDW-gOWBGnQsJdCUH03kM491SDx5JbNhdFmFr8b9l_98ZnOU2MQdFL9GCOdTEhBDfk4btqozwrTQWLHmOM-tGhQdRhWW2RWlehvuHRPP1rqzTuzsyg","scope":"GOOGLE","types":["bus_station","transit_station","point_of_interest","establishment"],"vicinity":"United States","html_attributions":[]},{"geometry":{"location":{"lat":43.6157877,"lng":-116.20403540000001},"viewport":{"south":43.6144387197085,"west":-116.20538438029149,"north":43.61713668029149,"east":-116.20268641970847}},"icon":"https://maps.gstatic.com/mapfiles/place_api/icons/bus-71.png","id":"e1819ed120c39c0664632ecdcdf65fbcb3522557","name":"Main & 8th","place_id":"ChIJ84Qy9-T4rlQRoeyaW6vfdHs","reference":"CmRRAAAAqFFJuxdPcBvAJcWCPEJKmvlsyHlPD2mgjsmJza-UrfIlHHlukgO0GtmHKCEz4HZY0TUX7OxeFQbAbQHKPiL4eME1SpCPvRVvFB1cYjAmK6k005uDksMKUdyNVaueid6rEhCd2fFplKa6S20d8AF2LbfLGhTwVr6mQo0-jR9RQhm_bX40oMEFTQ","scope":"GOOGLE","types":["bus_station","transit_station","point_of_interest","establishment"],"vicinity":"United States","html_attributions":[]},{"geometry":{"location":{"lat":43.6146941,"lng":-116.20585940000001},"viewport":{"south":43.6133451197085,"west":-116.20720838029149,"north":43.6160430802915,"east":-116.20451041970853}},"icon":"https://maps.gstatic.com/mapfiles/place_api/icons/bus-71.png","id":"ef5151da1806f4384cdb5d88d9c269a873563eb1","name":"Front & 9th","place_id":"ChIJufKZFOX4rlQRY4rp-CZfuNE","reference":"CmRSAAAAQM3qmGOC5hpJQgChs1jmR99VBYKmH8znJr6Pr9G9qQHmvl3qJzK9pxJJyRdu3Yvd9ZM_FxszO8GcYt7oSo1TqW0M0mSXk6XM5i3sigxw6MwUYKByMqPK8fYuY0S9IZU-EhDvFKlEC3yt4ZinQyO81YPZGhTn4k-7va0un1m3RaqiRmK2Z_zFhQ","scope":"GOOGLE","types":["bus_station","transit_station","point_of_interest","establishment"],"vicinity":"United States","html_attributions":[]},{"geometry":{"location":{"lat":43.6154203,"lng":-116.20559650000001},"viewport":{"south":43.6140713197085,"west":-116.2069454802915,"north":43.61676928029149,"east":-116.20424751970847}},"icon":"https://maps.gstatic.com/mapfiles/place_api/icons/bus-71.png","id":"3785b675451fb4c34b7971c1090932ef819d49b7","name":"9th & Grove","place_id":"ChIJ6-dwBuX4rlQRyb5APgaNAaw","reference":"CmRSAAAA0L4h1mc_DCYEdh7MdAnqxRKjvVZWo3NeeCs1qzBF4JQzq7yYJCxx-N8K6C1xTB27T4cc4dBzvmKI-fX-tGddbe1Ipw1z5ekvnGZ1q_C7kB0Nc-mYQLju9p3ICzWf-cEQEhCEVfmV2gW4pd6kWILzDBa_GhQn5nmP9JQyA3kEyZil0Nth9sOwLg","scope":"GOOGLE","types":["bus_station","transit_station","point_of_interest","establishment"],"vicinity":"United States","html_attributions":[]},{"geometry":{"location":{"lat":43.61620389999999,"lng":-116.20487989999998},"viewport":{"south":43.61485491970849,"west":-116.20622888029152,"north":43.61755288029149,"east":-116.2035309197085}},"icon":"https://maps.gstatic.com/mapfiles/place_api/icons/bus-71.png","id":"540f909a2a20c59fb48aef2baf68647be95c552b","name":"Intercounty Zone, Main & 9th","place_id":"ChIJ7wQpUeT4rlQRMAQwLxmFlsI","reference":"CmRSAAAARHbOvPBTO2vZM-YeedaxvmiM89Ou1Z8BPDP2bIO1xNMmoafhEQroK9F-ZTPZJggKECt3bpZ7_Ypj1neEd4TNU157h3HWd-I3x0-_O7pgU3W0edw7oH1i37znJwBIO6m0EhBDP6kcVwVRT4fgczNpyPnVGhRyjh0wWvokNr-2Dlp-XPGAfrKIBQ","scope":"GOOGLE","types":["bus_station","transit_station","point_of_interest","establishment"],"vicinity":"United States","html_attributions":[]},{"geometry":{"location":{"lat":43.6165887,"lng":-116.20291650000001},"viewport":{"south":43.61523971970851,"west":-116.2042654802915,"north":43.6179376802915,"east":-116.20156751970853}},"icon":"https://maps.gstatic.com/mapfiles/place_api/icons/bus-71.png","id":"e9aeb7da3880076df1d2778c950e35edcbac82a2","name":"Intercounty Zone Idaho & 8th","place_id":"ChIJQfbqfOT4rlQRkwvGpuszW5Y","reference":"CmRSAAAABsHSN5oOV5BL-MKAG6983yXfIx2kcTv-cAkaMhpKyohNOp92lO75ejPamX-yfF5ETaYS3OMKrdovS0CDXPmMwkvUx5FvVBCFQbFcC2OZdMFFHLpMLQA0pNfAzrrBhLodEhB6CdY4tQUkwBIHkq0sCPOqGhQWrxyhtWjlrR_FzrSrcUvacjxpEg","scope":"GOOGLE","types":["bus_station","transit_station","point_of_interest","establishment"],"vicinity":"United States","html_attributions":[]},{"geometry":{"location":{"lat":43.6157838,"lng":-116.20134280000002},"viewport":{"south":43.6144348197085,"west":-116.2026917802915,"north":43.6171327802915,"east":-116.19999381970848}},"icon":"https://maps.gstatic.com/mapfiles/place_api/icons/bus-71.png","id":"961b798e1a0f5e0d07975b10914003c3d1e95f40","name":"Idaho & Capitol","place_id":"ChIJmRIKneT4rlQRCKdgwJySpso","reference":"CmRSAAAAHQon5aVq10hzkP6dpWh2cv4MpEcFJsTyKFHSUkWWWG6kZ2OcvrJR6wdwtjnIjoNy3oRMy5OGpttWtH-TCISkWrm-nYKFJ_pJS2D6Or6KNQG8t7scm5furdqI_CorqzY2EhD9hpdjmh5DqPdun7nbcG2xGhTMorIduP-9tXyTuZ9g9gJW3xqF6Q","scope":"GOOGLE","types":["bus_station","transit_station","point_of_interest","establishment"],"vicinity":"United States","html_attributions":[]},{"geometry":{"location":{"lat":43.6171585,"lng":-116.2040844},"viewport":{"south":43.6158095197085,"west":-116.20543338029148,"north":43.61850748029149,"east":-116.20273541970852}},"icon":"https://maps.gstatic.com/mapfiles/place_api/icons/bus-71.png","id":"7223e3d1285721f958a6df354f8de2ee4b8b5488","name":"Idaho & 9th","place_id":"ChIJX_yEbOT4rlQRbrKsQ3rxp_8","reference":"CmRSAAAA62O8go0aGIEyi8k77gZBZEooOqVoZSnRfarGLb-VS2yMazB64srKDjlrhB5y3okApIKs0y55mjU5svw4UQ4w-jiMgEu19CN73bZLgnTh9OryNabE0aclG5Wq0n0YmZJfEhArjLPtsT-DhbkLpIdZBOgvGhR8PyZeJM_XHE7p9oK0f2mkuIs4iQ","scope":"GOOGLE","types":["bus_station","transit_station","point_of_interest","establishment"],"vicinity":"United States","html_attributions":[]},{"geometry":{"location":{"lat":43.613845,"lng":-116.20019880000001},"viewport":{"south":43.6124960197085,"west":-116.20154778029149,"north":43.61519398029149,"east":-116.19884981970847}},"icon":"https://maps.gstatic.com/mapfiles/place_api/icons/bus-71.png","id":"823c2ffb1dc31f4dfb417a5b3b91911ef8249ca0","name":"Main & 5th","place_id":"ChIJfeCcW_v4rlQRI6s4aE4Ke-g","reference":"CmRSAAAATKpLYi6HdFLHt4nOr2nO_Pumq_y6eG5Ax682wzthH9YoSd5leUGP9cJJRzSCTtcyhL7XrGtnM-HZxbHghiuy-OAdFVYgi8BoNjoHOa_V5J6epfmyZ4HlSxK2ykkVeut2EhAgSwqWPQ262G-7Z25mmujWGhSkhCPrfVLFcqsOyWz7CYenzwZcbg","scope":"GOOGLE","types":["bus_station","transit_station","point_of_interest","establishment"],"vicinity":"United States","html_attributions":[]},{"geometry":{"location":{"lat":43.6118087,"lng":-116.2052392},"viewport":{"south":43.6104597197085,"west":-116.20658818029153,"north":43.6131576802915,"east":-116.20389021970851}},"icon":"https://maps.gstatic.com/mapfiles/place_api/icons/bus-71.png","id":"b00ce0b880fc50c8399141df70fdc9016f26ec30","name":"Capitol & Myrtle","place_id":"ChIJK_xudvD4rlQRPuARuLRMWEU","reference":"CmRRAAAAjLoY_9ZF898w7lZFBVwFEFm1ZN6QTEYd1zV_yU85wfrV2z4ooVwUV3JrcISv56ddmbUKEhMyBc2HJK0KBdKd-j14WYsoFWWmhns1tH8Bu0Q-Lm_hHzqPFRr7qNC48_w7EhAS2IKzIAKzGmPnjTbux0ccGhR4A-AP2dmsz1OH_rm6riV0lgGGQw","scope":"GOOGLE","types":["bus_station","transit_station","point_of_interest","establishment"],"vicinity":"United States","html_attributions":[]},{"geometry":{"location":{"lat":43.6133989,"lng":-116.20750800000002},"viewport":{"south":43.6120499197085,"west":-116.2088569802915,"north":43.6147478802915,"east":-116.20615901970848}},"icon":"https://maps.gstatic.com/mapfiles/place_api/icons/bus-71.png","id":"e0ff2c15d822bc8fc039cfe6075d41748ae00551","name":"9th & Myrtle","place_id":"ChIJEwg95O_4rlQR7whHYk3kCSc","reference":"CmRRAAAAC4Yb9z6zHP-WGLgvFr1yms6JlV8FAZIbCRK_jxOYwfZ__YTl9Usl4EuFk-zSvQNKyGvRbB2_DGqGgbkjhKIaO-CkimJlssEOdTXMPpSKfOhtK5eLgdLs-40CPzdZiebxEhABWCRlYn9QPUs7V7WpTN0AGhSyZhL-D7910-nQqAwxlsD1ip4ChQ","scope":"GOOGLE","types":["bus_station","transit_station","point_of_interest","establishment"],"vicinity":"United States","html_attributions":[]},{"geometry":{"location":{"lat":43.617817,"lng":-116.20323919999998},"viewport":{"south":43.6164680197085,"west":-116.20458818029147,"north":43.6191659802915,"east":-116.2018902197085}},"icon":"https://maps.gstatic.com/mapfiles/place_api/icons/bus-71.png","id":"392329dc3d449d0d63c77eeeed7398ea81226172","name":"9th & Bannock","place_id":"ChIJx1MM9uP4rlQRoKidHnJyp-w","reference":"CmR
2017-05-26T02:30:22.022735+00:00 heroku[router]: at=info method=GET path="/" host=ambroisea1.herokuapp.com request_id=559ccea8-28cb-45d6-b57b-261b92682fdd fwd="96.18.214.247" dyno=web.1 connect=0ms service=14095ms status=101 bytes=243 protocol=https
2017-05-26T02:30:22.023101+00:00 app[web.1]: Close: statusCode=1001, reason=null
2017-05-26T03:05:04.623467+00:00 heroku[web.1]: Idling
2017-05-26T03:05:04.623467+00:00 heroku[web.1]: State changed from up to down
2017-05-26T03:05:05.260785+00:00 heroku[web.1]: Stopping all processes with SIGTERM
2017-05-26T03:05:05.801374+00:00 heroku[web.1]: Process exited with status 143
2017-05-26T13:24:11.285599+00:00 heroku[web.1]: Unidling
2017-05-26T13:24:11.285815+00:00 heroku[web.1]: State changed from down to starting
2017-05-26T13:24:21.165592+00:00 heroku[web.1]: Starting process with command `java -Dserver.port=56460 $JAVA_OPTS -jar build/libs/*.jar`
2017-05-26T13:24:22.731007+00:00 app[web.1]: Setting JAVA_TOOL_OPTIONS defaults based on dyno size. Custom settings will override them.
2017-05-26T13:24:22.733845+00:00 app[web.1]: Picked up JAVA_TOOL_OPTIONS: -Xmx350m -Xss512k -Dfile.encoding=UTF-8
2017-05-26T13:24:22.913936+00:00 app[web.1]: INFO  log: Logging initialized @174ms
2017-05-26T13:24:23.007284+00:00 app[web.1]: INFO  Server: jetty-9.3.z-SNAPSHOT
2017-05-26T13:24:23.091894+00:00 app[web.1]: INFO  ServerConnector: Started ServerConnector@70e68a58{HTTP/1.1,[http/1.1]}{0.0.0.0:56460}
2017-05-26T13:24:23.092108+00:00 app[web.1]: INFO  Server: Started @358ms
2017-05-26T13:24:23.739710+00:00 heroku[web.1]: State changed from starting to up
2017-05-26T13:24:25.385320+00:00 heroku[router]: at=info method=GET path="/" host=ambroisea1.herokuapp.com request_id=d85df42e-7dd2-4c15-b2cb-d39bdd103ad1 fwd="132.178.207.4" dyno=web.1 connect=0ms service=26ms status=304 bytes=116 protocol=http
2017-05-26T13:59:55.438083+00:00 heroku[web.1]: Idling
2017-05-26T13:59:55.438586+00:00 heroku[web.1]: State changed from up to down
2017-05-26T13:59:56.138619+00:00 heroku[web.1]: Stopping all processes with SIGTERM
2017-05-26T13:59:56.559223+00:00 heroku[web.1]: Process exited with status 143
2017-05-26T15:47:39.231339+00:00 heroku[web.1]: Unidling
2017-05-26T15:47:39.231670+00:00 heroku[web.1]: State changed from down to starting
2017-05-26T15:47:48.666275+00:00 heroku[web.1]: Starting process with command `java -Dserver.port=36155 $JAVA_OPTS -jar build/libs/*.jar`
2017-05-26T15:47:50.317584+00:00 app[web.1]: Setting JAVA_TOOL_OPTIONS defaults based on dyno size. Custom settings will override them.
2017-05-26T15:47:50.321322+00:00 app[web.1]: Picked up JAVA_TOOL_OPTIONS: -Xmx350m -Xss512k -Dfile.encoding=UTF-8
2017-05-26T15:47:50.560117+00:00 app[web.1]: INFO  log: Logging initialized @230ms
2017-05-26T15:47:50.658476+00:00 app[web.1]: INFO  Server: jetty-9.3.z-SNAPSHOT
2017-05-26T15:47:50.727285+00:00 app[web.1]: INFO  ServerConnector: Started ServerConnector@70e68a58{HTTP/1.1,[http/1.1]}{0.0.0.0:36155}
2017-05-26T15:47:50.727466+00:00 app[web.1]: INFO  Server: Started @406ms
2017-05-26T15:47:51.068132+00:00 heroku[web.1]: State changed from starting to up
2017-05-26T15:47:51.335053+00:00 heroku[router]: at=info method=GET path="/favicon.ico" host=ambroisea1.herokuapp.com request_id=7e2d8b84-ca5c-46f5-9b07-ab147ec2c900 fwd="54.174.114.150" dyno=web.1 connect=0ms service=4ms status=404 bytes=554 protocol=https
2017-05-26T15:47:51.280378+00:00 heroku[router]: at=info method=GET path="/" host=ambroisea1.herokuapp.com request_id=b03e0f42-3d85-41a7-a476-7be07cccd47c fwd="52.91.184.228" dyno=web.1 connect=0ms service=16ms status=200 bytes=17581 protocol=https
2017-05-26T15:47:53.293750+00:00 heroku[router]: at=info method=GET path="/" host=ambroisea1.herokuapp.com request_id=4794d7f9-dad5-4564-93c3-67ec061591e7 fwd="132.178.238.18" dyno=web.1 connect=1ms service=3ms status=200 bytes=17581 protocol=https
2017-05-26T16:24:33.004565+00:00 heroku[web.1]: Idling
2017-05-26T16:24:33.005105+00:00 heroku[web.1]: State changed from up to down
2017-05-26T16:24:33.993103+00:00 heroku[web.1]: Stopping all processes with SIGTERM
2017-05-26T16:24:34.812608+00:00 heroku[web.1]: Process exited with status 143
2017-05-26T17:46:42.847410+00:00 heroku[web.1]: Unidling
2017-05-26T17:46:42.847716+00:00 heroku[web.1]: State changed from down to starting
2017-05-26T17:46:54.332033+00:00 heroku[web.1]: Starting process with command `java -Dserver.port=27749 $JAVA_OPTS -jar build/libs/*.jar`
2017-05-26T17:46:56.822146+00:00 app[web.1]: Setting JAVA_TOOL_OPTIONS defaults based on dyno size. Custom settings will override them.
2017-05-26T17:46:56.831173+00:00 app[web.1]: Picked up JAVA_TOOL_OPTIONS: -Xmx350m -Xss512k -Dfile.encoding=UTF-8
2017-05-26T17:46:57.259055+00:00 app[web.1]: INFO  log: Logging initialized @417ms
2017-05-26T17:46:57.428868+00:00 app[web.1]: INFO  Server: jetty-9.3.z-SNAPSHOT
2017-05-26T17:46:57.594906+00:00 app[web.1]: INFO  ServerConnector: Started ServerConnector@79a274e4{HTTP/1.1,[http/1.1]}{0.0.0.0:27749}
2017-05-26T17:46:57.595204+00:00 app[web.1]: INFO  Server: Started @764ms
2017-05-26T17:46:58.062720+00:00 heroku[web.1]: State changed from starting to up
2017-05-26T17:46:59.025504+00:00 heroku[router]: at=info method=GET path="/" host=ambroisea1.herokuapp.com request_id=c8d08131-6d35-4cea-975c-a08cf42489a5 fwd="107.77.245.6" dyno=web.1 connect=1ms service=64ms status=200 bytes=17581 protocol=http
2017-05-26T17:46:59.645466+00:00 heroku[router]: at=info method=GET path="/static/js/recorder.js" host=ambroisea1.herokuapp.com request_id=0ea51cd1-067b-46ac-9315-6a16d96c99e6 fwd="107.77.245.6" dyno=web.1 connect=1ms service=6ms status=200 bytes=2536 protocol=http
2017-05-26T17:46:59.834667+00:00 heroku[router]: at=info method=GET path="/static/js/tree.js" host=ambroisea1.herokuapp.com request_id=5f00eed6-0087-44a4-b14c-dbd34bca5256 fwd="107.77.245.6" dyno=web.1 connect=1ms service=7ms status=200 bytes=4376 protocol=http
2017-05-26T17:47:02.321709+00:00 app[web.1]: INFO  InteractionLogger: 723823613 NEW CONNECTION
2017-05-26T17:47:02.321961+00:00 app[web.1]: INFO  InteractionLogger: 723823613 vid=1
2017-05-26T17:47:03.070039+00:00 app[web.1]: INFO  TedAdapter: Cannot connect to TEDview. I will not retry.
2017-05-26T17:47:03.497132+00:00 app[web.1]: INFO  TedAdapter: Cannot connect to TEDview. I will not retry.
2017-05-26T17:47:03.497608+00:00 app[web.1]: INFO  TedAdapter: Cannot connect to TEDview. I will not retry.
2017-05-26T17:47:03.542957+00:00 app[web.1]: INFO  TedAdapter: Cannot connect to TEDview. I will not retry.
2017-05-26T17:47:03.660232+00:00 app[web.1]: CURRENT INTENT root
2017-05-26T17:47:03.712052+00:00 app[web.1]: INFO  InteractionLogger: 723823613 messageToClient={"depth":3,"iden":"","level":"red","children":[{"iden":"art_gallery","level":"steelblue","name":"art_gallery","type":"steelblue"},{"iden":"bar","level":"steelblue","name":"bar","type":"steelblue"},{"iden":"bus_station","level":"steelblue","name":"bus_station","type":"steelblue"},{"iden":"museum","level":"steelblue","name":"museum","type":"steelblue"},{"iden":"parking","level":"steelblue","name":"parking","type":"steelblue"},{"iden":"restaurant","level":"steelblue","name":"restaurant","type":"steelblue"}],"name":"","type":"red"}
2017-05-26T17:47:03.719951+00:00 app[web.1]: INFO  InteractionLogger: 723823613 messageToClient={"words":""}
2017-05-26T17:47:05.712714+00:00 app[web.1]: MESSAGE:   {"id":723823613,"msg":{"initConcepts":[{"geometry":{"location":{"lat":43.61335890000001,"lng":-116.20373819999998},"viewport":{"south":43.61200991970851,"west":-116.20508718029151,"north":43.6147078802915,"east":-116.2023892197085}},"icon":"https://maps.gstatic.com/mapfiles/place_api/icons/bus-71.png","id":"a909ebb7570ffd6aa6adc0f48358f40e968436b7","name":"Capitol & Front","place_id":"ChIJLxwgzvr4rlQRpqDI2HCrPxU","reference":"CmRRAAAALdX7kLzaLmSllpgaLstuj4zXC1HNLbdLiPuibroS5F8kPREFoHq7dwRJoU-DRsE1bYDhlZF6XheSJAOG5neVcmpQZcpx4sSNO0wOCsT6GCppVWafzb7iPySIIrqUbO5qEhArytjBzKEegzjMc2HpI2U9GhSpB_wWHcCdIgwMw-WhZSB3MntH1g","scope":"GOOGLE","types":["bus_station","transit_station","point_of_interest","establishment"],"vicinity":"United States","html_attributions":[]},{"geometry":{"location":{"lat":43.6153059,"lng":-116.20307059999999},"viewport":{"south":43.61395691970849,"west":-116.20441958029153,"north":43.61665488029149,"east":-116.20172161970851}},"icon":"https://maps.gstatic.com/mapfiles/place_api/icons/bus-71.png","id":"0587e83f0aee4a9dc98aea6635c342c6019bc32a","name":"Zone 3 Main & 8th","place_id":"ChIJKRel6-T4rlQRldwcUF1-KvU","reference":"CmRSAAAAcOzkym5FRc3kG_TRrecOAmTLUPUTiTZ_U3tExKNTEYxmfVzOHh83nvrbuSuCNUrmTzu-DlS6Lhu1E22VXwRDX4WFWtGWuYMtvMJCUWiaDc0X0HxZ6MVrwKU0QTVChhUqEhCupcrn29JYIKBDRrx1bO4fGhSo4PgITKmAvVWZ8XRqo5VW9Gy4NQ","scope":"GOOGLE","types":["bus_station","transit_station","point_of_interest","establishment"],"vicinity":"United States","html_attributions":[]},{"geometry":{"location":{"lat":43.6152114,"lng":-116.20283919999997},"viewport":{"south":43.6138624197085,"west":-116.20418818029151,"north":43.6165603802915,"east":-116.20149021970849}},"icon":"https://maps.gstatic.com/mapfiles/place_api/icons/bus-71.png","id":"67db16eba229eecf669a657cbb50ef82f8176ac5","name":"Main Street Station","photos":[{"height":1198,"html_attributions":["<a href=\"https://maps.google.com/maps/contrib/112554802017139705501/photos\">Jose Perez</a>"],"width":2554}],"place_id":"ChIJ8caI6OT4rlQR8sIM2qkvhpY","rating":3.3,"reference":"CmRSAAAAYKgyMWyNdKkZWfMeAKgjwhLxaO2wy6D2vzBMTMnFRKsnFnh9WjMcZ8xgITVvK_ooiG3ah69ZILKhLTEyUdry-V0aqgurunN34RAbkd9EKsAKJwHOnLECo_LqQTAErapHEhC6xcowbz93JVx_sz048KCNGhSutU7DVKR6o2Qb2mxDF-IS_Sy7QA","scope":"GOOGLE","types":["bus_station","transit_station","point_of_interest","establishment"],"vicinity":"United States","html_attributions":[]},{"geometry":{"location":{"lat":43.6157877,"lng":-116.20403540000001},"viewport":{"south":43.6144387197085,"west":-116.20538438029149,"north":43.61713668029149,"east":-116.20268641970847}},"icon":"https://maps.gstatic.com/mapfiles/place_api/icons/bus-71.png","id":"e1819ed120c39c0664632ecdcdf65fbcb3522557","name":"Main & 8th","place_id":"ChIJ84Qy9-T4rlQRoeyaW6vfdHs","reference":"CmRRAAAAtVJ8JNHEhG6IlJs8FnQSFk97NcdM3WWpDAvogcjzOcCQJ3SGKftOKpgN0uKJZdLdfU-8iD26G6vXaA2LCd41eSAKmdzDy1mFKdIK3inWzM-z8degvVerOF87e2eftcM_EhDAdfJWC4Nt6744H9GEBhjqGhQhguElgRIhOg2ZnifoO8erc_e-6Q","scope":"GOOGLE","types":["bus_station","transit_station","point_of_interest","establishment"],"vicinity":"United States","html_attributions":[]},{"geometry":{"location":{"lat":43.6146941,"lng":-116.20585940000001},"viewport":{"south":43.6133451197085,"west":-116.20720838029149,"north":43.6160430802915,"east":-116.20451041970853}},"icon":"https://maps.gstatic.com/mapfiles/place_api/icons/bus-71.png","id":"ef5151da1806f4384cdb5d88d9c269a873563eb1","name":"Front & 9th","place_id":"ChIJufKZFOX4rlQRY4rp-CZfuNE","reference":"CmRSAAAAf9T36jQ9Qb1BLjIlrrPRNHf9iL4l-ufeTI-Xad7SqgJ_mAeWjCEMeb0l9k8Rmd3-6JP-HvNIwdepSjLoNbMiT7J1UMtbvZ4xr-8ngOmLNb3b842TunqkWruDrFzIfBa2EhBcQLs-LIBU0HDSm0Y5q_xIGhRMbZG3Z6CHWml526O3ZRMFXiUxWQ","scope":"GOOGLE","types":["bus_station","transit_station","point_of_interest","establishment"],"vicinity":"United States","html_attributions":[]},{"geometry":{"location":{"lat":43.6154203,"lng":-116.20559650000001},"viewport":{"south":43.6140713197085,"west":-116.2069454802915,"north":43.61676928029149,"east":-116.20424751970847}},"icon":"https://maps.gstatic.com/mapfiles/place_api/icons/bus-71.png","id":"3785b675451fb4c34b7971c1090932ef819d49b7","name":"9th & Grove","place_id":"ChIJ6-dwBuX4rlQRyb5APgaNAaw","reference":"CmRSAAAAZR26h5LgkmsVfbEsK9w4fdKRSoemjR_CxnOZnM7QdtzqCHLjB0jtutjf46kot5Aoz7dhQ8uVIOZYE6GXJjs6DZHP2wEmPAVt38DU_IO-CehxP1wRQdm5O5xhYZqgPkahEhBWLbiVrLeuNlswlhgFW7uzGhSc69-db2xcKGMDdCNuC-CHeUUMbw","scope":"GOOGLE","types":["bus_station","transit_station","point_of_interest","establishment"],"vicinity":"United States","html_attributions":[]},{"geometry":{"location":{"lat":43.61620389999999,"lng":-116.20487989999998},"viewport":{"south":43.61485491970849,"west":-116.20622888029152,"north":43.61755288029149,"east":-116.2035309197085}},"icon":"https://maps.gstatic.com/mapfiles/place_api/icons/bus-71.png","id":"540f909a2a20c59fb48aef2baf68647be95c552b","name":"Intercounty Zone, Main & 9th","place_id":"ChIJ7wQpUeT4rlQRMAQwLxmFlsI","reference":"CmRSAAAAhlnLgmSy5uTMWCdIfO54ERMCbEKu6mdM_9--5os1rjoAh9_ircS-7pg0NK2Khwba2sO9DnW4W86bXpTUgMXXdbHuGNGLy7WSkh63Q2GCunKp7KVRj7EXr3fakfUbpvWFEhBpbldp9rGmM_2ojbGRmMQ4GhSDxMluGbLfHBqvihdJ6DHS9HSV9A","scope":"GOOGLE","types":["bus_station","transit_station","point_of_interest","establishment"],"vicinity":"United States","html_attributions":[]},{"geometry":{"location":{"lat":43.6165887,"lng":-116.20291650000001},"viewport":{"south":43.61523971970851,"west":-116.2042654802915,"north":43.6179376802915,"east":-116.20156751970853}},"icon":"https://maps.gstatic.com/mapfiles/place_api/icons/bus-71.png","id":"e9aeb7da3880076df1d2778c950e35edcbac82a2","name":"Intercounty Zone Idaho & 8th","place_id":"ChIJQfbqfOT4rlQRkwvGpuszW5Y","reference":"CmRSAAAAR6oJVchgfY3BnsKl7bDYFQBnXsmhsZ67yI7uAKaDqpUD-893EyZ66uhHFmjOaXO-C4wMrNceI_J5ieYTHEx2HnMsvRolFyRBNYGLlxzpinjh4dTRN8jQJ-17RBSQl4VREhDYMG8o5ZKHyD-C5fBPEr_0GhSQVOGcYi3ApP1ZAeFNwpxYrlIepg","scope":"GOOGLE","types":["bus_station","transit_station","point_of_interest","establishment"],"vicinity":"United States","html_attributions":[]},{"geometry":{"location":{"lat":43.6157838,"lng":-116.20134280000002},"viewport":{"south":43.6144348197085,"west":-116.2026917802915,"north":43.6171327802915,"east":-116.19999381970848}},"icon":"https://maps.gstatic.com/mapfiles/place_api/icons/bus-71.png","id":"961b798e1a0f5e0d07975b10914003c3d1e95f40","name":"Idaho & Capitol","place_id":"ChIJmRIKneT4rlQRCKdgwJySpso","reference":"CmRSAAAAH-GQ00jvkQ49bqwHecXwzCdLnnxnp4PuhLfLTQ7jE0gA-rnS8slIyhdB35LaIj86TchX-GQ8t362MiyQH5nCm_6eD8gGz2WT7lz8EyJ75gt1h4d-ZXtRvp6Qg7rCBlYJEhC8xjDnPJOEvv98BHpbXh8PGhRgxfDdXVXUp0Y9hEoP_n3Xh2PeOA","scope":"GOOGLE","types":["bus_station","transit_station","point_of_interest","establishment"],"vicinity":"United States","html_attributions":[]},{"geometry":{"location":{"lat":43.6171585,"lng":-116.2040844},"viewport":{"south":43.6158095197085,"west":-116.20543338029148,"north":43.61850748029149,"east":-116.20273541970852}},"icon":"https://maps.gstatic.com/mapfiles/place_api/icons/bus-71.png","id":"7223e3d1285721f958a6df354f8de2ee4b8b5488","name":"Idaho & 9th","place_id":"ChIJX_yEbOT4rlQRbrKsQ3rxp_8","reference":"CmRSAAAAUrF50qts1Y8_Ks2P9SpsD5rb1s6Gd_C03OCM9ssQZ0yAUZvTdwlnOEHIIWEq5Tud-I5JEgMf-40X-X3KroIimy4UNiqyz4z5P9J-yxxcAahs4YKijTUad8UtjAhHwyk-EhAbiHg0F6sPGVZSVQf-H543GhRX7ID1Bhw7QOdZ53erluX8QHdYcQ","scope":"GOOGLE","types":["bus_station","transit_station","point_of_interest","establishment"],"vicinity":"United States","html_attributions":[]},{"geometry":{"location":{"lat":43.613845,"lng":-116.20019880000001},"viewport":{"south":43.6124960197085,"west":-116.20154778029149,"north":43.61519398029149,"east":-116.19884981970847}},"icon":"https://maps.gstatic.com/mapfiles/place_api/icons/bus-71.png","id":"823c2ffb1dc31f4dfb417a5b3b91911ef8249ca0","name":"Main & 5th","place_id":"ChIJfeCcW_v4rlQRI6s4aE4Ke-g","reference":"CmRSAAAAGS0gdOdLsjeUY9d-uYXNErohjYAK0UV9OZnB0hAOTWJn2yCVgQqgyvmT00Y7aaZ7F-yZB9jOdlGtD4OgDzyG5pYcg61qNTkeNpZqr076eLYoaTJQwN0ILmo2nR1co_Y0EhCO71BrSZ0NRHRjMtRQtsWKGhRbzgLW_RGtxoUdr1N5lmUcyMTyWQ","scope":"GOOGLE","types":["bus_station","transit_station","point_of_interest","establishment"],"vicinity":"United States","html_attributions":[]},{"geometry":{"location":{"lat":43.6118087,"lng":-116.2052392},"viewport":{"south":43.6104597197085,"west":-116.20658818029153,"north":43.6131576802915,"east":-116.20389021970851}},"icon":"https://maps.gstatic.com/mapfiles/place_api/icons/bus-71.png","id":"b00ce0b880fc50c8399141df70fdc9016f26ec30","name":"Capitol & Myrtle","place_id":"ChIJK_xudvD4rlQRPuARuLRMWEU","reference":"CmRRAAAAx870otNwdkQd8XDNItzc09VCIRS2YDpzDJqkl0kkVGHE9NLYaLew5lVTKJd_fDLiHbx5vIBpexoUvKsOCwbx8TrEWf4arQGlQ8yjN94A_J8Nzo4T1ltkZh3dvBpY1mYAEhCvF6AVo3bYGfc-rBMORa7uGhSgmrIGPv5Y5rQ8427tXHq6_0NUfA","scope":"GOOGLE","types":["bus_station","transit_station","point_of_interest","establishment"],"vicinity":"United States","html_attributions":[]},{"geometry":{"location":{"lat":43.6133989,"lng":-116.20750800000002},"viewport":{"south":43.6120499197085,"west":-116.2088569802915,"north":43.6147478802915,"east":-116.20615901970848}},"icon":"https://maps.gstatic.com/mapfiles/place_api/icons/bus-71.png","id":"e0ff2c15d822bc8fc039cfe6075d41748ae00551","name":"9th & Myrtle","place_id":"ChIJEwg95O_4rlQR7whHYk3kCSc","reference":"CmRRAAAAc4K3VURoneLfREXzkY7d9_BrsAYEGLX8gr77y71ItZTbwTNWL50W_G3k-IXZFErbLDefL3pu_b8SOzoBD1myERcwheb8IhcB7TA8wkx8Kmrgi6vIhDJXmDhWGPkirjZLEhDNq2eqP6FwWlUVwM2piix8GhQIN4-IznQ4pX2i5Ylq6rRpmPE3yw","scope":"GOOGLE","types":["bus_station","transit_station","point_of_interest","establishment"],"vicinity":"United States","html_attributions":[]},{"geometry":{"location":{"lat":43.617817,"lng":-116.20323919999998},"viewport":{"south":43.6164680197085,"west":-116.20458818029147,"north":43.6191659802915,"east":-116.2018902197085}},"icon":"https://maps.gstatic.com/mapfiles/place_api/icons/bus-71.png","id":"392329dc3d449d0d63c77eeeed7398ea81226172","name":"9th & Bannock","place_id":"ChIJx1MM9uP4rlQRoKidHnJyp-w","reference":"CmR
2017-05-26T17:47:05.712714+00:00 app[web.1]: SAAAAPMSD6VCgZDSoR5CFbkcrQA8VWICED1FeVM6GkyMsjI_Hu566fegrVoHpjzPl_zob6KU0DeURkaae4HdZA0XwLN7NGCsUQzb0lrsm7h6QXbED33Q5xB1HX5lQaclsheF_EhDHugL5LoLrEh_95mxL9CU0GhTWtGi2gUUOSLCE_Ww69g_k7kqajw","scope":"GOOGLE","types":["bus_station","transit_station","point_of_interest","establishment"],"vicinity":"United States","html_attributions":[]},{"geometry":{"location":{"lat":43.6146068,"lng":-116.19901920000001},"viewport":{"south":43.6132578197085,"west":-116.20036818029149,"north":43.6159557802915,"east":-116.19767021970847}},"icon":"https://maps.gstatic.com/mapfiles/place_api/icons/bus-71.png","id":"3cc63dc61b1d9144145686b1850d67e4ae2d6fc5","name":"Idaho & 5th","place_id":"ChIJRW0psvz4rlQRcR64SIFgHKI","reference":"CmRSAAAA57Kagd4kXLQsjODdENOHO9vqZXUalaDHsARbPSFn51nSW8OVbskkRd0YaaYxL04IT1YaaJtZpX8D-jg4yMpwK6ha0C4ZC0jU-x_FLkA731lyqxGhgFRr5X4ve3fzLnbTEhD7QZy2OfTDOjVWeWPz2oxPGhT5gQfMfb-n2YCfEpRjL5GJaMZTzg","scope":"GOOGLE","types":["bus_station","transit_station","point_of_interest","establishment"],"vicinity":"United States","html_attributions":[]},{"geometry":{"location":{"lat":43.6173825,"lng":-116.20718469999997},"viewport":{"south":43.61603351970849,"west":-116.20853368029151,"north":43.61873148029149,"east":-116.20583571970849}},"icon":"https://maps.gstatic.com/mapfiles/place_api/icons/bus-71.png","id":"d0458a39dc47dd13e5386d08f44bb25063dd564b","name":"Main & 11th","place_id":"ChIJTbzk0-X4rlQRDKRQ49Oc9ys","reference":"CmRRAAAAIXLBPq2OjAd7GQxMjHrJWXDFvjA841Ld_KA-Y9dMp13hg-MnGWZxVHjOrOX7rWz6KRNQz45pfs4UywE2Z7q-y16IiEN_HUVqtnPvjjWMv_u3AoOjZ5uezIj_tUfRkXkREhDLUkK50DIEHX41YvjNyaZWGhSGXmxNeSuE3aoO0faU_JvCCLXsxA","scope":"GOOGLE","types":["bus_station","transit_station","point_of_interest","establishment"],"vicinity":"United States","html_attributions":[]},{"geometry":{"location":{"lat":43.6178789,"lng":-116.2011488},"viewport":{"south":43.6165299197085,"west":-116.20249778029148,"north":43.6192278802915,"east":-116.19979981970852}},"icon":"https://maps.gstatic.com/mapfiles/place_api/icons/bus-71.png","id":"9e98929efa343aa594618d43fe1fba8281a0e185","name":"Jefferson & 8th","place_id":"ChIJuxM4v-P4rlQRBlpLxu-pdes","reference":"CmRSAAAAVOairANZx9tnSF19AxvedtyBhWUqlxnr3d6Wtsa13yhodRnsvIHx_VlAzBkE_EWPoqyxb3NMKJL3WjglgHrJIiRiyaVsBAEUHC1orSBSlbnZdELqAaT_VGbWKvjZVMm5EhCe3At6hUqcQd340SvmQ7tPGhTLkTORNHUp5OdsWhRHbgn7FeKjPw","scope":"GOOGLE","types":["bus_station","transit_station","point_of_interest","establishment"],"vicinity":"United States","html_attributions":[]},{"geometry":{"location":{"lat":43.6105434,"lng":-116.20645309999998},"viewport":{"south":43.60919441970851,"west":-116.20780208029151,"north":43.6118923802915,"east":-116.2051041197085}},"icon":"https://maps.gstatic.com/mapfiles/place_api/icons/bus-71.png","id":"9e679f3069195b4c3921ba15d02aafb63c0e7b38","name":"Capitol & River","place_id":"ChIJZ9J_-fD4rlQRkm2h_oUOmvw","reference":"CmRSAAAAIiRIrD0kGQH6A_0gdf1XPrQlvs1-st5gCjgn0SWwIB5gpTAnbj3S9cpWEE5y0HkZWya6Dsn1evD4dKwxsSoOkD8teq3Dui2Y8k1sfecYm2XpExGLU58jbsGQdTcw8xXHEhAM8Vf7OV9pzmQzsM9Sv_ndGhTMMndQ0tOr1EP0g9PK5xfLi-ApXQ","scope":"GOOGLE","types":["bus_station","transit_station","point_of_interest","establishment"],"vicinity":"United States","html_attributions":[]},{"geometry":{"location":{"lat":43.618412,"lng":-116.2065518},"viewport":{"south":43.6170630197085,"west":-116.20790078029148,"north":43.6197609802915,"east":-116.20520281970852}},"icon":"https://maps.gstatic.com/mapfiles/place_api/icons/bus-71.png","id":"534329da0e3ade9cdf1f13ce3f2eb1e76e2daf99","name":"Idaho & 11th","place_id":"ChIJa0HIm-b4rlQRsqMfwyKKe9s","reference":"CmRSAAAA1ZjkmYPtuEy8qFFYc4nnEkpoR2v_RGeheW8ky3PhncJwFvpwQDATZ6-ofgy4W0vONmoL8B1Ipv8MXEbBjCeStNttN0A5Xlnkrce-yVFxbSGJnh2pVzLAiq3Q2zoHOmbAEhCokuA3xJ_ftLF_jeE1tzKaGhSyfKdrtImCWsTh6kqWQuR1-9WY9w","scope":"GOOGLE","types":["bus_station","transit_station","point_of_interest","establishment"],"vicinity":"United States","html_attributions":[]}]}}
2017-05-26T17:47:05.801118+00:00 app[web.1]: INFO  InteractionLogger: 723823613 messageFromClient={"initConcepts":[{"reference":"CmRRAAAALdX7kLzaLmSllpgaLstuj4zXC1HNLbdLiPuibroS5F8kPREFoHq7dwRJoU-DRsE1bYDhlZF6XheSJAOG5neVcmpQZcpx4sSNO0wOCsT6GCppVWafzb7iPySIIrqUbO5qEhArytjBzKEegzjMc2HpI2U9GhSpB_wWHcCdIgwMw-WhZSB3MntH1g","types":["bus_station","transit_station","point_of_interest","establishment"],"scope":"GOOGLE","icon":"https://maps.gstatic.com/mapfiles/place_api/icons/bus-71.png","name":"Capitol & Front","html_attributions":[],"geometry":{"viewport":{"east":-116.2023892197085,"south":43.61200991970851,"north":43.6147078802915,"west":-116.20508718029151},"location":{"lng":-116.20373819999998,"lat":43.61335890000001}},"vicinity":"United States","id":"a909ebb7570ffd6aa6adc0f48358f40e968436b7","place_id":"ChIJLxwgzvr4rlQRpqDI2HCrPxU"},{"reference":"CmRSAAAAcOzkym5FRc3kG_TRrecOAmTLUPUTiTZ_U3tExKNTEYxmfVzOHh83nvrbuSuCNUrmTzu-DlS6Lhu1E22VXwRDX4WFWtGWuYMtvMJCUWiaDc0X0HxZ6MVrwKU0QTVChhUqEhCupcrn29JYIKBDRrx1bO4fGhSo4PgITKmAvVWZ8XRqo5VW9Gy4NQ","types":["bus_station","transit_station","point_of_interest","establishment"],"scope":"GOOGLE","icon":"https://maps.gstatic.com/mapfiles/place_api/icons/bus-71.png","name":"Zone 3 Main & 8th","html_attributions":[],"geometry":{"viewport":{"east":-116.20172161970851,"south":43.61395691970849,"north":43.61665488029149,"west":-116.20441958029153},"location":{"lng":-116.20307059999999,"lat":43.6153059}},"vicinity":"United States","id":"0587e83f0aee4a9dc98aea6635c342c6019bc32a","place_id":"ChIJKRel6-T4rlQRldwcUF1-KvU"},{"reference":"CmRSAAAAYKgyMWyNdKkZWfMeAKgjwhLxaO2wy6D2vzBMTMnFRKsnFnh9WjMcZ8xgITVvK_ooiG3ah69ZILKhLTEyUdry-V0aqgurunN34RAbkd9EKsAKJwHOnLECo_LqQTAErapHEhC6xcowbz93JVx_sz048KCNGhSutU7DVKR6o2Qb2mxDF-IS_Sy7QA","types":["bus_station","transit_station","point_of_interest","establishment"],"scope":"GOOGLE","icon":"https://maps.gstatic.com/mapfiles/place_api/icons/bus-71.png","name":"Main Street Station","rating":3.3,"html_attributions":[],"geometry":{"viewport":{"east":-116.20149021970849,"south":43.6138624197085,"north":43.6165603802915,"west":-116.20418818029151},"location":{"lng":-116.20283919999997,"lat":43.6152114}},"vicinity":"United States","id":"67db16eba229eecf669a657cbb50ef82f8176ac5","photos":[{"width":2554,"html_attributions":["<a href=\"https://maps.google.com/maps/contrib/112554802017139705501/photos\">Jose Perez<\/a>"],"height":1198}],"place_id":"ChIJ8caI6OT4rlQR8sIM2qkvhpY"},{"reference":"CmRRAAAAtVJ8JNHEhG6IlJs8FnQSFk97NcdM3WWpDAvogcjzOcCQJ3SGKftOKpgN0uKJZdLdfU-8iD26G6vXaA2LCd41eSAKmdzDy1mFKdIK3inWzM-z8degvVerOF87e2eftcM_EhDAdfJWC4Nt6744H9GEBhjqGhQhguElgRIhOg2ZnifoO8erc_e-6Q","types":["bus_station","transit_station","point_of_interest","establishment"],"scope":"GOOGLE","icon":"https://maps.gstatic.com/mapfiles/place_api/icons/bus-71.png","name":"Main & 8th","html_attributions":[],"geometry":{"viewport":{"east":-116.20268641970847,"south":43.6144387197085,"north":43.61713668029149,"west":-116.20538438029149},"location":{"lng":-116.20403540000001,"lat":43.6157877}},"vicinity":"United States","id":"e1819ed120c39c0664632ecdcdf65fbcb3522557","place_id":"ChIJ84Qy9-T4rlQRoeyaW6vfdHs"},{"reference":"CmRSAAAAf9T36jQ9Qb1BLjIlrrPRNHf9iL4l-ufeTI-Xad7SqgJ_mAeWjCEMeb0l9k8Rmd3-6JP-HvNIwdepSjLoNbMiT7J1UMtbvZ4xr-8ngOmLNb3b842TunqkWruDrFzIfBa2EhBcQLs-LIBU0HDSm0Y5q_xIGhRMbZG3Z6CHWml526O3ZRMFXiUxWQ","types":["bus_station","transit_station","point_of_interest","establishment"],"scope":"GOOGLE","icon":"https://maps.gstatic.com/mapfiles/place_api/icons/bus-71.png","name":"Front & 9th","html_attributions":[],"geometry":{"viewport":{"east":-116.20451041970853,"south":43.6133451197085,"north":43.6160430802915,"west":-116.20720838029149},"location":{"lng":-116.20585940000001,"lat":43.6146941}},"vicinity":"United States","id":"ef5151da1806f4384cdb5d88d9c269a873563eb1","place_id":"ChIJufKZFOX4rlQRY4rp-CZfuNE"},{"reference":"CmRSAAAAZR26h5LgkmsVfbEsK9w4fdKRSoemjR_CxnOZnM7QdtzqCHLjB0jtutjf46kot5Aoz7dhQ8uVIOZYE6GXJjs6DZHP2wEmPAVt38DU_IO-CehxP1wRQdm5O5xhYZqgPkahEhBWLbiVrLeuNlswlhgFW7uzGhSc69-db2xcKGMDdCNuC-CHeUUMbw","types":["bus_station","transit_station","point_of_interest","establishment"],"scope":"GOOGLE","icon":"https://maps.gstatic.com/mapfiles/place_api/icons/bus-71.png","name":"9th & Grove","html_attributions":[],"geometry":{"viewport":{"east":-116.20424751970847,"south":43.6140713197085,"north":43.61676928029149,"west":-116.2069454802915},"location":{"lng":-116.20559650000001,"lat":43.6154203}},"vicinity":"United States","id":"3785b675451fb4c34b7971c1090932ef819d49b7","place_id":"ChIJ6-dwBuX4rlQRyb5APgaNAaw"},{"reference":"CmRSAAAAhlnLgmSy5uTMWCdIfO54ERMCbEKu6mdM_9--5os1rjoAh9_ircS-7pg0NK2Khwba2sO9DnW4W86bXpTUgMXXdbHuGNGLy7WSkh63Q2GCunKp7KVRj7EXr3fakfUbpvWFEhBpbldp9rGmM_2ojbGRmMQ4GhSDxMluGbLfHBqvihdJ6DHS9HSV9A","types":["bus_station","transit_station","point_of_interest","establishment"],"scope":"GOOGLE","icon":"https://maps.gstatic.com/mapfiles/place_api/icons/bus-71.png","name":"Intercounty Zone, Main & 9th","html_attributions":[],"geometry":{"viewport":{"east":-116.2035309197085,"south":43.61485491970849,"north":43.61755288029149,"west":-116.20622888029152},"location":{"lng":-116.20487989999998,"lat":43.61620389999999}},"vicinity":"United States","id":"540f909a2a20c59fb48aef2baf68647be95c552b","place_id":"ChIJ7wQpUeT4rlQRMAQwLxmFlsI"},{"reference":"CmRSAAAAR6oJVchgfY3BnsKl7bDYFQBnXsmhsZ67yI7uAKaDqpUD-893EyZ66uhHFmjOaXO-C4wMrNceI_J5ieYTHEx2HnMsvRolFyRBNYGLlxzpinjh4dTRN8jQJ-17RBSQl4VREhDYMG8o5ZKHyD-C5fBPEr_0GhSQVOGcYi3ApP1ZAeFNwpxYrlIepg","types":["bus_station","transit_station","point_of_interest","establishment"],"scope":"GOOGLE","icon":"https://maps.gstatic.com/mapfiles/place_api/icons/bus-71.png","name":"Intercounty Zone Idaho & 8th","html_attributions":[],"geometry":{"viewport":{"east":-116.20156751970853,"south":43.61523971970851,"north":43.6179376802915,"west":-116.2042654802915},"location":{"lng":-116.20291650000001,"lat":43.6165887}},"vicinity":"United States","id":"e9aeb7da3880076df1d2778c950e35edcbac82a2","place_id":"ChIJQfbqfOT4rlQRkwvGpuszW5Y"},{"reference":"CmRSAAAAH-GQ00jvkQ49bqwHecXwzCdLnnxnp4PuhLfLTQ7jE0gA-rnS8slIyhdB35LaIj86TchX-GQ8t362MiyQH5nCm_6eD8gGz2WT7lz8EyJ75gt1h4d-ZXtRvp6Qg7rCBlYJEhC8xjDnPJOEvv98BHpbXh8PGhRgxfDdXVXUp0Y9hEoP_n3Xh2PeOA","types":["bus_station","transit_station","point_of_interest","establishment"],"scope":"GOOGLE","icon":"https://maps.gstatic.com/mapfiles/place_api/icons/bus-71.png","name":"Idaho & Capitol","html_attributions":[],"geometry":{"viewport":{"east":-116.19999381970848,"south":43.6144348197085,"north":43.6171327802915,"west":-116.2026917802915},"location":{"lng":-116.20134280000002,"lat":43.6157838}},"vicinity":"United States","id":"961b798e1a0f5e0d07975b10914003c3d1e95f40","place_id":"ChIJmRIKneT4rlQRCKdgwJySpso"},{"reference":"CmRSAAAAUrF50qts1Y8_Ks2P9SpsD5rb1s6Gd_C03OCM9ssQZ0yAUZvTdwlnOEHIIWEq5Tud-I5JEgMf-40X-X3KroIimy4UNiqyz4z5P9J-yxxcAahs4YKijTUad8UtjAhHwyk-EhAbiHg0F6sPGVZSVQf-H543GhRX7ID1Bhw7QOdZ53erluX8QHdYcQ","types":["bus_station","transit_station","point_of_interest","establishment"],"scope":"GOOGLE","icon":"https://maps.gstatic.com/mapfiles/place_api/icons/bus-71.png","name":"Idaho & 9th","html_attributions":[],"geometry":{"viewport":{"east":-116.20273541970852,"south":43.6158095197085,"north":43.61850748029149,"west":-116.20543338029148},"location":{"lng":-116.2040844,"lat":43.6171585}},"vicinity":"United States","id":"7223e3d1285721f958a6df354f8de2ee4b8b5488","place_id":"ChIJX_yEbOT4rlQRbrKsQ3rxp_8"},{"reference":"CmRSAAAAGS0gdOdLsjeUY9d-uYXNErohjYAK0UV9OZnB0hAOTWJn2yCVgQqgyvmT00Y7aaZ7F-yZB9jOdlGtD4OgDzyG5pYcg61qNTkeNpZqr076eLYoaTJQwN0ILmo2nR1co_Y0EhCO71BrSZ0NRHRjMtRQtsWKGhRbzgLW_RGtxoUdr1N5lmUcyMTyWQ","types":["bus_station","transit_station","point_of_interest","establishment"],"scope":"GOOGLE","icon":"https://maps.gstatic.com/mapfiles/place_api/icons/bus-71.png","name":"Main & 5th","html_attributions":[],"geometry":{"viewport":{"east":-116.19884981970847,"south":43.6124960197085,"north":43.61519398029149,"west":-116.20154778029149},"location":{"lng":-116.20019880000001,"lat":43.613845}},"vicinity":"United States","id":"823c2ffb1dc31f4dfb417a5b3b91911ef8249ca0","place_id":"ChIJfeCcW_v4rlQRI6s4aE4Ke-g"},{"reference":"CmRRAAAAx870otNwdkQd8XDNItzc09VCIRS2YDpzDJqkl0kkVGHE9NLYaLew5lVTKJd_fDLiHbx5vIBpexoUvKsOCwbx8TrEWf4arQGlQ8yjN94A_J8Nzo4T1ltkZh3dvBpY1mYAEhCvF6AVo3bYGfc-rBMORa7uGhSgmrIGPv5Y5rQ8427tXHq6_0NUfA","types":["bus_station","transit_station","point_of_interest","establishment"],"scope":"GOOGLE","icon":"https://maps.gstatic.com/mapfiles/place_api/icons/bus-71.png","name":"Capitol & Myrtle","html_attributions":[],"geometry":{"viewport":{"east":-116.20389021970851,"south":43.6104597197085,"north":43.6131576802915,"west":-116.20658818029153},"location":{"lng":-116.2052392,"lat":43.6118087}},"vicinity":"United States","id":"b00ce0b880fc50c8399141df70fdc9016f26ec30","place_id":"ChIJK_xudvD4rlQRPuARuLRMWEU"},{"reference":"CmRRAAAAc4K3VURoneLfREXzkY7d9_BrsAYEGLX8gr77y71ItZTbwTNWL50W_G3k-IXZFErbLDefL3pu_b8SOzoBD1myERcwheb8IhcB7TA8wkx8Kmrgi6vIhDJXmDhWGPkirjZLEhDNq2eqP6FwWlUVwM2piix8GhQIN4-IznQ4pX2i5Ylq6rRpmPE3yw","types":["bus_station","transit_station","point_of_interest","establishment"],"scope":"GOOGLE","icon":"https://maps.gstatic.com/mapfiles/place_api/icons/bus-71.png","name":"9th & Myrtle","html_attributions":[],"geometry":{"viewport":{"east":-116.20615901970848,"south":43.6120499197085,"north":43.6147478802915,"west":-116.2088569802915},"location":{"lng":-116.20750800000002,"lat":43.6133989}},"vicinity":"United States","id":"e0ff2c15d822bc8fc039cfe6075d41748ae00551","place_id":"ChIJEwg95O_4rlQR7whHYk3kCSc"},{"reference":"CmRSAAAAPMSD6VCgZDSoR5CFbkcrQA8VWICED1FeVM6GkyMsjI_Hu566fegrVoHpjzPl_zob6KU0DeURkaae4HdZA0XwLN7NGCsUQzb0lrsm7h6QXbED33Q5xB1HX5lQaclsheF_EhDHugL5LoLrEh_95mxL9CU0GhTWtGi2gUUOSLCE_Ww69g_k7kqajw","types":["bus_station","transit_station","point_of_interest","establishment"],"scope":"GOOGLE","icon":"https://maps.gstatic.com/mapfiles/place_api/icons/bus
2017-05-26T17:47:05.801118+00:00 app[web.1]: -71.png","name":"9th & Bannock","html_attributions":[],"geometry":{"viewport":{"east":-116.2018902197085,"south":43.6164680197085,"north":43.6191659802915,"west":-116.20458818029147},"location":{"lng":-116.20323919999998,"lat":43.617817}},"vicinity":"United States","id":"392329dc3d449d0d63c77eeeed7398ea81226172","place_id":"ChIJx1MM9uP4rlQRoKidHnJyp-w"},{"reference":"CmRSAAAA57Kagd4kXLQsjODdENOHO9vqZXUalaDHsARbPSFn51nSW8OVbskkRd0YaaYxL04IT1YaaJtZpX8D-jg4yMpwK6ha0C4ZC0jU-x_FLkA731lyqxGhgFRr5X4ve3fzLnbTEhD7QZy2OfTDOjVWeWPz2oxPGhT5gQfMfb-n2YCfEpRjL5GJaMZTzg","types":["bus_station","transit_station","point_of_interest","establishment"],"scope":"GOOGLE","icon":"https://maps.gstatic.com/mapfiles/place_api/icons/bus-71.png","name":"Idaho & 5th","html_attributions":[],"geometry":{"viewport":{"east":-116.19767021970847,"south":43.6132578197085,"north":43.6159557802915,"west":-116.20036818029149},"location":{"lng":-116.19901920000001,"lat":43.6146068}},"vicinity":"United States","id":"3cc63dc61b1d9144145686b1850d67e4ae2d6fc5","place_id":"ChIJRW0psvz4rlQRcR64SIFgHKI"},{"reference":"CmRRAAAAIXLBPq2OjAd7GQxMjHrJWXDFvjA841Ld_KA-Y9dMp13hg-MnGWZxVHjOrOX7rWz6KRNQz45pfs4UywE2Z7q-y16IiEN_HUVqtnPvjjWMv_u3AoOjZ5uezIj_tUfRkXkREhDLUkK50DIEHX41YvjNyaZWGhSGXmxNeSuE3aoO0faU_JvCCLXsxA","types":["bus_station","transit_station","point_of_interest","establishment"],"scope":"GOOGLE","icon":"https://maps.gstatic.com/mapfiles/place_api/icons/bus-71.png","name":"Main & 11th","html_attributions":[],"geometry":{"viewport":{"east":-116.20583571970849,"south":43.61603351970849,"north":43.61873148029149,"west":-116.20853368029151},"location":{"lng":-116.20718469999997,"lat":43.6173825}},"vicinity":"United States","id":"d0458a39dc47dd13e5386d08f44bb25063dd564b","place_id":"ChIJTbzk0-X4rlQRDKRQ49Oc9ys"},{"reference":"CmRSAAAAVOairANZx9tnSF19AxvedtyBhWUqlxnr3d6Wtsa13yhodRnsvIHx_VlAzBkE_EWPoqyxb3NMKJL3WjglgHrJIiRiyaVsBAEUHC1orSBSlbnZdELqAaT_VGbWKvjZVMm5EhCe3At6hUqcQd340SvmQ7tPGhTLkTORNHUp5OdsWhRHbgn7FeKjPw","types":["bus_station","transit_station","point_of_interest","establishment"],"scope":"GOOGLE","icon":"https://maps.gstatic.com/mapfiles/place_api/icons/bus-71.png","name":"Jefferson & 8th","html_attributions":[],"geometry":{"viewport":{"east":-116.19979981970852,"south":43.6165299197085,"north":43.6192278802915,"west":-116.20249778029148},"location":{"lng":-116.2011488,"lat":43.6178789}},"vicinity":"United States","id":"9e98929efa343aa594618d43fe1fba8281a0e185","place_id":"ChIJuxM4v-P4rlQRBlpLxu-pdes"},{"reference":"CmRSAAAAIiRIrD0kGQH6A_0gdf1XPrQlvs1-st5gCjgn0SWwIB5gpTAnbj3S9cpWEE5y0HkZWya6Dsn1evD4dKwxsSoOkD8teq3Dui2Y8k1sfecYm2XpExGLU58jbsGQdTcw8xXHEhAM8Vf7OV9pzmQzsM9Sv_ndGhTMMndQ0tOr1EP0g9PK5xfLi-ApXQ","types":["bus_station","transit_station","point_of_interest","establishment"],"scope":"GOOGLE","icon":"https://maps.gstatic.com/mapfiles/place_api/icons/bus-71.png","name":"Capitol & River","html_attributions":[],"geometry":{"viewport":{"east":-116.2051041197085,"south":43.60919441970851,"north":43.6118923802915,"west":-116.20780208029151},"location":{"lng":-116.20645309999998,"lat":43.6105434}},"vicinity":"United States","id":"9e679f3069195b4c3921ba15d02aafb63c0e7b38","place_id":"ChIJZ9J_-fD4rlQRkm2h_oUOmvw"},{"reference":"CmRSAAAA1ZjkmYPtuEy8qFFYc4nnEkpoR2v_RGeheW8ky3PhncJwFvpwQDATZ6-ofgy4W0vONmoL8B1Ipv8MXEbBjCeStNttN0A5Xlnkrce-yVFxbSGJnh2pVzLAiq3Q2zoHOmbAEhCokuA3xJ_ftLF_jeE1tzKaGhSyfKdrtImCWsTh6kqWQuR1-9WY9w","types":["bus_station","transit_station","point_of_interest","establishment"],"scope":"GOOGLE","icon":"https://maps.gstatic.com/mapfiles/place_api/icons/bus-71.png","name":"Idaho & 11th","html_attributions":[],"geometry":{"viewport":{"east":-116.20520281970852,"south":43.6170630197085,"north":43.6197609802915,"west":-116.20790078029148},"location":{"lng":-116.2065518,"lat":43.618412}},"vicinity":"United States","id":"534329da0e3ade9cdf1f13ce3f2eb1e76e2daf99","place_id":"ChIJa0HIm-b4rlQRsqMfwyKKe9s"}]}
2017-05-26T17:47:06.987158+00:00 heroku[router]: at=info method=GET path="/" host=ambroisea1.herokuapp.com request_id=c6c33cd1-b825-443a-abe0-9369c8b07b4a fwd="107.77.244.66" dyno=web.1 connect=1ms service=5160ms status=101 bytes=438 protocol=https
2017-05-26T17:47:06.998365+00:00 app[web.1]: Close: statusCode=1001, reason=null
2017-05-26T18:22:29.076376+00:00 heroku[web.1]: Idling
2017-05-26T18:22:29.076948+00:00 heroku[web.1]: State changed from up to down
2017-05-26T18:22:29.884004+00:00 heroku[web.1]: Stopping all processes with SIGTERM
2017-05-26T18:22:30.477288+00:00 heroku[web.1]: Process exited with status 143
