\relax 
\citation{clarkschaefer:contrdis}
\citation{Kruijff2012}
\citation{kennington-schlangen2016}
\citation{Chai2014}
\citation{Dethlefs2015}
\citation{Hough2017a}
\citation{Aist2006}
\citation{Skantze2009}
\citation{skantze2010sigdial}
\citation{Asri2014}
\citation{kennington-schlangen2016}
\citation{Edlund2008b}
\citation{Aistetal:incrunder-short}
\citation{Tanenhaus1995}
\citation{Spivey_2002tw}
\citation{Schlangen2011}
\citation{kennington-kousidis-schlangen:2014:W14-43}
\@writefile{toc}{\contentsline {section}{Introduction}{\thepage }}
\newlabel{section:intro}{{1}{\thepage }}
\@writefile{toc}{\contentsline {section}{Background and Related Work}{\thepage }}
\newlabel{section:related_work}{{2}{\thepage }}
\@writefile{toc}{\contentsline {section}{System Description}{\thepage }}
\newlabel{section:system_def}{{3}{\thepage }}
\@writefile{toc}{\contentsline {subsection}{Incremental Dialogue}{\thepage }}
\@writefile{toc}{\contentsline {section}{Experiments}{\thepage }}
\newlabel{section:experiments}{{4}{\thepage }}
\bibstyle{SIGCHI-Reference-Format}
\bibdata{refs}
\bibcite{Aist2006}{1}
\bibcite{Aistetal:incrunder-short}{2}
\bibcite{Asri2014}{3}
\bibcite{Chai2014}{4}
\bibcite{clarkschaefer:contrdis}{5}
\bibcite{Dethlefs2015}{6}
\bibcite{Edlund2008b}{7}
\bibcite{Hough2017a}{8}
\bibcite{kennington-kousidis-schlangen:2014:W14-43}{9}
\bibcite{kennington-schlangen2016}{10}
\bibcite{Kruijff2012}{11}
\bibcite{Schlangen2011}{12}
\bibcite{skantze2010sigdial}{13}
\bibcite{Skantze2009}{14}
\bibcite{Spivey_2002tw}{15}
\bibcite{Tanenhaus1995}{16}
\@writefile{toc}{\contentsline {subsection}{Task \& Procedure}{\thepage }}
\newlabel{section:task_procedure}{{4.1}{\thepage }}
\@writefile{toc}{\contentsline {paragraph}{Metrics}{\thepage }}
\@writefile{toc}{\contentsline {subsection}{Discussion}{\thepage }}
\@writefile{toc}{\contentsline {section}{Conclusion \& Future Work}{\thepage }}
\@writefile{toc}{\contentsline {paragraph}{Acknowledgements}{\thepage }}
\@writefile{toc}{\contentsline {section}{{References} }{\thepage }}
