{
  "concepts": [
    {
      "concept": "art source gallery",
      "properties": [{"property": "media"},{"property": "inexpensive"},{"property": "art"},{"property": "source"},{"property": "gallery"}]
    },
    {
      "concept": "the art of ward hooper gallery",
      "properties": [{"property": "jewelery"},{"property":"designs"},{"property": "art"},{"property": "ward"},{"property": "hopper"},{"property": "gallery"}]
    },    
    {
      "concept": "freak alley gallery",
      "properties": [{"property": "grafitti"},{"property":"potraits"},{"property": "freak"},{"property": "alley"},{"property": "gallery"}]
    },    
    {
      "concept": "browns gallery llc",
      "properties": [{"property": "collections"},{"property": "browns"},{"property": "gallery"},{"property": "llc"}]
    },
    {
      "concept": "cole marr durham photography workshops",
      "properties": [{"property":"classes"},{"property": "groupons"},{"property": "cole"},{"property": "marr"},{"property": "durham"},{"property": "photography"},{"property": "workshops"}]
    },   
    {
      "concept": "boise creative center",
      "properties": [{"property": "parties"}, {"property": "painting"},{"property": "canvas"},{"property": "night"},{"property":"boise"},{"property":"creative"},{"property":"center"}]
    },
    {
      "concept": "r. grey gallery",
      "properties": [{"property": "r"}, {"property": "art-glasses"}, {"property": "jewellery"},{"property":"grey"},{"property":"gallery"}]
    },
    {
      "concept": "prints plus",
      "properties": [{"property": "prints"},{"property":"plus"},{"property": "paintings"}, {"property": "paintings"},{"property":"frames"}]
    },
    {
      "concept": "ming studios",
      "properties": [{"property": "ming"},{"property":"studios"}]
    }    
  ],
  "intent": "gallery name"

}